{
    "ip": "143.89.131.79",
    "dns.hostname": "eepc79.ee.ust.hk",
    "dns.authority": "eesvr4.ee.ust.hk. postmaster.eesvr4.ee.ust.hk. 2017050801 3600 3600 60480 3600",
    "geoip.country": "Hong Kong",
    "geoip.country_code": "HK",
    "geoip.specific_name": null,
    "geoip.specific_name_code": null,
    "geoip.latitude": 22.2833,
    "geoip.longitude": 114.15,
    "geoip.as_number": 3363,
    "geoip.as_organization": "Hong Kong University of Science and Technology",
    "shodan.ports": [
        22
    ],
    "shodan.tags": [],
    "rosversion": {
        "port": "11311",
        "method": "rosversion",
        "arg": "/rosversion",
        "status": "ok",
        "response": {
            "status_code": 1,
            "status_message": "Parameter [/rosversion]",
            "param": "1.12.7\n"
        }
    },
    "rosparamnames": {
        "port": "11311",
        "method": "paramnames",
        "arg": "",
        "status": "ok",
        "response": {
            "status_code": 1,
            "status_message": "Parameter names",
            "paramNames": [
                "/roslaunch/uris/host_ram_gpu_station__43719",
                "/roslaunch/uris/host_ram_gpu_station__32954",
                "/roslaunch/uris/host_ram_gpu_station__33668",
                "/roslaunch/uris/host_ram_gpu_station__33878",
                "/roslaunch/uris/host_ram_gpu_station__40225",
                "/roslaunch/uris/host_ram_gpu_station__41561",
                "/rosversion",
                "/run_id",
                "/catvehicle/joint2_velocity_controller/joint",
                "/catvehicle/joint2_velocity_controller/pid/i",
                "/catvehicle/joint2_velocity_controller/pid/p",
                "/catvehicle/joint2_velocity_controller/pid/d",
                "/catvehicle/joint2_velocity_controller/type",
                "/catvehicle/tf_prefix",
                "/catvehicle/distanceEstimator/scan_topic",
                "/catvehicle/camera_right/image_raw_right/compressedDepth/depth_max",
                "/catvehicle/camera_right/image_raw_right/compressedDepth/png_level",
                "/catvehicle/camera_right/image_raw_right/compressedDepth/depth_quantization",
                "/catvehicle/camera_right/image_raw_right/compressed/png_level",
                "/catvehicle/camera_right/image_raw_right/compressed/jpeg_quality",
                "/catvehicle/camera_right/image_raw_right/compressed/format",
                "/catvehicle/camera_right/image_raw_right/theora/optimize_for",
                "/catvehicle/camera_right/image_raw_right/theora/target_bitrate",
                "/catvehicle/camera_right/image_raw_right/theora/quality",
                "/catvehicle/camera_right/image_raw_right/theora/keyframe_frequency",
                "/catvehicle/camera_right/imager_rate",
                "/catvehicle/joint1_velocity_controller/joint",
                "/catvehicle/joint1_velocity_controller/pid/i",
                "/catvehicle/joint1_velocity_controller/pid/p",
                "/catvehicle/joint1_velocity_controller/pid/d",
                "/catvehicle/joint1_velocity_controller/type",
                "/catvehicle/camera_left/image_raw_left/compressedDepth/depth_max",
                "/catvehicle/camera_left/image_raw_left/compressedDepth/png_level",
                "/catvehicle/camera_left/image_raw_left/compressedDepth/depth_quantization",
                "/catvehicle/camera_left/image_raw_left/compressed/png_level",
                "/catvehicle/camera_left/image_raw_left/compressed/jpeg_quality",
                "/catvehicle/camera_left/image_raw_left/compressed/format",
                "/catvehicle/camera_left/image_raw_left/theora/optimize_for",
                "/catvehicle/camera_left/image_raw_left/theora/target_bitrate",
                "/catvehicle/camera_left/image_raw_left/theora/quality",
                "/catvehicle/camera_left/image_raw_left/theora/keyframe_frequency",
                "/catvehicle/camera_left/imager_rate",
                "/catvehicle/robot_description",
                "/catvehicle/front_right_steering_position_controller/joint",
                "/catvehicle/front_right_steering_position_controller/pid/i",
                "/catvehicle/front_right_steering_position_controller/pid/p",
                "/catvehicle/front_right_steering_position_controller/pid/d",
                "/catvehicle/front_right_steering_position_controller/type",
                "/catvehicle/joint_state_controller/type",
                "/catvehicle/joint_state_controller/publish_rate",
                "/catvehicle/front_left_steering_position_controller/type",
                "/catvehicle/front_left_steering_position_controller/pid/i",
                "/catvehicle/front_left_steering_position_controller/pid/p",
                "/catvehicle/front_left_steering_position_controller/pid/d",
                "/catvehicle/front_left_steering_position_controller/joint",
                "/turtlebot_teleop_keyboard/scale_linear",
                "/turtlebot_teleop_keyboard/scale_angular",
                "/use_sim_time",
                "/rviz_1508404189958073006/compressed/mode",
                "/rosdistro",
                "/rviz_1508404151376129919/compressed/mode",
                "/gazebo/gravity_z",
                "/gazebo/cfm",
                "/gazebo/erp",
                "/gazebo/contact_max_correcting_vel",
                "/gazebo/sor_pgs_iters",
                "/gazebo/sor_pgs_precon_iters",
                "/gazebo/auto_disable_bodies",
                "/gazebo/sor_pgs_rms_error_tol",
                "/gazebo/contact_surface_layer",
                "/gazebo/max_update_rate",
                "/gazebo/gravity_x",
                "/gazebo/gravity_y",
                "/gazebo/time_step",
                "/gazebo/max_contacts",
                "/gazebo/sor_pgs_w"
            ]
        }
    },
    "rostopic": {
        "port": "11311",
        "method": "rostopic",
        "arg": "/rosversion",
        "status": "ok",
        "response": {
            "status_code": 1,
            "status_message": "current system state",
            "system_state": {
                "publishers": {
                    "/rslidar_packets": [
                        "/rslidar_node"
                    ],
                    "/rslidar_node/parameter_descriptions": [
                        "/rslidar_node"
                    ],
                    "/joint_states": [
                        "/joint_state_publisher"
                    ],
                    "/rosout": [
                        "/rostopic_23784_1507342254966",
                        "/static_transform_publisher_1507544927532820235",
                        "/joint_state_publisher",
                        "/rslidar_node",
                        "/rqt_gui_py_node_21326",
                        "/rviz_1507547732222441978",
                        "/rqt_gui_cpp_node_23827"
                    ],
                    "/rosout_agg": [
                        "/rosout"
                    ],
                    "/clicked_point": [
                        "/rviz_1507547732222441978"
                    ],
                    "/initialpose": [
                        "/rviz_1507547732222441978"
                    ],
                    "/tf": [
                        "/static_transform_publisher_1507544927532820235"
                    ],
                    "/move_base_simple/goal": [
                        "/rviz_1507547732222441978"
                    ],
                    "/diagnostics": [
                        "/rslidar_node"
                    ],
                    "/rslidar_node/parameter_updates": [
                        "/rslidar_node"
                    ]
                },
                "subscribers": {
                    "/rosout": [
                        "/rosout"
                    ],
                    "/tf": [
                        "/rviz_1507547732222441978"
                    ],
                    "/cropped_points": [
                        "/rviz_1507547732222441978"
                    ],
                    "/tf_static": [
                        "/rviz_1507547732222441978"
                    ],
                    "/curr_obstacle": [
                        "/rostopic_23784_1507342254966"
                    ],
                    "/current_frame": [
                        "/rviz_1507547732222441978"
                    ]
                },
                "services": {
                    "/static_transform_publisher_1507544927532820235/get_loggers": [
                        "/static_transform_publisher_1507544927532820235"
                    ],
                    "/rviz_1507547732222441978/reload_shaders": [
                        "/rviz_1507547732222441978"
                    ],
                    "/joint_state_publisher/set_logger_level": [
                        "/joint_state_publisher"
                    ],
                    "/rqt_gui_py_node_21326/set_logger_level": [
                        "/rqt_gui_py_node_21326"
                    ],
                    "/rviz_1507547732222441978/get_loggers": [
                        "/rviz_1507547732222441978"
                    ],
                    "/rslidar_node/get_loggers": [
                        "/rslidar_node"
                    ],
                    "/rviz_1507547732222441978/set_logger_level": [
                        "/rviz_1507547732222441978"
                    ],
                    "/rosout/set_logger_level": [
                        "/rosout"
                    ],
                    "/static_transform_publisher_1507544927532820235/set_logger_level": [
                        "/static_transform_publisher_1507544927532820235"
                    ],
                    "/rslidar_node/set_parameters": [
                        "/rslidar_node"
                    ],
                    "/rostopic_23784_1507342254966/get_loggers": [
                        "/rostopic_23784_1507342254966"
                    ],
                    "/rostopic_23784_1507342254966/set_logger_level": [
                        "/rostopic_23784_1507342254966"
                    ],
                    "/rqt_gui_cpp_node_23827/get_loggers": [
                        "/rqt_gui_cpp_node_23827"
                    ],
                    "/rqt_gui_py_node_21326/get_loggers": [
                        "/rqt_gui_py_node_21326"
                    ],
                    "/joint_state_publisher/get_loggers": [
                        "/joint_state_publisher"
                    ],
                    "/rqt_gui_cpp_node_23827/set_logger_level": [
                        "/rqt_gui_cpp_node_23827"
                    ],
                    "/rosout/get_loggers": [
                        "/rosout"
                    ],
                    "/rslidar_node/set_logger_level": [
                        "/rslidar_node"
                    ]
                }
            }
        }
    },
    "rosdescription": {
        "port": "11311",
        "method": "robot_description",
        "arg": "/robot_description",
        "status": "ok",
        "response": {
            "status_code": -1,
            "status_message": "Parameter [/robot_description] is not set",
            "param": 0
        }
    },
    "query_stats": {
        "param_count": 76,
        "publisher_count": 11,
        "subscriber_count": 6,
        "service_count": 18,
        "term_count": 116,
        "has_description": false,
        "is_ros": true,
        "roscore_version": "1.12",
        "ros_version_name": "kinetic",
        "missing_term_data": false,
        "roslaunch_machine_hostnames": [
            "ram_gpu_station"
        ],
        "has_hostname": true,
        "machine_hostname": "ram_gpu_station"
    },
    "search_info": {
        "count_control": 1,
        "count_simulators": 3,
        "count_sensors": 4,
        "count_actuators": 3,
        "count_other": 2,
        "count_robot_types": 2,
        "count_targets": 0,
        "total_query_hits": 14
    },
    "search_stats": {
        "control": {
            "param_rosversion": {
                "param": "rosversion",
                "hit": true,
                "count": 1,
                "matches": [
                    "/rosversion"
                ]
            }
        },
        "simulators": {
            "sim_sim": {
                "param": "sim",
                "hit": true,
                "count": 1,
                "matches": [
                    "/use_sim_time"
                ]
            },
            "use_sim_time": {
                "param": "use_sim_time",
                "hit": true,
                "count": 1,
                "matches": [
                    "/use_sim_time"
                ]
            },
            "sim_any": {
                "param": "not",
                "hit": true,
                "children": [
                    {
                        "param": "and",
                        "hit": false,
                        "children": [
                            {
                                "param": "not",
                                "hit": false,
                                "children": [
                                    {
                                        "param": "gazebo",
                                        "hit": true,
                                        "count": 15,
                                        "matches": [
                                            "/gazebo/max_update_rate",
                                            "/gazebo/gravity_y",
                                            "/gazebo/gravity_z",
                                            "/gazebo/sor_pgs_w",
                                            "/gazebo/time_step",
                                            "/gazebo/sor_pgs_precon_iters",
                                            "/gazebo/contact_max_correcting_vel",
                                            "/gazebo/sor_pgs_iters",
                                            "/gazebo/cfm",
                                            "/gazebo/contact_surface_layer",
                                            "/gazebo/gravity_x",
                                            "/gazebo/erp",
                                            "/gazebo/sor_pgs_rms_error_tol",
                                            "/gazebo/auto_disable_bodies",
                                            "/gazebo/max_contacts"
                                        ]
                                    }
                                ]
                            },
                            {
                                "param": "not",
                                "hit": true,
                                "children": [
                                    {
                                        "param": "stageros",
                                        "hit": false,
                                        "count": 0,
                                        "matches": []
                                    }
                                ]
                            },
                            {
                                "param": "not",
                                "hit": true,
                                "children": [
                                    {
                                        "param": "simulator",
                                        "hit": false,
                                        "count": 0,
                                        "matches": []
                                    }
                                ]
                            },
                            {
                                "param": "not",
                                "hit": false,
                                "children": [
                                    {
                                        "param": "use_sim_time",
                                        "hit": true,
                                        "count": 1,
                                        "matches": [
                                            "/use_sim_time"
                                        ]
                                    }
                                ]
                            },
                            {
                                "param": "not",
                                "hit": true,
                                "children": [
                                    {
                                        "param": "torcs_ros",
                                        "hit": false,
                                        "count": 0,
                                        "matches": []
                                    }
                                ]
                            },
                            {
                                "param": "not",
                                "hit": true,
                                "children": [
                                    {
                                        "param": "unity",
                                        "hit": false,
                                        "count": 0,
                                        "matches": []
                                    }
                                ]
                            },
                            {
                                "param": "not",
                                "hit": true,
                                "children": [
                                    {
                                        "param": "turtlesim",
                                        "hit": false,
                                        "count": 0,
                                        "matches": []
                                    }
                                ]
                            }
                        ]
                    }
                ]
            }
        },
        "sensors": {
            "camera_all": {
                "param": "or",
                "hit": true,
                "children": [
                    {
                        "param": "camera",
                        "hit": true,
                        "count": 22,
                        "matches": [
                            "/catvehicle/camera_right/image_raw_right/compressed/jpeg_quality",
                            "/catvehicle/camera_right/image_raw_right/theora/optimize_for",
                            "/catvehicle/camera_right/image_raw_right/compressedDepth/depth_max",
                            "/catvehicle/camera_right/image_raw_right/compressedDepth/depth_quantization",
                            "/catvehicle/camera_left/imager_rate",
                            "/catvehicle/camera_right/image_raw_right/theora/keyframe_frequency",
                            "/catvehicle/camera_left/image_raw_left/compressedDepth/png_level",
                            "/catvehicle/camera_right/image_raw_right/compressed/format",
                            "/catvehicle/camera_left/image_raw_left/compressedDepth/depth_quantization",
                            "/catvehicle/camera_left/image_raw_left/compressed/jpeg_quality",
                            "/catvehicle/camera_right/image_raw_right/theora/target_bitrate",
                            "/catvehicle/camera_right/image_raw_right/compressedDepth/png_level",
                            "/catvehicle/camera_left/image_raw_left/compressed/png_level",
                            "/catvehicle/camera_right/image_raw_right/theora/quality",
                            "/catvehicle/camera_right/image_raw_right/compressed/png_level",
                            "/catvehicle/camera_left/image_raw_left/compressedDepth/depth_max",
                            "/catvehicle/camera_right/imager_rate",
                            "/catvehicle/camera_left/image_raw_left/theora/quality",
                            "/catvehicle/camera_left/image_raw_left/theora/keyframe_frequency",
                            "/catvehicle/camera_left/image_raw_left/theora/optimize_for",
                            "/catvehicle/camera_left/image_raw_left/compressed/format",
                            "/catvehicle/camera_left/image_raw_left/theora/target_bitrate"
                        ]
                    },
                    {
                        "param": "image",
                        "hit": true,
                        "count": 20,
                        "matches": [
                            "/catvehicle/camera_right/image_raw_right/compressed/jpeg_quality",
                            "/catvehicle/camera_right/image_raw_right/theora/optimize_for",
                            "/catvehicle/camera_right/image_raw_right/compressedDepth/depth_max",
                            "/catvehicle/camera_right/image_raw_right/compressedDepth/depth_quantization",
                            "/catvehicle/camera_right/image_raw_right/theora/keyframe_frequency",
                            "/catvehicle/camera_left/image_raw_left/compressedDepth/png_level",
                            "/catvehicle/camera_right/image_raw_right/compressed/format",
                            "/catvehicle/camera_left/image_raw_left/compressedDepth/depth_quantization",
                            "/catvehicle/camera_left/image_raw_left/compressed/jpeg_quality",
                            "/catvehicle/camera_right/image_raw_right/theora/target_bitrate",
                            "/catvehicle/camera_right/image_raw_right/compressedDepth/png_level",
                            "/catvehicle/camera_left/image_raw_left/compressed/png_level",
                            "/catvehicle/camera_right/image_raw_right/theora/quality",
                            "/catvehicle/camera_right/image_raw_right/compressed/png_level",
                            "/catvehicle/camera_left/image_raw_left/compressedDepth/depth_max",
                            "/catvehicle/camera_left/image_raw_left/theora/quality",
                            "/catvehicle/camera_left/image_raw_left/theora/keyframe_frequency",
                            "/catvehicle/camera_left/image_raw_left/theora/optimize_for",
                            "/catvehicle/camera_left/image_raw_left/compressed/format",
                            "/catvehicle/camera_left/image_raw_left/theora/target_bitrate"
                        ]
                    }
                ]
            },
            "camera_nofake": {
                "param": "or",
                "hit": true,
                "children": [
                    {
                        "param": "camera_!fake",
                        "hit": true,
                        "count": 22,
                        "matches": [
                            "/catvehicle/camera_right/image_raw_right/compressed/jpeg_quality",
                            "/catvehicle/camera_right/image_raw_right/theora/optimize_for",
                            "/catvehicle/camera_right/image_raw_right/compressedDepth/depth_max",
                            "/catvehicle/camera_right/image_raw_right/compressedDepth/depth_quantization",
                            "/catvehicle/camera_left/imager_rate",
                            "/catvehicle/camera_right/image_raw_right/theora/keyframe_frequency",
                            "/catvehicle/camera_left/image_raw_left/compressedDepth/png_level",
                            "/catvehicle/camera_right/image_raw_right/compressed/format",
                            "/catvehicle/camera_left/image_raw_left/compressedDepth/depth_quantization",
                            "/catvehicle/camera_left/image_raw_left/compressed/jpeg_quality",
                            "/catvehicle/camera_right/image_raw_right/theora/target_bitrate",
                            "/catvehicle/camera_right/image_raw_right/compressedDepth/png_level",
                            "/catvehicle/camera_left/image_raw_left/compressed/png_level",
                            "/catvehicle/camera_right/image_raw_right/theora/quality",
                            "/catvehicle/camera_right/image_raw_right/compressed/png_level",
                            "/catvehicle/camera_left/image_raw_left/compressedDepth/depth_max",
                            "/catvehicle/camera_right/imager_rate",
                            "/catvehicle/camera_left/image_raw_left/theora/quality",
                            "/catvehicle/camera_left/image_raw_left/theora/keyframe_frequency",
                            "/catvehicle/camera_left/image_raw_left/theora/optimize_for",
                            "/catvehicle/camera_left/image_raw_left/compressed/format",
                            "/catvehicle/camera_left/image_raw_left/theora/target_bitrate"
                        ]
                    },
                    {
                        "param": "image_!fake",
                        "hit": true,
                        "count": 20,
                        "matches": [
                            "/catvehicle/camera_right/image_raw_right/compressed/jpeg_quality",
                            "/catvehicle/camera_right/image_raw_right/theora/optimize_for",
                            "/catvehicle/camera_right/image_raw_right/compressedDepth/depth_max",
                            "/catvehicle/camera_right/image_raw_right/compressedDepth/depth_quantization",
                            "/catvehicle/camera_right/image_raw_right/theora/keyframe_frequency",
                            "/catvehicle/camera_left/image_raw_left/compressedDepth/png_level",
                            "/catvehicle/camera_right/image_raw_right/compressed/format",
                            "/catvehicle/camera_left/image_raw_left/compressedDepth/depth_quantization",
                            "/catvehicle/camera_left/image_raw_left/compressed/jpeg_quality",
                            "/catvehicle/camera_right/image_raw_right/theora/target_bitrate",
                            "/catvehicle/camera_right/image_raw_right/compressedDepth/png_level",
                            "/catvehicle/camera_left/image_raw_left/compressed/png_level",
                            "/catvehicle/camera_right/image_raw_right/theora/quality",
                            "/catvehicle/camera_right/image_raw_right/compressed/png_level",
                            "/catvehicle/camera_left/image_raw_left/compressedDepth/depth_max",
                            "/catvehicle/camera_left/image_raw_left/theora/quality",
                            "/catvehicle/camera_left/image_raw_left/theora/keyframe_frequency",
                            "/catvehicle/camera_left/image_raw_left/theora/optimize_for",
                            "/catvehicle/camera_left/image_raw_left/compressed/format",
                            "/catvehicle/camera_left/image_raw_left/theora/target_bitrate"
                        ]
                    },
                    {
                        "param": "pointgrey_!fake",
                        "hit": false,
                        "count": 0,
                        "matches": []
                    }
                ]
            },
            "camera_depth": {
                "param": "camera_depth_!fake",
                "hit": true,
                "count": 4,
                "matches": [
                    "/catvehicle/camera_right/image_raw_right/compressedDepth/depth_max",
                    "/catvehicle/camera_right/image_raw_right/compressedDepth/depth_quantization",
                    "/catvehicle/camera_left/image_raw_left/compressedDepth/depth_quantization",
                    "/catvehicle/camera_left/image_raw_left/compressedDepth/depth_max"
                ]
            },
            "lidar": {
                "param": "or",
                "hit": true,
                "children": [
                    {
                        "param": "lidar",
                        "hit": false,
                        "count": 0,
                        "matches": []
                    },
                    {
                        "param": "hokuyo",
                        "hit": false,
                        "count": 0,
                        "matches": []
                    },
                    {
                        "param": "scan",
                        "hit": true,
                        "count": 1,
                        "matches": [
                            "/catvehicle/distanceEstimator/scan_topic"
                        ]
                    },
                    {
                        "param": "lms511",
                        "hit": false,
                        "count": 0,
                        "matches": []
                    }
                ]
            }
        },
        "actuators": {
            "transform": {
                "param": "or",
                "hit": true,
                "children": [
                    {
                        "param": "tf",
                        "hit": true,
                        "count": 3,
                        "matches": [
                            "/tf_static",
                            "/catvehicle/tf_prefix",
                            "/tf"
                        ]
                    },
                    {
                        "param": "tf_static",
                        "hit": true,
                        "count": 1,
                        "matches": [
                            "/tf_static"
                        ]
                    }
                ]
            },
            "move_base_simple": {
                "param": "move_base_simple",
                "hit": true,
                "count": 1,
                "matches": [
                    "/move_base_simple/goal"
                ]
            },
            "joint_states": {
                "param": "joint_states",
                "hit": true,
                "count": 1,
                "matches": [
                    "/joint_states"
                ]
            }
        },
        "other": {
            "sim_gazebo": {
                "param": "gazebo",
                "hit": true,
                "count": 15,
                "matches": [
                    "/gazebo/max_update_rate",
                    "/gazebo/gravity_y",
                    "/gazebo/gravity_z",
                    "/gazebo/sor_pgs_w",
                    "/gazebo/time_step",
                    "/gazebo/sor_pgs_precon_iters",
                    "/gazebo/contact_max_correcting_vel",
                    "/gazebo/sor_pgs_iters",
                    "/gazebo/cfm",
                    "/gazebo/contact_surface_layer",
                    "/gazebo/gravity_x",
                    "/gazebo/erp",
                    "/gazebo/sor_pgs_rms_error_tol",
                    "/gazebo/auto_disable_bodies",
                    "/gazebo/max_contacts"
                ]
            },
            "rviz": {
                "param": "rviz",
                "hit": true,
                "count": 6,
                "matches": [
                    "/rviz_1507547732222441978/get_loggers",
                    "/rviz_1507547732222441978/reload_shaders",
                    "/rviz_1507547732222441978",
                    "/rviz_1508404189958073006/compressed/mode",
                    "/rviz_1508404151376129919/compressed/mode",
                    "/rviz_1507547732222441978/set_logger_level"
                ]
            }
        },
        "robot_types": {
            "turtlebot_all": {
                "param": "turtlebot",
                "hit": true,
                "count": 2,
                "matches": [
                    "/turtlebot_teleop_keyboard/scale_angular",
                    "/turtlebot_teleop_keyboard/scale_linear"
                ]
            },
            "turtlebot_nosim": {
                "param": "and",
                "hit": true,
                "children": [
                    {
                        "param": "turtlebot",
                        "hit": true,
                        "count": 2,
                        "matches": [
                            "/turtlebot_teleop_keyboard/scale_angular",
                            "/turtlebot_teleop_keyboard/scale_linear"
                        ]
                    },
                    {
                        "param": "not",
                        "hit": true,
                        "children": [
                            {
                                "param": "turtlesim",
                                "hit": false,
                                "count": 0,
                                "matches": []
                            }
                        ]
                    }
                ]
            }
        },
        "targets": {}
    },
    "inferred_results": {
        "identified_robot": false,
        "search_hit_sim": true,
        "likely_empty": false,
        "needs_more_info": false,
        "confirmed_ros": true,
        "total_hosts": false,
        "is_unconnectable": false,
        "has_only_sensors": false,
        "has_hostname": true,
        "missing_term_data": false,
        "has_description": false,
        "has_descr_name": false,
        "has_search_hits": true,
        "manually_tagged": false,
        "has_sensor": true,
        "has_actuator": true,
        "search_hit_gazebo": true,
        "likely_non_robot": true
    }
}
