{
    "ip": "131.173.210.241",
    "dns.hostname": "",
    "dns.authority": "dns-1.serv.uni-osnabrueck.de. dnsadmin.mail.rz.uni-osnabrueck.de. 508165547 1200 180 1209600 1200",
    "geoip.country": "Germany",
    "geoip.country_code": "DE",
    "geoip.specific_name": "Lower Saxony",
    "geoip.specific_name_code": "NI",
    "geoip.latitude": 52.2667,
    "geoip.longitude": 8.0725,
    "geoip.as_number": 680,
    "geoip.as_organization": "Verein zur Foerderung eines Deutschen Forschungsnetzes e.V.",
    "shodan.ports": [
        22
    ],
    "shodan.tags": [],
    "rosversion": {
        "port": "11311",
        "method": "rosversion",
        "arg": "/rosversion",
        "status": "ok",
        "response": {
            "status_code": 1,
            "status_message": "Parameter [/rosversion]",
            "param": "1.12.7\n"
        }
    },
    "rosparamnames": {
        "port": "11311",
        "method": "paramnames",
        "arg": "",
        "status": "socket_error",
        "error": {
            "code": -1,
            "errno": 110,
            "msg": "Connection timed out"
        }
    },
    "rostopic": {
        "port": "11311",
        "method": "rostopic",
        "arg": "/rosversion",
        "status": "ok",
        "response": {
            "status_code": 1,
            "status_message": "current system state",
            "system_state": {
                "publishers": {
                    "/rosout_agg": [
                        "/rosout"
                    ]
                },
                "subscribers": {
                    "/rosout": [
                        "/rosout"
                    ]
                },
                "services": {
                    "/rosout/set_logger_level": [
                        "/rosout"
                    ],
                    "/rosout/get_loggers": [
                        "/rosout"
                    ]
                }
            }
        }
    },
    "rosdescription": {
        "port": "11311",
        "method": "robot_description",
        "arg": "/robot_description",
        "status": "socket_error",
        "error": {
            "code": -1,
            "errno": 110,
            "msg": "Connection timed out"
        }
    },
    "query_stats": {
        "param_count": 0,
        "publisher_count": 1,
        "subscriber_count": 1,
        "service_count": 2,
        "term_count": 4,
        "has_description": false,
        "is_ros": true,
        "roscore_version": "1.12",
        "ros_version_name": "kinetic",
        "missing_term_data": true,
        "has_hostname": false,
        "roslaunch_machine_hostnames": []
    },
    "search_info": {
        "count_control": 0,
        "count_simulators": 0,
        "count_sensors": 0,
        "count_actuators": 0,
        "count_other": 0,
        "count_robot_types": 0,
        "count_targets": 0,
        "total_query_hits": 0
    },
    "search_stats": {
        "control": {},
        "simulators": {},
        "sensors": {},
        "actuators": {},
        "other": {},
        "robot_types": {},
        "targets": {}
    },
    "inferred_results": {
        "identified_robot": false,
        "search_hit_sim": false,
        "likely_empty": false,
        "needs_more_info": true,
        "confirmed_ros": true,
        "total_hosts": false,
        "is_unconnectable": false,
        "has_only_sensors": false,
        "has_hostname": false,
        "missing_term_data": true,
        "has_description": false,
        "has_descr_name": false,
        "has_search_hits": false,
        "manually_tagged": false,
        "has_sensor": false,
        "has_actuator": false,
        "search_hit_gazebo": false,
        "likely_non_robot": false
    }
}
