{
    "ip": "147.32.84.155",
    "dns.hostname": "reg-III-27.felk.cvut.cz",
    "dns.authority": "ns.felk.cvut.cz. hostmaster.ns.felk.cvut.cz. 2017092101 43200 3600 1209600 3600",
    "geoip.country": "Czechia",
    "geoip.country_code": "CZ",
    "geoip.specific_name": "Hlavni mesto Praha",
    "geoip.specific_name_code": "10",
    "geoip.latitude": 50.0833,
    "geoip.longitude": 14.4667,
    "geoip.as_number": 2852,
    "geoip.as_organization": "CESNET z.s.p.o.",
    "shodan.ports": "",
    "shodan.tags": "",
    "rosversion": {
        "port": "11311",
        "method": "rosversion",
        "arg": "/rosversion",
        "status": "ok",
        "response": {
            "status_code": 1,
            "status_message": "Parameter [/rosversion]",
            "param": "1.11.20\n"
        }
    },
    "rosparamnames": {
        "port": "11311",
        "method": "paramnames",
        "arg": "",
        "status": "socket_error",
        "error": {
            "code": -1,
            "errno": 111,
            "msg": "Connection refused"
        }
    },
    "rostopic": {
        "port": "11311",
        "method": "rostopic",
        "arg": "/rosversion",
        "status": "ok",
        "response": {
            "status_code": 1,
            "status_message": "current system state",
            "system_state": {
                "publishers": {
                    "/gazebo/parameter_descriptions": [
                        "/gazebo"
                    ],
                    "/ScanningOnceAS/result": [
                        "/gazebo_teleop_helper"
                    ],
                    "/scanning_speed_cmd": [
                        "/gazebo_teleop_helper"
                    ],
                    "/rosout_agg": [
                        "/rosout"
                    ],
                    "/flippers_cmd": [
                        "/gazebo_teleop_helper",
                        "/gazebo"
                    ],
                    "/ScanningOnceAS/feedback": [
                        "/gazebo_teleop_helper"
                    ],
                    "/tracks_vel": [
                        "/gazebo"
                    ],
                    "/currents": [
                        "/gazebo"
                    ],
                    "/pointcloud_control": [
                        "/gazebo_teleop_helper"
                    ],
                    "/imu_odom": [
                        "/gazebo"
                    ],
                    "/filtered_joint_states": [
                        "/differential_filter"
                    ],
                    "/flippers_state": [
                        "/gazebo"
                    ],
                    "/ScanningOnceAS/cancel": [
                        "/gazebo_teleop_helper"
                    ],
                    "/robot_status": [
                        "/gazebo"
                    ],
                    "/ScanningOnceAS/goal": [
                        "/gazebo_teleop_helper"
                    ],
                    "/cmd_vel": [
                        "/gazebo"
                    ],
                    "/joint_states": [
                        "/gazebo"
                    ],
                    "/rosout": [
                        "/differential_filter",
                        "/gazebo_teleop_helper",
                        "/gazebo",
                        "/rrt_service",
                        "/rosservice_12720_1507734252537"
                    ],
                    "/ScanningOnceAS/status": [
                        "/gazebo_teleop_helper"
                    ],
                    "/gazebo/dem": [
                        "/gazebo"
                    ],
                    "/gazebo1/clock": [
                        "/gazebo"
                    ],
                    "/safe_exploration/gazebo/model_states_with_acceleration": [
                        "/gazebo"
                    ],
                    "/rrt_service/model_state": [
                        "/rrt_service"
                    ],
                    "/gazebo/link_states": [
                        "/gazebo"
                    ],
                    "/laser_center": [
                        "/gazebo_teleop_helper"
                    ],
                    "/gazebo/model_states": [
                        "/gazebo"
                    ],
                    "/posture": [
                        "/gazebo_teleop_helper"
                    ],
                    "/gazebo/parameter_updates": [
                        "/gazebo"
                    ]
                },
                "subscribers": {
                    "/posture_cmd": [
                        "/gazebo_teleop_helper"
                    ],
                    "/gazebo1/clock": [
                        "/differential_filter",
                        "/gazebo_teleop_helper",
                        "/gazebo",
                        "/rrt_service"
                    ],
                    "/scanning_once": [
                        "/gazebo_teleop_helper"
                    ],
                    "/ScanningOnceAS/result": [
                        "/gazebo_teleop_helper"
                    ],
                    "/gazebo/set_link_state": [
                        "/gazebo"
                    ],
                    "/ScanningOnceAS/cancel": [
                        "/gazebo_teleop_helper"
                    ],
                    "/joint_states": [
                        "/differential_filter",
                        "/gazebo_teleop_helper"
                    ],
                    "/rosout": [
                        "/rosout"
                    ],
                    "/flippers_cmd": [
                        "/gazebo"
                    ],
                    "/flipper_cmd": [
                        "/gazebo"
                    ],
                    "/flippers_state": [
                        "/gazebo_teleop_helper",
                        "/rrt_service"
                    ],
                    "/ScanningOnceAS/status": [
                        "/gazebo_teleop_helper"
                    ],
                    "/clock": [
                        "/rosout",
                        "/rosservice_12720_1507734252537"
                    ],
                    "/gazebo/set_model_state": [
                        "/gazebo"
                    ],
                    "/robot_status": [
                        "/gazebo_teleop_helper"
                    ],
                    "/ScanningOnceAS/goal": [
                        "/gazebo_teleop_helper"
                    ],
                    "/safe_exploration/gazebo/model_states_with_acceleration": [
                        "/rrt_service"
                    ],
                    "/cmd_vel": [
                        "/gazebo"
                    ],
                    "/gazebo/joy": [
                        "/gazebo"
                    ],
                    "/ScanningOnceAS/feedback": [
                        "/gazebo_teleop_helper"
                    ]
                },
                "services": {
                    "/gazebo/apply_joint_effort": [
                        "/gazebo"
                    ],
                    "/rosservice_12720_1507734252537/get_loggers": [
                        "/rosservice_12720_1507734252537"
                    ],
                    "/gazebo/get_physics_properties": [
                        "/gazebo"
                    ],
                    "/differential_filter/set_logger_level": [
                        "/differential_filter"
                    ],
                    "/gazebo/set_link_state": [
                        "/gazebo"
                    ],
                    "/rrt_planning/pfind": [
                        "/rrt_service"
                    ],
                    "/gazebo_teleop_helper/set_logger_level": [
                        "/gazebo_teleop_helper"
                    ],
                    "/rrt_planning/play_nodes": [
                        "/rrt_service"
                    ],
                    "/gazebo/set_joint_properties": [
                        "/gazebo"
                    ],
                    "/rrt_planning/reset": [
                        "/rrt_service"
                    ],
                    "/gazebo/set_logger_level": [
                        "/gazebo"
                    ],
                    "/rrt_planning/print_setpoints": [
                        "/rrt_service"
                    ],
                    "/gazebo/reset_world": [
                        "/gazebo"
                    ],
                    "/gazebo/set_model_configuration": [
                        "/gazebo"
                    ],
                    "/gazebo/get_world_properties": [
                        "/gazebo"
                    ],
                    "/gazebo/set_parameters": [
                        "/gazebo"
                    ],
                    "/gazebo_teleop_helper/get_loggers": [
                        "/gazebo_teleop_helper"
                    ],
                    "/rrt_planning/fall": [
                        "/rrt_service"
                    ],
                    "/safe_exploration/gazebo/reset": [
                        "/gazebo"
                    ],
                    "/differential_filter/get_loggers": [
                        "/differential_filter"
                    ],
                    "/gazebo/spawn_sdf_model": [
                        "/gazebo"
                    ],
                    "/gazebo/set_model_state": [
                        "/gazebo"
                    ],
                    "/gazebo/unpause_physics": [
                        "/gazebo"
                    ],
                    "/rosservice_12720_1507734252537/set_logger_level": [
                        "/rosservice_12720_1507734252537"
                    ],
                    "/gazebo/get_loggers": [
                        "/gazebo"
                    ],
                    "/rosout/set_logger_level": [
                        "/rosout"
                    ],
                    "/gazebo/clear_body_wrenches": [
                        "/gazebo"
                    ],
                    "/gazebo/spawn_gazebo_model": [
                        "/gazebo"
                    ],
                    "/gazebo/pause_physics": [
                        "/gazebo"
                    ],
                    "/rrt_planning/compare": [
                        "/rrt_service"
                    ],
                    "/gazebo/clear_joint_forces": [
                        "/gazebo"
                    ],
                    "/gazebo/set_physics_properties": [
                        "/gazebo"
                    ],
                    "/rrt_service/get_loggers": [
                        "/rrt_service"
                    ],
                    "/rrt_planning/move": [
                        "/rrt_service"
                    ],
                    "/rrt_planning/iter": [
                        "/rrt_service"
                    ],
                    "/rrt_planning/init": [
                        "/rrt_service"
                    ],
                    "/gazebo/reset_simulation": [
                        "/gazebo"
                    ],
                    "/gazebo/delete_model": [
                        "/gazebo"
                    ],
                    "/rrt_planning/show_expansion": [
                        "/rrt_service"
                    ],
                    "/gazebo/spawn_urdf_model": [
                        "/gazebo"
                    ],
                    "/rrt_planning/path": [
                        "/rrt_service"
                    ],
                    "/rrt_service/set_logger_level": [
                        "/rrt_service"
                    ],
                    "/gazebo/set_link_properties": [
                        "/gazebo"
                    ],
                    "/gazebo/get_joint_properties": [
                        "/gazebo"
                    ],
                    "/gazebo/apply_body_wrench": [
                        "/gazebo"
                    ],
                    "/safe_exploration/gazebo/step_simulation": [
                        "/gazebo"
                    ],
                    "/safe_exploration/gazebo/test_policy_safety": [
                        "/gazebo"
                    ],
                    "/gazebo/get_link_state": [
                        "/gazebo"
                    ],
                    "/rrt_planning/path_follow": [
                        "/rrt_service"
                    ],
                    "/rosout/get_loggers": [
                        "/rosout"
                    ],
                    "/gazebo/get_model_properties": [
                        "/gazebo"
                    ],
                    "/rrt_planning/show_path": [
                        "/rrt_service"
                    ],
                    "/gazebo/get_model_state": [
                        "/gazebo"
                    ],
                    "/gazebo/get_link_properties": [
                        "/gazebo"
                    ]
                }
            }
        }
    },
    "rosdescription": {
        "port": "11311",
        "method": "robot_description",
        "arg": "/robot_description",
        "status": "socket_error",
        "error": {
            "code": -1,
            "errno": 111,
            "msg": "Connection refused"
        }
    },
    "query_stats": {
        "param_count": 0,
        "publisher_count": 28,
        "subscriber_count": 20,
        "service_count": 54,
        "term_count": 92,
        "has_description": false,
        "is_ros": true,
        "roscore_version": "1.11",
        "ros_version_name": "indigo",
        "missing_term_data": true,
        "has_hostname": false,
        "roslaunch_machine_hostnames": []
    },
    "search_info": {
        "count_control": 0,
        "count_simulators": 1,
        "count_sensors": 2,
        "count_actuators": 4,
        "count_other": 1,
        "count_robot_types": 0,
        "count_targets": 1,
        "total_query_hits": 9
    },
    "search_stats": {
        "control": {},
        "simulators": {
            "sim_any": {
                "param": "not",
                "hit": true,
                "children": [
                    {
                        "param": "and",
                        "hit": false,
                        "children": [
                            {
                                "param": "not",
                                "hit": false,
                                "children": [
                                    {
                                        "param": "gazebo",
                                        "hit": true,
                                        "count": 43,
                                        "matches": [
                                            "/safe_exploration/gazebo/step_simulation",
                                            "/gazebo_teleop_helper/set_logger_level",
                                            "/gazebo/link_states",
                                            "/gazebo/pause_physics",
                                            "/gazebo/set_logger_level",
                                            "/gazebo/delete_model",
                                            "/gazebo/get_model_properties",
                                            "/gazebo/spawn_urdf_model",
                                            "/gazebo/clear_body_wrenches",
                                            "/gazebo",
                                            "/safe_exploration/gazebo/reset",
                                            "/gazebo/get_link_properties",
                                            "/gazebo/joy",
                                            "/gazebo/get_link_state",
                                            "/gazebo/apply_body_wrench",
                                            "/gazebo/set_joint_properties",
                                            "/gazebo/set_model_configuration",
                                            "/gazebo/get_joint_properties",
                                            "/gazebo1/clock",
                                            "/gazebo/model_states",
                                            "/gazebo/apply_joint_effort",
                                            "/gazebo/get_loggers",
                                            "/gazebo/get_model_state",
                                            "/gazebo/set_model_state",
                                            "/gazebo/parameter_descriptions",
                                            "/gazebo/dem",
                                            "/gazebo/unpause_physics",
                                            "/gazebo_teleop_helper",
                                            "/gazebo/reset_world",
                                            "/safe_exploration/gazebo/test_policy_safety",
                                            "/gazebo_teleop_helper/get_loggers",
                                            "/gazebo/parameter_updates",
                                            "/gazebo/get_world_properties",
                                            "/gazebo/set_parameters",
                                            "/gazebo/get_physics_properties",
                                            "/gazebo/set_link_properties",
                                            "/gazebo/reset_simulation",
                                            "/gazebo/clear_joint_forces",
                                            "/gazebo/set_link_state",
                                            "/gazebo/spawn_gazebo_model",
                                            "/safe_exploration/gazebo/model_states_with_acceleration",
                                            "/gazebo/spawn_sdf_model",
                                            "/gazebo/set_physics_properties"
                                        ]
                                    }
                                ]
                            },
                            {
                                "param": "not",
                                "hit": true,
                                "children": [
                                    {
                                        "param": "stageros",
                                        "hit": false,
                                        "count": 0,
                                        "matches": []
                                    }
                                ]
                            },
                            {
                                "param": "not",
                                "hit": true,
                                "children": [
                                    {
                                        "param": "simulator",
                                        "hit": false,
                                        "count": 0,
                                        "matches": []
                                    }
                                ]
                            },
                            {
                                "param": "not",
                                "hit": true,
                                "children": [
                                    {
                                        "param": "use_sim_time",
                                        "hit": false,
                                        "count": 0,
                                        "matches": []
                                    }
                                ]
                            },
                            {
                                "param": "not",
                                "hit": true,
                                "children": [
                                    {
                                        "param": "torcs_ros",
                                        "hit": false,
                                        "count": 0,
                                        "matches": []
                                    }
                                ]
                            },
                            {
                                "param": "not",
                                "hit": true,
                                "children": [
                                    {
                                        "param": "unity",
                                        "hit": false,
                                        "count": 0,
                                        "matches": []
                                    }
                                ]
                            },
                            {
                                "param": "not",
                                "hit": true,
                                "children": [
                                    {
                                        "param": "turtlesim",
                                        "hit": false,
                                        "count": 0,
                                        "matches": []
                                    }
                                ]
                            }
                        ]
                    }
                ]
            }
        },
        "sensors": {
            "imu": {
                "param": "imu",
                "hit": true,
                "count": 1,
                "matches": [
                    "/imu_odom"
                ]
            },
            "odometry": {
                "param": "odom",
                "hit": true,
                "count": 1,
                "matches": [
                    "/imu_odom"
                ]
            }
        },
        "actuators": {
            "wheels": {
                "param": "cmd_vel",
                "hit": true,
                "count": 1,
                "matches": [
                    "/cmd_vel"
                ]
            },
            "flipper": {
                "param": "flipper",
                "hit": true,
                "count": 1,
                "matches": [
                    "/flipper_cmd"
                ]
            },
            "joystick": {
                "param": "or",
                "hit": true,
                "children": [
                    {
                        "param": "joystick",
                        "hit": false,
                        "count": 0,
                        "matches": []
                    },
                    {
                        "param": "joy",
                        "hit": true,
                        "count": 1,
                        "matches": [
                            "/gazebo/joy"
                        ]
                    }
                ]
            },
            "joint_states": {
                "param": "joint_states",
                "hit": true,
                "count": 2,
                "matches": [
                    "/filtered_joint_states",
                    "/joint_states"
                ]
            }
        },
        "other": {
            "sim_gazebo": {
                "param": "gazebo",
                "hit": true,
                "count": 43,
                "matches": [
                    "/safe_exploration/gazebo/step_simulation",
                    "/gazebo_teleop_helper/set_logger_level",
                    "/gazebo/link_states",
                    "/gazebo/pause_physics",
                    "/gazebo/set_logger_level",
                    "/gazebo/delete_model",
                    "/gazebo/get_model_properties",
                    "/gazebo/spawn_urdf_model",
                    "/gazebo/clear_body_wrenches",
                    "/gazebo",
                    "/safe_exploration/gazebo/reset",
                    "/gazebo/get_link_properties",
                    "/gazebo/joy",
                    "/gazebo/get_link_state",
                    "/gazebo/apply_body_wrench",
                    "/gazebo/set_joint_properties",
                    "/gazebo/set_model_configuration",
                    "/gazebo/get_joint_properties",
                    "/gazebo1/clock",
                    "/gazebo/model_states",
                    "/gazebo/apply_joint_effort",
                    "/gazebo/get_loggers",
                    "/gazebo/get_model_state",
                    "/gazebo/set_model_state",
                    "/gazebo/parameter_descriptions",
                    "/gazebo/dem",
                    "/gazebo/unpause_physics",
                    "/gazebo_teleop_helper",
                    "/gazebo/reset_world",
                    "/safe_exploration/gazebo/test_policy_safety",
                    "/gazebo_teleop_helper/get_loggers",
                    "/gazebo/parameter_updates",
                    "/gazebo/get_world_properties",
                    "/gazebo/set_parameters",
                    "/gazebo/get_physics_properties",
                    "/gazebo/set_link_properties",
                    "/gazebo/reset_simulation",
                    "/gazebo/clear_joint_forces",
                    "/gazebo/set_link_state",
                    "/gazebo/spawn_gazebo_model",
                    "/safe_exploration/gazebo/model_states_with_acceleration",
                    "/gazebo/spawn_sdf_model",
                    "/gazebo/set_physics_properties"
                ]
            }
        },
        "robot_types": {},
        "targets": {
            "planning": {
                "param": "planning",
                "hit": true,
                "count": 13,
                "matches": [
                    "/rrt_planning/print_setpoints",
                    "/rrt_planning/compare",
                    "/rrt_planning/path_follow",
                    "/rrt_planning/pfind",
                    "/rrt_planning/reset",
                    "/rrt_planning/init",
                    "/rrt_planning/path",
                    "/rrt_planning/show_path",
                    "/rrt_planning/move",
                    "/rrt_planning/iter",
                    "/rrt_planning/play_nodes",
                    "/rrt_planning/show_expansion",
                    "/rrt_planning/fall"
                ]
            }
        }
    },
    "inferred_results": {
        "identified_robot": false,
        "search_hit_sim": true,
        "likely_empty": false,
        "needs_more_info": false,
        "confirmed_ros": true,
        "total_hosts": false,
        "is_unconnectable": false,
        "has_only_sensors": false,
        "has_hostname": false,
        "missing_term_data": true,
        "has_description": false,
        "has_descr_name": false,
        "has_search_hits": true,
        "manually_tagged": false,
        "has_sensor": true,
        "has_actuator": true,
        "search_hit_gazebo": true,
        "likely_non_robot": true
    }
}
