{
    "ip": "128.59.22.91",
    "dns.hostname": "captiva.cs.columbia.edu",
    "dns.authority": "apollo.cs.columbia.edu. hostmaster.cs.columbia.edu. 30124522 3600 1800 3600000 3600",
    "geoip.country": "United States",
    "geoip.country_code": "US",
    "geoip.specific_name": "New York",
    "geoip.specific_name_code": "NY",
    "geoip.latitude": 40.8006,
    "geoip.longitude": -73.9653,
    "geoip.as_number": 14,
    "geoip.as_organization": "Columbia University",
    "shodan.ports": [
        902,
        5353,
        22
    ],
    "shodan.tags": [],
    "rosversion": {
        "port": "11311",
        "method": "rosversion",
        "arg": "/rosversion",
        "status": "socket_error",
        "error": {
            "code": -1,
            "errno": 110,
            "msg": "Connection timed out"
        }
    },
    "rosparamnames": {
        "port": "11311",
        "method": "paramnames",
        "arg": "",
        "status": "socket_error",
        "error": {
            "code": -1,
            "errno": 111,
            "msg": "Connection refused"
        }
    },
    "rostopic": {
        "port": "11311",
        "method": "rostopic",
        "arg": "/rosversion",
        "status": "socket_error",
        "error": {
            "code": -1,
            "errno": 110,
            "msg": "Connection timed out"
        }
    },
    "rosdescription": {
        "port": "11311",
        "method": "robot_description",
        "arg": "/robot_description",
        "status": "socket_error",
        "error": {
            "code": -1,
            "errno": 111,
            "msg": "Connection refused"
        }
    },
    "query_stats": {
        "param_count": 0,
        "publisher_count": 0,
        "subscriber_count": 0,
        "service_count": 0,
        "term_count": 0,
        "has_description": false,
        "is_ros": false,
        "missing_term_data": true,
        "has_hostname": false,
        "roslaunch_machine_hostnames": []
    },
    "search_info": "",
    "search_stats": "",
    "inferred_results": {
        "identified_robot": false,
        "search_hit_sim": false,
        "likely_empty": false,
        "needs_more_info": false,
        "confirmed_ros": false,
        "total_hosts": false,
        "is_unconnectable": true,
        "has_only_sensors": false,
        "has_hostname": false,
        "missing_term_data": true,
        "has_description": false,
        "has_descr_name": false,
        "has_search_hits": false,
        "manually_tagged": false,
        "has_sensor": false,
        "has_actuator": false,
        "search_hit_gazebo": false,
        "likely_non_robot": false
    }
}
