{
    "ip": "143.248.122.92",
    "dns.hostname": "",
    "dns.authority": "ns.kaist.ac.kr. root.ns.kaist.ac.kr. 2017101101 3600 900 604800 7200",
    "geoip.country": "Republic of Korea",
    "geoip.country_code": "KR",
    "geoip.specific_name": "Daejeon",
    "geoip.specific_name_code": "30",
    "geoip.latitude": 36.3214,
    "geoip.longitude": 127.4197,
    "geoip.as_number": 1781,
    "geoip.as_organization": "Korea Advanced Institute of Science and Technology",
    "shodan.ports": "",
    "shodan.tags": "",
    "rosversion": {
        "port": "11311",
        "method": "rosversion",
        "arg": "/rosversion",
        "status": "ok",
        "response": {
            "status_code": 1,
            "status_message": "Parameter [/rosversion]",
            "param": "1.12.7\n"
        }
    },
    "rosparamnames": {
        "port": "11311",
        "method": "paramnames",
        "arg": "",
        "status": "ok",
        "response": {
            "status_code": 1,
            "status_message": "Parameter names",
            "paramNames": [
                "/roslaunch/uris/host_hyungjin_all_series__44641",
                "/roslaunch/uris/host_hyungjin_all_series__40505",
                "/roslaunch/uris/host_hyungjin_all_series__40117",
                "/roslaunch/uris/host_hyungjin_all_series__37799",
                "/roslaunch/uris/host_hyungjin_all_series__42821",
                "/roslaunch/uris/host_hyungjin_all_series__43583",
                "/rosversion",
                "/run_id",
                "/rviz_1508122606380672407/compressed/mode",
                "/rosdistro",
                "/robot_pose_ekf/odom_used",
                "/robot_pose_ekf/imu_used",
                "/robot_pose_ekf/output_frame",
                "/robot_pose_ekf/self_diagnose",
                "/robot_pose_ekf/debug",
                "/robot_pose_ekf/sensor_timeout",
                "/robot_pose_ekf/base_footprint_frame",
                "/robot_pose_ekf/vo_used",
                "/robot_pose_ekf/freq"
            ]
        }
    },
    "rostopic": {
        "port": "11311",
        "method": "rostopic",
        "arg": "/rosversion",
        "status": "ok",
        "response": {
            "status_code": 1,
            "status_message": "current system state",
            "system_state": {
                "publishers": {
                    "/mybot/rgbd_receiver/depth_registered/image_rect": [
                        "/play_1507690801410264697"
                    ],
                    "/mybot/rgbd_receiver/depth_registered/camera_info": [
                        "/play_1507690801410264697"
                    ],
                    "/mybot/scan": [
                        "/play_1507690801410264697"
                    ],
                    "/mybot/urg_node/parameter_updates": [
                        "/play_1507690801410264697"
                    ],
                    "/mybot/urg_node/parameter_descriptions": [
                        "/play_1507690801410264697"
                    ],
                    "/mybot/mobile_controller/odom": [
                        "/play_1507690801410264697"
                    ],
                    "/rosout": [
                        "/play_1507690801410264697"
                    ],
                    "/mybot/rgbd_receiver/depth_registered/points": [
                        "/play_1507690801410264697"
                    ],
                    "/rosout_agg": [
                        "/rosout"
                    ],
                    "/tf_static": [
                        "/play_1507690801410264697"
                    ],
                    "/clock": [
                        "/play_1507690801410264697"
                    ],
                    "/mybot/rgbd_receiver/depth_registered/image_raw": [
                        "/play_1507690801410264697"
                    ],
                    "/tf": [
                        "/play_1507690801410264697"
                    ],
                    "/mybot/rgbd_receiver/rgb/image_raw": [
                        "/play_1507690801410264697"
                    ],
                    "/mybot/rgbd_receiver/rgb/camera_info": [
                        "/play_1507690801410264697"
                    ]
                },
                "subscribers": {
                    "/rosout": [
                        "/rosout"
                    ]
                },
                "services": {
                    "/play_1507690801410264697/set_logger_level": [
                        "/play_1507690801410264697"
                    ],
                    "/play_1507690801410264697/get_loggers": [
                        "/play_1507690801410264697"
                    ],
                    "/play_1507690801410264697/pause_playback": [
                        "/play_1507690801410264697"
                    ],
                    "/rosout/get_loggers": [
                        "/rosout"
                    ],
                    "/rosout/set_logger_level": [
                        "/rosout"
                    ]
                }
            }
        }
    },
    "rosdescription": {
        "port": "11311",
        "method": "robot_description",
        "arg": "/robot_description",
        "status": "ok",
        "response": {
            "status_code": -1,
            "status_message": "Parameter [/robot_description] is not set",
            "param": 0
        }
    },
    "query_stats": {
        "param_count": 19,
        "publisher_count": 15,
        "subscriber_count": 1,
        "service_count": 5,
        "term_count": 40,
        "has_description": false,
        "is_ros": true,
        "roscore_version": "1.12",
        "ros_version_name": "kinetic",
        "missing_term_data": false,
        "roslaunch_machine_hostnames": [
            "hyungjin_all_series"
        ],
        "has_hostname": true,
        "machine_hostname": "hyungjin_all_series"
    },
    "search_info": {
        "count_control": 1,
        "count_simulators": 0,
        "count_sensors": 7,
        "count_actuators": 1,
        "count_other": 1,
        "count_robot_types": 0,
        "count_targets": 0,
        "total_query_hits": 9
    },
    "search_stats": {
        "control": {
            "param_rosversion": {
                "param": "rosversion",
                "hit": true,
                "count": 1,
                "matches": [
                    "/rosversion"
                ]
            }
        },
        "simulators": {},
        "sensors": {
            "camera_all": {
                "param": "or",
                "hit": true,
                "children": [
                    {
                        "param": "camera",
                        "hit": true,
                        "count": 2,
                        "matches": [
                            "/mybot/rgbd_receiver/depth_registered/camera_info",
                            "/mybot/rgbd_receiver/rgb/camera_info"
                        ]
                    },
                    {
                        "param": "image",
                        "hit": true,
                        "count": 3,
                        "matches": [
                            "/mybot/rgbd_receiver/rgb/image_raw",
                            "/mybot/rgbd_receiver/depth_registered/image_raw",
                            "/mybot/rgbd_receiver/depth_registered/image_rect"
                        ]
                    }
                ]
            },
            "camera_nofake": {
                "param": "or",
                "hit": true,
                "children": [
                    {
                        "param": "camera_!fake",
                        "hit": true,
                        "count": 2,
                        "matches": [
                            "/mybot/rgbd_receiver/depth_registered/camera_info",
                            "/mybot/rgbd_receiver/rgb/camera_info"
                        ]
                    },
                    {
                        "param": "image_!fake",
                        "hit": true,
                        "count": 3,
                        "matches": [
                            "/mybot/rgbd_receiver/rgb/image_raw",
                            "/mybot/rgbd_receiver/depth_registered/image_raw",
                            "/mybot/rgbd_receiver/depth_registered/image_rect"
                        ]
                    },
                    {
                        "param": "pointgrey_!fake",
                        "hit": false,
                        "count": 0,
                        "matches": []
                    }
                ]
            },
            "camera_depth": {
                "param": "camera_depth_!fake",
                "hit": true,
                "count": 1,
                "matches": [
                    "/mybot/rgbd_receiver/depth_registered/camera_info"
                ]
            },
            "camera_rgb": {
                "param": "or",
                "hit": true,
                "children": [
                    {
                        "param": "camera_rgb_!fake",
                        "hit": true,
                        "count": 1,
                        "matches": [
                            "/mybot/rgbd_receiver/rgb/camera_info"
                        ]
                    },
                    {
                        "param": "kinect2",
                        "hit": false,
                        "count": 0,
                        "matches": []
                    }
                ]
            },
            "imu": {
                "param": "imu",
                "hit": true,
                "count": 1,
                "matches": [
                    "/robot_pose_ekf/imu_used"
                ]
            },
            "lidar": {
                "param": "or",
                "hit": true,
                "children": [
                    {
                        "param": "lidar",
                        "hit": false,
                        "count": 0,
                        "matches": []
                    },
                    {
                        "param": "hokuyo",
                        "hit": false,
                        "count": 0,
                        "matches": []
                    },
                    {
                        "param": "scan",
                        "hit": true,
                        "count": 1,
                        "matches": [
                            "/mybot/scan"
                        ]
                    },
                    {
                        "param": "lms511",
                        "hit": false,
                        "count": 0,
                        "matches": []
                    }
                ]
            },
            "odometry": {
                "param": "odom",
                "hit": true,
                "count": 2,
                "matches": [
                    "/robot_pose_ekf/odom_used",
                    "/mybot/mobile_controller/odom"
                ]
            }
        },
        "actuators": {
            "transform": {
                "param": "or",
                "hit": true,
                "children": [
                    {
                        "param": "tf",
                        "hit": true,
                        "count": 2,
                        "matches": [
                            "/tf_static",
                            "/tf"
                        ]
                    },
                    {
                        "param": "tf_static",
                        "hit": true,
                        "count": 1,
                        "matches": [
                            "/tf_static"
                        ]
                    }
                ]
            }
        },
        "other": {
            "rviz": {
                "param": "rviz",
                "hit": true,
                "count": 1,
                "matches": [
                    "/rviz_1508122606380672407/compressed/mode"
                ]
            }
        },
        "robot_types": {},
        "targets": {}
    },
    "inferred_results": {
        "identified_robot": true,
        "search_hit_sim": false,
        "likely_empty": false,
        "needs_more_info": false,
        "confirmed_ros": true,
        "total_hosts": false,
        "is_unconnectable": false,
        "has_only_sensors": false,
        "has_hostname": true,
        "missing_term_data": false,
        "has_description": false,
        "has_descr_name": false,
        "has_search_hits": true,
        "manually_tagged": false,
        "has_sensor": true,
        "has_actuator": true,
        "search_hit_gazebo": false,
        "likely_non_robot": false
    }
}
