{
    "ip": "129.59.79.121",
    "dns.hostname": "dh-129-59-79-121.vuse.vanderbilt.edu",
    "dns.authority": "ns1.vanderbilt.edu. noc.vanderbilt.edu. 3 10800 3600 2419200 900",
    "geoip.country": "United States",
    "geoip.country_code": "US",
    "geoip.specific_name": "Tennessee",
    "geoip.specific_name_code": "TN",
    "geoip.latitude": 36.1473,
    "geoip.longitude": -86.777,
    "geoip.as_number": 7212,
    "geoip.as_organization": "Vanderbilt University",
    "shodan.ports": "",
    "shodan.tags": "",
    "rosversion": {
        "port": "11311",
        "type": "xmlrpc",
        "method": "rosversion",
        "arg": "/rosversion",
        "status": "ok",
        "timestamp": 1513809871,
        "response": {
            "status_code": 1,
            "status_message": "Parameter [/rosversion]",
            "param": "1.12.7\n"
        }
    },
    "rosparamnames": {
        "port": "11311",
        "type": "xmlrpc",
        "method": "rosparamnames",
        "arg": "",
        "status": "ok",
        "timestamp": 1513809873,
        "response": {
            "status_code": 1,
            "status_message": "Parameter names",
            "paramNames": [
                "/roslaunch/uris/host_192_168_1_54__42449",
                "/roslaunch/uris/host_192_168_1_54__37882",
                "/roslaunch/uris/host_192_168_1_54__44216",
                "/roslaunch/uris/host_192_168_1_54__33671",
                "/roslaunch/uris/host_192_168_1_54__34114",
                "/roslaunch/uris/host_192_168_1_54__37216",
                "/roslaunch/uris/host_192_168_1_54__42734",
                "/roslaunch/uris/host_192_168_1_54__37279",
                "/roslaunch/uris/host_192_168_1_54__44519",
                "/roslaunch/uris/host_192_168_1_54__39266",
                "/roslaunch/uris/host_192_168_1_54__33665",
                "/fakecam_node/fov",
                "/fakecam_node/convergence_method",
                "/fakecam_node/camera_name",
                "/fakecam_node/convergence_distance",
                "/fakecam_node/fake_image_left/compressedDepth/depth_max",
                "/fakecam_node/fake_image_left/compressedDepth/png_level",
                "/fakecam_node/fake_image_left/compressedDepth/depth_quantization",
                "/fakecam_node/fake_image_left/compressed/png_level",
                "/fakecam_node/fake_image_left/compressed/jpeg_quality",
                "/fakecam_node/fake_image_left/compressed/format",
                "/fakecam_node/fake_image_left/theora/optimize_for",
                "/fakecam_node/fake_image_left/theora/target_bitrate",
                "/fakecam_node/fake_image_left/theora/quality",
                "/fakecam_node/fake_image_left/theora/keyframe_frequency",
                "/fakecam_node/calibration_file_uri",
                "/fakecam_node/base_frame_id",
                "/fakecam_node/separation",
                "/fakecam_node/convergence_frame_id",
                "/fakecam_node/convergence_angle",
                "/fakecam_node/fake_image_right/compressedDepth/depth_max",
                "/fakecam_node/fake_image_right/compressedDepth/png_level",
                "/fakecam_node/fake_image_right/compressedDepth/depth_quantization",
                "/fakecam_node/fake_image_right/compressed/png_level",
                "/fakecam_node/fake_image_right/compressed/jpeg_quality",
                "/fakecam_node/fake_image_right/compressed/format",
                "/fakecam_node/fake_image_right/theora/optimize_for",
                "/fakecam_node/fake_image_right/theora/target_bitrate",
                "/fakecam_node/fake_image_right/theora/quality",
                "/fakecam_node/fake_image_right/theora/keyframe_frequency",
                "/rosversion",
                "/run_id",
                "/rosdistro",
                "/dvrk/PSM1/rate",
                "/dvrk/PSM1/robot_description",
                "/dvrk/PSM1/use_gui",
                "/dvrk/PSM1/source_list",
                "/dvrk/MTMR/rate",
                "/dvrk/MTMR/robot_description",
                "/dvrk/MTMR/use_gui",
                "/dvrk/MTMR/source_list",
                "/dvrk/PSM1_SIM/use_gui",
                "/dvrk/PSM1_SIM/robot_description",
                "/dvrk/PSM1_SIM/rate",
                "/dvrk/PSM1_SIM/source_list"
            ]
        }
    },
    "rostopic": {
        "port": "11311",
        "type": "xmlrpc",
        "method": "rostopic",
        "arg": "/rosversion",
        "status": "ok",
        "timestamp": 1513809875,
        "response": {
            "status_code": 1,
            "status_message": "current system state",
            "system_state": {
                "publishers": {
                    "/rosout_agg": [
                        "/rosout"
                    ]
                },
                "subscribers": {
                    "/rosout": [
                        "/rosout"
                    ]
                },
                "services": {
                    "/rosout/set_logger_level": [
                        "/rosout"
                    ],
                    "/rosout/get_loggers": [
                        "/rosout"
                    ]
                }
            }
        }
    },
    "rosdescription": {
        "port": "11311",
        "type": "xmlrpc",
        "method": "rosdescription",
        "arg": "/robot_description",
        "status": "ok",
        "timestamp": 1513809877,
        "response": {
            "status_code": -1,
            "status_message": "Parameter [/robot_description] is not set",
            "param": 0
        }
    },
    "query_stats": {
        "param_count": 55,
        "publisher_count": 1,
        "subscriber_count": 1,
        "service_count": 2,
        "term_count": 59,
        "alphaterm_count": 49,
        "topic_count": 4,
        "has_description": false,
        "is_ros": true,
        "roscore_version": "1.12",
        "ros_version_name": "kinetic",
        "missing_term_data": false,
        "roslaunch_machine_hostnames": [],
        "has_hostname": false
    },
    "search_info": {
        "count_control": 0,
        "count_simulators": 0,
        "count_sensors": 0,
        "count_actuators": 0,
        "count_other": 0,
        "count_robot_types": 0,
        "count_targets": 0,
        "total_query_hits": 0
    },
    "search_stats": {
        "control": {},
        "simulators": {},
        "sensors": {},
        "actuators": {},
        "other": {},
        "robot_types": {},
        "targets": {}
    },
    "inferred_results": {
        "identified_robot": false,
        "only_sim": false,
        "likely_empty": true,
        "only_sensors": false,
        "only_actuators": false,
        "only_services": false,
        "needs_more_info": false,
        "confirmed_ros": true,
        "total_hosts": false,
        "is_unconnectable": false,
        "search_hit_sim": false,
        "has_sensor": false,
        "has_actuator": false,
        "has_hostname": false,
        "missing_term_data": false,
        "has_description": false,
        "has_descr_name": false,
        "has_search_hits": false,
        "manually_tagged": false,
        "search_hit_gazebo": false,
        "likely_non_robot": false
    }
}
