{
    "ip": "130.240.5.139",
    "dns.hostname": "B1258.lab.ltu.se",
    "dns.authority": "krakel.ltu.se. hostmaster.ltu.se. 1513321960 10800 3600 604800 10",
    "geoip.country": "Sweden",
    "geoip.country_code": "SE",
    "geoip.specific_name": "Norrbotten",
    "geoip.specific_name_code": "BD",
    "geoip.latitude": 65.5833,
    "geoip.longitude": 22.15,
    "geoip.as_number": 2831,
    "geoip.as_organization": "Lulea Tekniska Universitet",
    "shodan.ports": [
        2000,
        123
    ],
    "shodan.tags": [],
    "rosversion": {
        "port": "11311",
        "type": "xmlrpc",
        "method": "rosversion",
        "arg": "/rosversion",
        "status": "ok",
        "timestamp": 1513701905,
        "response": {
            "status_code": 1,
            "status_message": "Parameter [/rosversion]",
            "param": "1.12.12\n"
        }
    },
    "rosparamnames": {
        "port": "11311",
        "type": "xmlrpc",
        "method": "rosparamnames",
        "arg": "",
        "status": "ok",
        "timestamp": 1513701907,
        "response": {
            "status_code": 1,
            "status_message": "Parameter names",
            "paramNames": [
                "/roslaunch/uris/host_grupp1c2__40483",
                "/roslaunch/uris/host_grupp1c2__34163",
                "/roslaunch/uris/host_grupp1c2__40589",
                "/roslaunch/uris/host_grupp1c2__40997",
                "/rosversion",
                "/image_view/max_image_value",
                "/image_view/autosize",
                "/image_view/min_image_value",
                "/image_view/do_dynamic_scaling",
                "/image_view/colormap",
                "/run_id",
                "/usb_cam/video_device",
                "/usb_cam/pixel_format",
                "/usb_cam/image_width",
                "/usb_cam/io_method",
                "/usb_cam/image_height",
                "/usb_cam/camera_frame_id",
                "/usb_cam/image_raw/compressedDepth/depth_max",
                "/usb_cam/image_raw/compressedDepth/png_level",
                "/usb_cam/image_raw/compressedDepth/depth_quantization",
                "/usb_cam/image_raw/compressed/png_level",
                "/usb_cam/image_raw/compressed/jpeg_quality",
                "/usb_cam/image_raw/compressed/format",
                "/usb_cam/image_raw/theora/optimize_for",
                "/usb_cam/image_raw/theora/target_bitrate",
                "/usb_cam/image_raw/theora/quality",
                "/usb_cam/image_raw/theora/keyframe_frequency",
                "/rosdistro"
            ]
        }
    },
    "rostopic": {
        "port": "11311",
        "type": "xmlrpc",
        "method": "rostopic",
        "arg": "/rosversion",
        "status": "ok",
        "timestamp": 1513701909,
        "response": {
            "status_code": 1,
            "status_message": "current system state",
            "system_state": {
                "publishers": {
                    "/rosout_agg": [
                        "/rosout"
                    ]
                },
                "subscribers": {
                    "/rosout": [
                        "/rosout"
                    ]
                },
                "services": {
                    "/rosout/get_loggers": [
                        "/rosout"
                    ],
                    "/rosout/set_logger_level": [
                        "/rosout"
                    ]
                }
            }
        }
    },
    "rosdescription": {
        "port": "11311",
        "type": "xmlrpc",
        "method": "rosdescription",
        "arg": "/robot_description",
        "status": "ok",
        "timestamp": 1513701912,
        "response": {
            "status_code": -1,
            "status_message": "Parameter [/robot_description] is not set",
            "param": 0
        }
    },
    "query_stats": {
        "param_count": 28,
        "publisher_count": 1,
        "subscriber_count": 1,
        "service_count": 2,
        "term_count": 32,
        "alphaterm_count": 29,
        "topic_count": 4,
        "has_description": false,
        "is_ros": true,
        "roscore_version": "1.12",
        "ros_version_name": "kinetic",
        "missing_term_data": false,
        "roslaunch_machine_hostnames": [
            "grupp1c2"
        ],
        "has_hostname": true,
        "machine_hostname": "grupp1c2"
    },
    "search_info": {
        "count_control": 0,
        "count_simulators": 0,
        "count_sensors": 0,
        "count_actuators": 0,
        "count_other": 0,
        "count_robot_types": 0,
        "count_targets": 0,
        "total_query_hits": 0
    },
    "search_stats": {
        "control": {},
        "simulators": {},
        "sensors": {},
        "actuators": {},
        "other": {},
        "robot_types": {},
        "targets": {}
    },
    "inferred_results": {
        "identified_robot": false,
        "only_sim": false,
        "likely_empty": true,
        "only_sensors": false,
        "only_actuators": false,
        "only_services": false,
        "needs_more_info": false,
        "confirmed_ros": true,
        "total_hosts": false,
        "is_unconnectable": false,
        "search_hit_sim": false,
        "has_sensor": false,
        "has_actuator": false,
        "has_hostname": true,
        "missing_term_data": false,
        "has_description": false,
        "has_descr_name": false,
        "has_search_hits": false,
        "manually_tagged": false,
        "search_hit_gazebo": false,
        "likely_non_robot": false
    }
}
