{
    "ip": "140.113.216.27",
    "dns.hostname": "grass27.cs.nctu.edu.tw",
    "dns.authority": "dns.cs.nctu.edu.tw. root.cs.nctu.edu.tw. 2017072906 86400 1800 604800 7200",
    "geoip.country": "Taiwan",
    "geoip.country_code": "TW",
    "geoip.specific_name": "Taipei City",
    "geoip.specific_name_code": "TPE",
    "geoip.latitude": 25.0418,
    "geoip.longitude": 121.4966,
    "geoip.as_number": 9916,
    "geoip.as_organization": "National Chiao Tung University",
    "shodan.ports": "",
    "shodan.tags": "",
    "rosversion": {
        "port": "11311",
        "type": "xmlrpc",
        "method": "rosversion",
        "arg": "/rosversion",
        "status": "ok",
        "timestamp": 1513865205,
        "response": {
            "status_code": 1,
            "status_message": "Parameter [/rosversion]",
            "param": "1.12.7\n"
        }
    },
    "rosparamnames": {
        "port": "11311",
        "type": "xmlrpc",
        "method": "rosparamnames",
        "arg": "",
        "status": "ok",
        "timestamp": 1513865208,
        "response": {
            "status_code": 1,
            "status_message": "Parameter names",
            "paramNames": [
                "/roslaunch/uris/host_grass_dl__37007",
                "/rosversion",
                "/run_id",
                "/usb_cam/camera_info_url",
                "/usb_cam/video_device",
                "/usb_cam/pixel_format",
                "/usb_cam/image_width",
                "/usb_cam/io_method",
                "/usb_cam/image_height",
                "/usb_cam/camera_frame_id",
                "/usb_cam/image_raw/compressedDepth/depth_max",
                "/usb_cam/image_raw/compressedDepth/png_level",
                "/usb_cam/image_raw/compressedDepth/depth_quantization",
                "/usb_cam/image_raw/compressed/png_level",
                "/usb_cam/image_raw/compressed/jpeg_quality",
                "/usb_cam/image_raw/compressed/format",
                "/usb_cam/image_raw/theora/optimize_for",
                "/usb_cam/image_raw/theora/target_bitrate",
                "/usb_cam/image_raw/theora/quality",
                "/usb_cam/image_raw/theora/keyframe_frequency",
                "/rosdistro",
                "/apriltags/tag_data/15/size",
                "/apriltags/tag_data/21/size",
                "/apriltags/tag_data/17/size",
                "/apriltags/tag_data/19/size",
                "/apriltags/tag_data/18/size",
                "/apriltags/tag_data/29/size",
                "/apriltags/tag_data/3/size",
                "/apriltags/tag_data/5/size",
                "/apriltags/viewer",
                "/apriltags/marker_thickness",
                "/apriltags/default_tag_size",
                "/apriltags/publish_detections_image",
                "/apriltags/display_type",
                "/apriltags/detections_image/compressedDepth/depth_max",
                "/apriltags/detections_image/compressedDepth/png_level",
                "/apriltags/detections_image/compressedDepth/depth_quantization",
                "/apriltags/detections_image/compressed/png_level",
                "/apriltags/detections_image/compressed/jpeg_quality",
                "/apriltags/detections_image/compressed/format",
                "/apriltags/detections_image/theora/optimize_for",
                "/apriltags/detections_image/theora/target_bitrate",
                "/apriltags/detections_image/theora/quality",
                "/apriltags/detections_image/theora/keyframe_frequency"
            ]
        }
    },
    "rostopic": {
        "port": "11311",
        "type": "xmlrpc",
        "method": "rostopic",
        "arg": "/rosversion",
        "status": "ok",
        "timestamp": 1513865211,
        "response": {
            "status_code": 1,
            "status_message": "current system state",
            "system_state": {
                "publishers": {
                    "/apriltags/detections_image/compressedDepth/parameter_descriptions": [
                        "/apriltags"
                    ],
                    "/apriltags/detections_image/compressed": [
                        "/apriltags"
                    ],
                    "/apriltags/detections_image/theora/parameter_updates": [
                        "/apriltags"
                    ],
                    "/apriltags/marker_array": [
                        "/apriltags"
                    ],
                    "/tf": [
                        "/camera_static_broadcaster",
                        "/cozmo_tabot_base_broatcaster",
                        "/tabot_base_arm_broatcaster",
                        "/tabot_tf"
                    ],
                    "/apriltags/detections_image/compressedDepth/parameter_updates": [
                        "/apriltags"
                    ],
                    "/rosout_agg": [
                        "/rosout"
                    ],
                    "/usb_cam/image_raw/compressed": [
                        "/usb_cam"
                    ],
                    "/apriltags/detections_image/compressed/parameter_descriptions": [
                        "/apriltags"
                    ],
                    "/usb_cam/image_raw/compressedDepth/parameter_descriptions": [
                        "/usb_cam"
                    ],
                    "/usb_cam/image_raw/compressed/parameter_descriptions": [
                        "/usb_cam"
                    ],
                    "/usb_cam/image_raw/theora/parameter_descriptions": [
                        "/usb_cam"
                    ],
                    "/usb_cam/camera_info": [
                        "/usb_cam"
                    ],
                    "/usb_cam/image_raw/compressedDepth": [
                        "/usb_cam"
                    ],
                    "/usb_cam/image_raw/compressed/parameter_updates": [
                        "/usb_cam"
                    ],
                    "/rosout": [
                        "/camera_static_broadcaster",
                        "/usb_cam",
                        "/cozmo_tabot_base_broatcaster",
                        "/apriltags",
                        "/tabot_base_arm_broatcaster",
                        "/camera_process",
                        "/tabot_tf"
                    ],
                    "/usb_cam/image_raw/theora/parameter_updates": [
                        "/usb_cam"
                    ],
                    "/apriltags/detections": [
                        "/apriltags"
                    ],
                    "/usb_cam/image_raw/compressedDepth/parameter_updates": [
                        "/usb_cam"
                    ],
                    "/camera_process/image_raw": [
                        "/camera_process"
                    ],
                    "/usb_cam/image_raw": [
                        "/usb_cam"
                    ],
                    "/apriltags/detections_image/compressedDepth": [
                        "/apriltags"
                    ],
                    "/apriltags/detections_image": [
                        "/apriltags"
                    ],
                    "/apriltags/detections_image/compressed/parameter_updates": [
                        "/apriltags"
                    ],
                    "/usb_cam/image_raw/theora": [
                        "/usb_cam"
                    ],
                    "/apriltags/detections_image/theora/parameter_descriptions": [
                        "/apriltags"
                    ],
                    "/apriltags/detections_image/theora": [
                        "/apriltags"
                    ]
                },
                "subscribers": {
                    "/usb_cam/image_raw": [
                        "/camera_process"
                    ],
                    "/camera_process/image_raw": [
                        "/apriltags"
                    ],
                    "/usb_cam/camera_info": [
                        "/apriltags"
                    ],
                    "/rosout": [
                        "/rosout"
                    ],
                    "/apriltags/detections": [
                        "/tabot_tf"
                    ]
                },
                "services": {
                    "/usb_cam/image_raw/compressed/set_parameters": [
                        "/usb_cam"
                    ],
                    "/apriltags/get_loggers": [
                        "/apriltags"
                    ],
                    "/usb_cam/image_raw/theora/set_parameters": [
                        "/usb_cam"
                    ],
                    "/camera_static_broadcaster/set_logger_level": [
                        "/camera_static_broadcaster"
                    ],
                    "/tabot_tf/set_logger_level": [
                        "/tabot_tf"
                    ],
                    "/cozmo_tabot_base_broatcaster/get_loggers": [
                        "/cozmo_tabot_base_broatcaster"
                    ],
                    "/usb_cam/set_logger_level": [
                        "/usb_cam"
                    ],
                    "/tabot_tf/get_loggers": [
                        "/tabot_tf"
                    ],
                    "/apriltags/detections_image/compressed/set_parameters": [
                        "/apriltags"
                    ],
                    "/rosout/set_logger_level": [
                        "/rosout"
                    ],
                    "/usb_cam/stop_capture": [
                        "/usb_cam"
                    ],
                    "/apriltags/detections_image/compressedDepth/set_parameters": [
                        "/apriltags"
                    ],
                    "/usb_cam/start_capture": [
                        "/usb_cam"
                    ],
                    "/usb_cam/get_loggers": [
                        "/usb_cam"
                    ],
                    "/cozmo_tabot_base_broatcaster/set_logger_level": [
                        "/cozmo_tabot_base_broatcaster"
                    ],
                    "/usb_cam/set_camera_info": [
                        "/usb_cam"
                    ],
                    "/usb_cam/image_raw/compressedDepth/set_parameters": [
                        "/usb_cam"
                    ],
                    "/camera_static_broadcaster/get_loggers": [
                        "/camera_static_broadcaster"
                    ],
                    "/apriltags/set_logger_level": [
                        "/apriltags"
                    ],
                    "/apriltags/detections_image/theora/set_parameters": [
                        "/apriltags"
                    ],
                    "/camera_process/get_loggers": [
                        "/camera_process"
                    ],
                    "/tabot_base_arm_broatcaster/get_loggers": [
                        "/tabot_base_arm_broatcaster"
                    ],
                    "/rosout/get_loggers": [
                        "/rosout"
                    ],
                    "/tabot_base_arm_broatcaster/set_logger_level": [
                        "/tabot_base_arm_broatcaster"
                    ],
                    "/camera_process/set_logger_level": [
                        "/camera_process"
                    ]
                }
            }
        }
    },
    "rosdescription": {
        "port": "11311",
        "type": "xmlrpc",
        "method": "rosdescription",
        "arg": "/robot_description",
        "status": "ok",
        "timestamp": 1513865213,
        "response": {
            "status_code": -1,
            "status_message": "Parameter [/robot_description] is not set",
            "param": 0
        }
    },
    "query_stats": {
        "param_count": 44,
        "publisher_count": 27,
        "subscriber_count": 5,
        "service_count": 25,
        "term_count": 103,
        "alphaterm_count": 96,
        "topic_count": 59,
        "has_description": false,
        "is_ros": true,
        "roscore_version": "1.12",
        "ros_version_name": "kinetic",
        "missing_term_data": false,
        "roslaunch_machine_hostnames": [
            "grass_dl"
        ],
        "has_hostname": true,
        "machine_hostname": "grass_dl"
    },
    "search_info": {
        "count_control": 0,
        "count_simulators": 0,
        "count_sensors": 2,
        "count_actuators": 0,
        "count_other": 2,
        "count_robot_types": 0,
        "count_targets": 1,
        "total_query_hits": 5
    },
    "search_stats": {
        "control": {},
        "simulators": {},
        "sensors": {
            "camera_nofake": {
                "param": "or",
                "hit": true,
                "children": [
                    {
                        "param": "camera_!fake",
                        "hit": true,
                        "count": 9,
                        "matches": [
                            "/camera_process",
                            "/usb_cam/camera_info",
                            "/camera_static_broadcaster",
                            "/camera_static_broadcaster/set_logger_level",
                            "/camera_process/set_logger_level",
                            "/camera_process/image_raw",
                            "/usb_cam/set_camera_info",
                            "/camera_process/get_loggers",
                            "/camera_static_broadcaster/get_loggers"
                        ]
                    },
                    {
                        "param": "image_!fake",
                        "hit": true,
                        "count": 27,
                        "matches": [
                            "/usb_cam/image_raw/theora/set_parameters",
                            "/usb_cam/image_raw/compressedDepth/parameter_updates",
                            "/apriltags/detections_image/compressedDepth/parameter_updates",
                            "/apriltags/detections_image/compressed/parameter_descriptions",
                            "/apriltags/detections_image/compressed",
                            "/usb_cam/image_raw/compressed/parameter_updates",
                            "/usb_cam/image_raw/compressed/parameter_descriptions",
                            "/apriltags/detections_image/compressedDepth",
                            "/usb_cam/image_raw/theora/parameter_updates",
                            "/apriltags/detections_image/theora/set_parameters",
                            "/apriltags/detections_image/compressedDepth/set_parameters",
                            "/apriltags/detections_image/compressed/parameter_updates",
                            "/apriltags/detections_image/compressed/set_parameters",
                            "/usb_cam/image_raw/compressed/set_parameters",
                            "/usb_cam/image_raw/theora",
                            "/camera_process/image_raw",
                            "/apriltags/detections_image",
                            "/apriltags/detections_image/compressedDepth/parameter_descriptions",
                            "/apriltags/detections_image/theora",
                            "/usb_cam/image_raw/theora/parameter_descriptions",
                            "/usb_cam/image_raw",
                            "/usb_cam/image_raw/compressedDepth/parameter_descriptions",
                            "/apriltags/detections_image/theora/parameter_descriptions",
                            "/usb_cam/image_raw/compressedDepth/set_parameters",
                            "/usb_cam/image_raw/compressed",
                            "/usb_cam/image_raw/compressedDepth",
                            "/apriltags/detections_image/theora/parameter_updates"
                        ]
                    },
                    {
                        "param": "pointgrey_!fake",
                        "hit": false,
                        "count": 0,
                        "matches": []
                    },
                    {
                        "param": "usb_cam_!fake",
                        "hit": true,
                        "count": 20,
                        "matches": [
                            "/usb_cam/image_raw/theora/set_parameters",
                            "/usb_cam/image_raw/compressedDepth/parameter_updates",
                            "/usb_cam/camera_info",
                            "/usb_cam/start_capture",
                            "/usb_cam/get_loggers",
                            "/usb_cam/image_raw/compressed/parameter_updates",
                            "/usb_cam/set_logger_level",
                            "/usb_cam/image_raw/compressed/parameter_descriptions",
                            "/usb_cam/image_raw/theora/parameter_updates",
                            "/usb_cam",
                            "/usb_cam/image_raw/compressed/set_parameters",
                            "/usb_cam/image_raw/theora",
                            "/usb_cam/stop_capture",
                            "/usb_cam/image_raw/theora/parameter_descriptions",
                            "/usb_cam/set_camera_info",
                            "/usb_cam/image_raw",
                            "/usb_cam/image_raw/compressedDepth/parameter_descriptions",
                            "/usb_cam/image_raw/compressedDepth/set_parameters",
                            "/usb_cam/image_raw/compressed",
                            "/usb_cam/image_raw/compressedDepth"
                        ]
                    }
                ]
            },
            "camera_depth": {
                "param": "or",
                "hit": true,
                "children": [
                    {
                        "param": "camera_depth_!fake",
                        "hit": false,
                        "count": 0,
                        "matches": []
                    },
                    {
                        "param": "compressedDepth",
                        "hit": true,
                        "count": 8,
                        "matches": [
                            "/usb_cam/image_raw/compressedDepth/parameter_updates",
                            "/apriltags/detections_image/compressedDepth/parameter_updates",
                            "/apriltags/detections_image/compressedDepth",
                            "/apriltags/detections_image/compressedDepth/set_parameters",
                            "/apriltags/detections_image/compressedDepth/parameter_descriptions",
                            "/usb_cam/image_raw/compressedDepth/parameter_descriptions",
                            "/usb_cam/image_raw/compressedDepth/set_parameters",
                            "/usb_cam/image_raw/compressedDepth"
                        ]
                    },
                    {
                        "param": "registered_points",
                        "hit": false,
                        "count": 0,
                        "matches": []
                    }
                ]
            }
        },
        "actuators": {},
        "other": {
            "transform": {
                "param": "or",
                "hit": true,
                "children": [
                    {
                        "param": "tf",
                        "hit": true,
                        "count": 4,
                        "matches": [
                            "/tabot_tf/set_logger_level",
                            "/tabot_tf",
                            "/tabot_tf/get_loggers",
                            "/tf"
                        ]
                    },
                    {
                        "param": "tf_static",
                        "hit": false,
                        "count": 0,
                        "matches": []
                    }
                ]
            },
            "fiducial": {
                "param": "or",
                "hit": true,
                "children": [
                    {
                        "param": "apriltag",
                        "hit": false,
                        "count": 0,
                        "matches": []
                    },
                    {
                        "param": "apriltags",
                        "hit": true,
                        "count": 18,
                        "matches": [
                            "/apriltags/set_logger_level",
                            "/apriltags/detections_image/compressedDepth/parameter_updates",
                            "/apriltags",
                            "/apriltags/detections_image/compressed/parameter_descriptions",
                            "/apriltags/detections_image/compressed",
                            "/apriltags/detections_image/compressedDepth",
                            "/apriltags/detections_image/theora/set_parameters",
                            "/apriltags/detections_image/compressedDepth/set_parameters",
                            "/apriltags/detections_image/compressed/parameter_updates",
                            "/apriltags/detections_image/compressed/set_parameters",
                            "/apriltags/marker_array",
                            "/apriltags/detections_image",
                            "/apriltags/detections_image/compressedDepth/parameter_descriptions",
                            "/apriltags/detections",
                            "/apriltags/detections_image/theora",
                            "/apriltags/detections_image/theora/parameter_descriptions",
                            "/apriltags/get_loggers",
                            "/apriltags/detections_image/theora/parameter_updates"
                        ]
                    },
                    {
                        "param": "av_track_avlar",
                        "hit": false,
                        "count": 0,
                        "matches": []
                    }
                ]
            }
        },
        "robot_types": {},
        "targets": {
            "arm": {
                "param": "arm",
                "hit": true,
                "count": 3,
                "matches": [
                    "/tabot_base_arm_broatcaster/get_loggers",
                    "/tabot_base_arm_broatcaster",
                    "/tabot_base_arm_broatcaster/set_logger_level"
                ]
            }
        }
    },
    "inferred_results": {
        "identified_robot": false,
        "only_sim": false,
        "likely_empty": false,
        "only_sensors": true,
        "only_actuators": false,
        "only_services": false,
        "needs_more_info": false,
        "confirmed_ros": true,
        "total_hosts": false,
        "is_unconnectable": false,
        "search_hit_sim": false,
        "has_sensor": true,
        "has_actuator": false,
        "has_hostname": true,
        "missing_term_data": false,
        "has_description": false,
        "has_descr_name": false,
        "has_search_hits": true,
        "manually_tagged": false,
        "search_hit_gazebo": false,
        "likely_non_robot": false
    }
}
