{
    "ip": "134.173.43.71",
    "dns.hostname": "c71.clinic.cs.hmc.edu",
    "dns.authority": "ark.cs.hmc.edu. staff.cs.hmc.edu. 2017100500 7200 7200 1209600 86400",
    "geoip.country": "United States",
    "geoip.country_code": "US",
    "geoip.specific_name": "California",
    "geoip.specific_name_code": "CA",
    "geoip.latitude": 34.1223,
    "geoip.longitude": -117.7143,
    "geoip.as_number": 3659,
    "geoip.as_organization": "Claremont University Consortium",
    "shodan.ports": [
        5353
    ],
    "shodan.tags": [],
    "rosversion": {
        "port": "11311",
        "type": "xmlrpc",
        "method": "rosversion",
        "arg": "/rosversion",
        "status": "ok",
        "timestamp": 1513784263,
        "response": {
            "status_code": 1,
            "status_message": "Parameter [/rosversion]",
            "param": "1.11.21\n"
        }
    },
    "rosparamnames": {
        "port": "11311",
        "type": "xmlrpc",
        "method": "rosparamnames",
        "arg": "",
        "status": "ok",
        "timestamp": 1513784265,
        "response": {
            "status_code": 1,
            "status_message": "Parameter names",
            "paramNames": [
                "/roslaunch/uris/host_nasaclinic17_2__35638",
                "/roslaunch/uris/host_nasaclinic17_2__34095",
                "/roslaunch/uris/host_nasaclinic17_2__40849",
                "/roslaunch/uris/host_nasaclinic17_2__40706",
                "/roslaunch/uris/host_nasaclinic17_2__39452",
                "/roslaunch/uris/host_nasaclinic17_2__37802",
                "/roslaunch/uris/host_nasaclinic17_2__39675",
                "/roslaunch/uris/host_nasaclinic17_2__45074",
                "/roslaunch/uris/host_nasaclinic17_2__38802",
                "/roslaunch/uris/host_nasaclinic17_2__33098",
                "/roslaunch/uris/host_nasaclinic17_2__34138",
                "/roslaunch/uris/host_nasaclinic17_2__33138",
                "/roslaunch/uris/host_nasaclinic17_2__40791",
                "/roslaunch/uris/host_nasaclinic17_2__45715",
                "/roslaunch/uris/host_nasaclinic17_2__32844",
                "/roslaunch/uris/host_nasaclinic17_2__45471",
                "/roslaunch/uris/host_nasaclinic17_2__41626",
                "/roslaunch/uris/host_nasaclinic17_2__39220",
                "/roslaunch/uris/host_nasaclinic17_2__32953",
                "/roslaunch/uris/host_nasaclinic17_2__34995",
                "/roslaunch/uris/host_nasaclinic17_2__33769",
                "/roslaunch/uris/host_nasaclinic17_2__45674",
                "/roslaunch/uris/host_nasaclinic17_2__39108",
                "/rosversion",
                "/run_id",
                "/robot2/depthimage_to_laserscan/output_frame_id",
                "/robot2/depthimage_to_laserscan/range_max",
                "/robot2/depthimage_to_laserscan/scan_time",
                "/robot2/depthimage_to_laserscan/scan_height",
                "/robot2/depthimage_to_laserscan/range_min",
                "/robot2/cmd_vel_mux/yaml_cfg_file",
                "/robot2/robot_state_publisher/publish_frequency",
                "/robot2/bumper2pointcloud/pointcloud_radius",
                "/robot2/robot_description",
                "/robot2/camera/rgb/image_raw/compressedDepth/depth_max",
                "/robot2/camera/rgb/image_raw/compressedDepth/png_level",
                "/robot2/camera/rgb/image_raw/compressedDepth/depth_quantization",
                "/robot2/camera/rgb/image_raw/compressed/png_level",
                "/robot2/camera/rgb/image_raw/compressed/jpeg_quality",
                "/robot2/camera/rgb/image_raw/compressed/format",
                "/robot2/camera/rgb/image_raw/theora/optimize_for",
                "/robot2/camera/rgb/image_raw/theora/target_bitrate",
                "/robot2/camera/rgb/image_raw/theora/quality",
                "/robot2/camera/rgb/image_raw/theora/keyframe_frequency",
                "/robot2/camera/imager_rate",
                "/robot2/tf_prefix",
                "/robot1/depthimage_to_laserscan/output_frame_id",
                "/robot1/depthimage_to_laserscan/range_max",
                "/robot1/depthimage_to_laserscan/scan_time",
                "/robot1/depthimage_to_laserscan/scan_height",
                "/robot1/depthimage_to_laserscan/range_min",
                "/robot1/cmd_vel_mux/yaml_cfg_file",
                "/robot1/robot_state_publisher/publish_frequency",
                "/robot1/bumper2pointcloud/pointcloud_radius",
                "/robot1/robot_description",
                "/robot1/camera/rgb/image_raw/compressedDepth/depth_max",
                "/robot1/camera/rgb/image_raw/compressedDepth/png_level",
                "/robot1/camera/rgb/image_raw/compressedDepth/depth_quantization",
                "/robot1/camera/rgb/image_raw/compressed/png_level",
                "/robot1/camera/rgb/image_raw/compressed/jpeg_quality",
                "/robot1/camera/rgb/image_raw/compressed/format",
                "/robot1/camera/rgb/image_raw/theora/optimize_for",
                "/robot1/camera/rgb/image_raw/theora/target_bitrate",
                "/robot1/camera/rgb/image_raw/theora/quality",
                "/robot1/camera/rgb/image_raw/theora/keyframe_frequency",
                "/robot1/camera/imager_rate",
                "/robot1/tf_prefix",
                "/robot_description",
                "/use_sim_time",
                "/rosdistro",
                "/gazebo/gravity_z",
                "/gazebo/cfm",
                "/gazebo/erp",
                "/gazebo/contact_max_correcting_vel",
                "/gazebo/sor_pgs_iters",
                "/gazebo/sor_pgs_precon_iters",
                "/gazebo/auto_disable_bodies",
                "/gazebo/sor_pgs_rms_error_tol",
                "/gazebo/contact_surface_layer",
                "/gazebo/max_update_rate",
                "/gazebo/gravity_x",
                "/gazebo/gravity_y",
                "/gazebo/time_step",
                "/gazebo/max_contacts",
                "/gazebo/sor_pgs_w"
            ]
        }
    },
    "rostopic": {
        "port": "11311",
        "type": "xmlrpc",
        "method": "rostopic",
        "arg": "/rosversion",
        "status": "ok",
        "timestamp": 1513784267,
        "response": {
            "status_code": 1,
            "status_message": "current system state",
            "system_state": {
                "publishers": {
                    "/rosout_agg": [
                        "/rosout"
                    ]
                },
                "subscribers": {
                    "/rosout": [
                        "/rosout"
                    ]
                },
                "services": {
                    "/rosout/set_logger_level": [
                        "/rosout"
                    ],
                    "/rosout/get_loggers": [
                        "/rosout"
                    ]
                }
            }
        }
    },
    "rosdescription": {
        "port": "11311",
        "type": "xmlrpc",
        "method": "rosdescription",
        "arg": "/robot_description",
        "status": "ok",
        "timestamp": 1513784270,
        "response": {
            "status_code": 1,
            "status_message": "Parameter [/robot_description]",
            "param": "<SEE EXTERNAL_FILE>"
        }
    },
    "query_stats": {
        "param_count": 85,
        "publisher_count": 1,
        "subscriber_count": 1,
        "service_count": 2,
        "term_count": 89,
        "alphaterm_count": 46,
        "topic_count": 4,
        "has_description": true,
        "description_name": "turtlebot",
        "is_ros": true,
        "roscore_version": "1.11",
        "ros_version_name": "indigo",
        "missing_term_data": false,
        "roslaunch_machine_hostnames": [
            "nasaclinic17_2"
        ],
        "has_hostname": true,
        "machine_hostname": "nasaclinic17_2"
    },
    "search_info": {
        "count_control": 0,
        "count_simulators": 0,
        "count_sensors": 0,
        "count_actuators": 0,
        "count_other": 0,
        "count_robot_types": 0,
        "count_targets": 0,
        "total_query_hits": 0
    },
    "search_stats": {
        "control": {},
        "simulators": {},
        "sensors": {},
        "actuators": {},
        "other": {},
        "robot_types": {},
        "targets": {}
    },
    "inferred_results": {
        "identified_robot": false,
        "only_sim": false,
        "likely_empty": true,
        "only_sensors": false,
        "only_actuators": false,
        "only_services": false,
        "needs_more_info": false,
        "confirmed_ros": true,
        "total_hosts": false,
        "is_unconnectable": false,
        "search_hit_sim": false,
        "has_sensor": false,
        "has_actuator": false,
        "has_hostname": true,
        "missing_term_data": false,
        "has_description": true,
        "has_descr_name": true,
        "has_search_hits": false,
        "manually_tagged": false,
        "search_hit_gazebo": false,
        "likely_non_robot": false
    }
}
