{
    "ip": "130.237.218.114",
    "dns.hostname": "dyna218-114.csc.kth.se",
    "dns.authority": "a.ns.kth.se. hostmaster.kth.se. 2017121401 600 600 604800 600",
    "geoip.country": "Sweden",
    "geoip.country_code": "SE",
    "geoip.specific_name": null,
    "geoip.specific_name_code": null,
    "geoip.latitude": 59.3247,
    "geoip.longitude": 18.056,
    "geoip.as_number": 1653,
    "geoip.as_organization": "SUNET SUNET Swedish University Network",
    "shodan.ports": [
        22
    ],
    "shodan.tags": [],
    "rosversion": {
        "port": "11311",
        "type": "xmlrpc",
        "method": "rosversion",
        "arg": "/rosversion",
        "status": "ok",
        "timestamp": 1513809882,
        "response": {
            "status_code": 1,
            "status_message": "Parameter [/rosversion]",
            "param": "1.12.7\n"
        }
    },
    "rosparamnames": {
        "port": "11311",
        "type": "xmlrpc",
        "method": "rosparamnames",
        "arg": "",
        "status": "ok",
        "timestamp": 1513809885,
        "response": {
            "status_code": 1,
            "status_message": "Parameter names",
            "paramNames": [
                "/roslaunch/uris/host_reinforce__42956",
                "/rosdistro",
                "/rosversion",
                "/run_id"
            ]
        }
    },
    "rostopic": {
        "port": "11311",
        "type": "xmlrpc",
        "method": "rostopic",
        "arg": "/rosversion",
        "status": "ok",
        "timestamp": 1513809887,
        "response": {
            "status_code": 1,
            "status_message": "current system state",
            "system_state": {
                "publishers": {
                    "/mytop": [
                        "/rqt_gui_py_node_13077"
                    ],
                    "/rosout": [
                        "/rqt_gui_py_node_13077"
                    ],
                    "/rosout_agg": [
                        "/rosout"
                    ]
                },
                "subscribers": {
                    "/rosout": [
                        "/rosout"
                    ]
                },
                "services": {
                    "/rqt_gui_py_node_13077/get_loggers": [
                        "/rqt_gui_py_node_13077"
                    ],
                    "/rqt_gui_py_node_13077/set_logger_level": [
                        "/rqt_gui_py_node_13077"
                    ],
                    "/rosout/get_loggers": [
                        "/rosout"
                    ],
                    "/rosout/set_logger_level": [
                        "/rosout"
                    ]
                }
            }
        }
    },
    "rosdescription": {
        "port": "11311",
        "type": "xmlrpc",
        "method": "rosdescription",
        "arg": "/robot_description",
        "status": "ok",
        "timestamp": 1513809889,
        "response": {
            "status_code": -1,
            "status_message": "Parameter [/robot_description] is not set",
            "param": 0
        }
    },
    "query_stats": {
        "param_count": 4,
        "publisher_count": 3,
        "subscriber_count": 1,
        "service_count": 4,
        "term_count": 12,
        "alphaterm_count": 12,
        "topic_count": 8,
        "has_description": false,
        "is_ros": true,
        "roscore_version": "1.12",
        "ros_version_name": "kinetic",
        "missing_term_data": false,
        "roslaunch_machine_hostnames": [
            "reinforce"
        ],
        "has_hostname": true,
        "machine_hostname": "reinforce"
    },
    "search_info": {
        "count_control": 0,
        "count_simulators": 0,
        "count_sensors": 0,
        "count_actuators": 0,
        "count_other": 0,
        "count_robot_types": 0,
        "count_targets": 0,
        "total_query_hits": 0
    },
    "search_stats": {
        "control": {},
        "simulators": {},
        "sensors": {},
        "actuators": {},
        "other": {},
        "robot_types": {},
        "targets": {}
    },
    "inferred_results": {
        "identified_robot": false,
        "only_sim": false,
        "likely_empty": false,
        "only_sensors": false,
        "only_actuators": false,
        "only_services": false,
        "needs_more_info": true,
        "confirmed_ros": true,
        "total_hosts": false,
        "is_unconnectable": false,
        "search_hit_sim": false,
        "has_sensor": false,
        "has_actuator": false,
        "has_hostname": true,
        "missing_term_data": false,
        "has_description": false,
        "has_descr_name": false,
        "has_search_hits": false,
        "manually_tagged": false,
        "search_hit_gazebo": false,
        "likely_non_robot": false
    }
}
