{
    "ip": "178.144.215.255",
    "dns.hostname": "255-215-144-178.mobileinternet.proximus.be",
    "dns.authority": "ns5.skynet.be. dnsmaster.skynet.be. 2010032304 3600 1800 1814400 3600",
    "geoip.country": "Belgium",
    "geoip.country_code": "BE",
    "geoip.specific_name": null,
    "geoip.specific_name_code": null,
    "geoip.latitude": 50.85,
    "geoip.longitude": 4.35,
    "geoip.as_number": 5432,
    "geoip.as_organization": "Proximus NV",
    "shodan.ports": "",
    "shodan.tags": "",
    "rosversion": {
        "port": "11311",
        "type": "xmlrpc",
        "method": "rosversion",
        "arg": "/rosversion",
        "status": "ok",
        "timestamp": 1513691968,
        "response": {
            "status_code": 1,
            "status_message": "Parameter [/rosversion]",
            "param": "1.11.21\n"
        }
    },
    "rosparamnames": {
        "port": "11311",
        "type": "xmlrpc",
        "method": "rosparamnames",
        "arg": "",
        "status": "ok",
        "timestamp": 1513691970,
        "response": {
            "status_code": 1,
            "status_message": "Parameter names",
            "paramNames": [
                "/roslaunch/uris/host_pickit_076__43440",
                "/roslaunch/uris/host_pickit_076__33288",
                "/roslaunch/uris/host_pickit_076__44962",
                "/roslaunch/uris/host_pickit_076__35480",
                "/pickit/camera_field_of_view_horizontal",
                "/pickit/camera_min_distance",
                "/pickit/configuration_path",
                "/pickit/robot_base_frame_id",
                "/pickit/camera_max_distance",
                "/pickit/robot_ee_frame_id",
                "/pickit/camera_status/calibration_file_loaded",
                "/pickit/camera_status/serial_number",
                "/pickit/robot_interface/robots",
                "/pickit/robot_interface/default_port",
                "/pickit/camera_field_of_view_vertical",
                "/pickit/camera_type",
                "/pickit/spinner_threads",
                "/pickit/application_path",
                "/pickit/pickit_cpf_filename",
                "/rosversion",
                "/run_id",
                "/web_video_server/wwwroot",
                "/web_video_server/www_file_server",
                "/web_video_server/port",
                "/web_video_server/publish_rate",
                "/camera_state_publisher/use_tf_static",
                "/depthcloud_encoder_camera/depth",
                "/depthcloud_encoder_camera/rgb",
                "/depthcloud_encoder_camera/depth_source",
                "/depthcloud_encoder_camera/f",
                "/markers/max_frequency",
                "/markers/max_track_error",
                "/markers/enabled",
                "/markers/max_new_marker_error",
                "/markers/marker_size",
                "/camera/rgb_rectify_color/interpolation",
                "/camera/depth_registered_rectify_depth/interpolation",
                "/camera/driver/depth_mode",
                "/camera/driver/auto_exposure",
                "/camera/driver/rgb_frame_id",
                "/camera/driver/auto_white_balance",
                "/camera/driver/ir_time_offset",
                "/camera/driver/z_offset_mm",
                "/camera/driver/depth_frame_id",
                "/camera/driver/depth_time_offset",
                "/camera/driver/ir_mode",
                "/camera/driver/color_time_offset",
                "/camera/driver/depth_registration",
                "/camera/driver/depth_camera_info_url",
                "/camera/driver/z_scaling",
                "/camera/driver/color_mode",
                "/camera/driver/rgb_camera_info_url",
                "/camera/driver/depth_ir_offset_y",
                "/camera/driver/data_skip",
                "/camera/driver/use_device_time",
                "/camera/driver/color_depth_synchronization",
                "/camera/driver/depth_ir_offset_x",
                "/camera/driver/device_id",
                "/camera/camera_nodelet_manager/num_worker_threads",
                "/camera/depth_rectify_depth/interpolation",
                "/pointcloud_rectifier/lazy",
                "/pointcloud_rectifier/calibration_path",
                "/pickit_viewer/pointcloud_enable",
                "/pickit_viewer/image_freeze_time_sec",
                "/pickit_viewer/object_marker_enable",
                "/pickit_viewer/ROI_enable",
                "/pickit_viewer/time_out_armarker_sec",
                "/pickit_viewer/enable_pickit_reference_frame",
                "/pickit_viewer/frame_text_flag",
                "/pickit_viewer/frame_axis_length",
                "/pickit_viewer/white_background_image",
                "/pickit_viewer/enable_robot_base_frame",
                "/pickit_viewer/frame_line_thickness",
                "/pickit_viewer/pointcloud_inverse",
                "/pickit_viewer/time_out_object_sec",
                "/pickit_viewer/ROI_line_thickness",
                "/rosdistro",
                "/rosbridge_server/port",
                "/camera_description",
                "/network_configurator/robot_port",
                "/network_configurator/lan_port"
            ]
        }
    },
    "rostopic": {
        "port": "11311",
        "type": "xmlrpc",
        "method": "rostopic",
        "arg": "/rosversion",
        "status": "ok",
        "timestamp": 1513691973,
        "response": {
            "status_code": 1,
            "status_message": "current system state",
            "system_state": {
                "publishers": {
                    "/im/belt_marker_points_cloud": [
                        "/pickit"
                    ],
                    "/camera/depth/image": [
                        "/camera/camera_nodelet_manager"
                    ],
                    "/camera/rgb/image_raw": [
                        "/camera/camera_nodelet_manager"
                    ],
                    "/camera/depth/image_rect_raw": [
                        "/camera/camera_nodelet_manager"
                    ],
                    "/camera/depth_registered/points": [
                        "/camera/camera_nodelet_manager"
                    ],
                    "/camera/triggered/depth_registered/trigger": [
                        "/pickit"
                    ],
                    "/im/cluster_cloud": [
                        "/pickit"
                    ],
                    "/camera/depth_registered/hw_registered/image_rect": [
                        "/camera/camera_nodelet_manager"
                    ],
                    "/camera/depth_registered/image": [
                        "/camera/camera_nodelet_manager"
                    ],
                    "/im/bgplane_cloud": [
                        "/pickit"
                    ],
                    "/tf": [
                        "/camera_base_link",
                        "/camera_base_link1",
                        "/camera_base_link2",
                        "/camera_base_link3",
                        "/pickit_viewer",
                        "/markers",
                        "/camera_state_publisher",
                        "/pickit"
                    ],
                    "/im/tool_markers": [
                        "/pickit"
                    ],
                    "/visualization_marker": [
                        "/markers"
                    ],
                    "/camera/depth_registered/hw_registered/image_rect_raw": [
                        "/camera/camera_nodelet_manager"
                    ],
                    "/im/pickit_composer/state": [
                        "/pickit"
                    ],
                    "/image_out": [
                        "/pickit_viewer"
                    ],
                    "/camera/rgb_rectify_color/parameter_updates": [
                        "/camera/camera_nodelet_manager"
                    ],
                    "/im/pickit/raw_objects_wrt_reference_frame": [
                        "/pickit"
                    ],
                    "/im/belt_twist_marker": [
                        "/pickit"
                    ],
                    "/camera/depth_registered/camera_info": [
                        "/camera/camera_nodelet_manager"
                    ],
                    "/camera/depth/camera_info": [
                        "/camera/camera_nodelet_manager"
                    ],
                    "/tf_static": [
                        "/camera_state_publisher"
                    ],
                    "/im/pickit/objects_wrt_reference_frame": [
                        "/pickit"
                    ],
                    "/im/pickit/running": [
                        "/pickit"
                    ],
                    "/camera/depth/image_rect": [
                        "/camera/camera_nodelet_manager"
                    ],
                    "/markers/parameter_descriptions": [
                        "/markers"
                    ],
                    "/im/pickit/status": [
                        "/pickit"
                    ],
                    "/im/collision_cloud": [
                        "/pickit"
                    ],
                    "/camera/rgb/camera_info": [
                        "/camera/camera_nodelet_manager"
                    ],
                    "/dc_encoded/camera": [
                        "/depthcloud_encoder_camera"
                    ],
                    "/im/model_cloud": [
                        "/pickit"
                    ],
                    "/ar_pose_marker": [
                        "/markers"
                    ],
                    "/pickit/parameter_updates": [
                        "/pickit"
                    ],
                    "/im/fused_scene_cloud": [
                        "/pickit"
                    ],
                    "/pickit/parameter_descriptions": [
                        "/pickit"
                    ],
                    "/camera/depth_registered_rectify_depth/parameter_updates": [
                        "/camera/camera_nodelet_manager"
                    ],
                    "/camera/depth_registered/image_raw": [
                        "/camera/camera_nodelet_manager"
                    ],
                    "/im/pickit/robot_connection_status": [
                        "/robot_connection_check"
                    ],
                    "/camera/depth_rectify_depth/parameter_updates": [
                        "/camera/camera_nodelet_manager"
                    ],
                    "/rosout": [
                        "/camera/driver",
                        "/camera/depth_rectify_depth",
                        "/camera/rgb_rectify_color",
                        "/camera/depth_metric_rect",
                        "/camera/camera_nodelet_manager",
                        "/camera/depth_metric",
                        "/camera/depth_points",
                        "/camera/depth_registered_rectify_depth",
                        "/camera/points_xyzrgb_hw_registered",
                        "/camera/depth_registered_hw_metric_rect",
                        "/camera/depth_registered_metric",
                        "/camera_base_link",
                        "/camera_base_link1",
                        "/camera_base_link2",
                        "/camera_base_link3",
                        "/pointcloud_rectifier",
                        "/tf2_web_republisher",
                        "/depthcloud_encoder_camera",
                        "/web_video_server",
                        "/rosbridge_server",
                        "/rosapi_server",
                        "/pickit_viewer",
                        "/markers",
                        "/camera_state_publisher",
                        "/robot_connection_check",
                        "/pickit",
                        "/network_configurator"
                    ],
                    "/pickit/folder_content": [
                        "/pickit"
                    ],
                    "/camera/depth/image_raw": [
                        "/camera/camera_nodelet_manager"
                    ],
                    "/im/object_cloud": [
                        "/pickit"
                    ],
                    "/im/pickit/state": [
                        "/pickit"
                    ],
                    "/rosout_agg": [
                        "/rosout"
                    ],
                    "/camera/driver/parameter_descriptions": [
                        "/camera/camera_nodelet_manager"
                    ],
                    "/markers/parameter_updates": [
                        "/markers"
                    ],
                    "/im/rosout": [
                        "/pickit"
                    ],
                    "/camera/depth/points": [
                        "/camera/camera_nodelet_manager"
                    ],
                    "/im/pp_scene_cloud": [
                        "/pickit"
                    ],
                    "/ARmarker_points": [
                        "/markers"
                    ],
                    "/camera/depth_registered/image_clipped": [
                        "/camera/camera_nodelet_manager"
                    ],
                    "/camera/depth_registered_rectify_depth/parameter_descriptions": [
                        "/camera/camera_nodelet_manager"
                    ],
                    "/im/pickit/objects_wrt_robot_frame": [
                        "/pickit"
                    ],
                    "/tf2_web_republisher/result": [
                        "/tf2_web_republisher"
                    ],
                    "/im/pickit/robot_pose": [
                        "/pickit"
                    ],
                    "/camera/depth_rectify_depth/parameter_descriptions": [
                        "/camera/camera_nodelet_manager"
                    ],
                    "/camera/rgb/image_rect_color": [
                        "/camera/camera_nodelet_manager"
                    ],
                    "/camera/rgb_rectify_color/parameter_descriptions": [
                        "/camera/camera_nodelet_manager"
                    ],
                    "/camera/depth_registered/points_3d_rectified": [
                        "/camera/camera_nodelet_manager"
                    ],
                    "/tf2_web_republisher/feedback": [
                        "/tf2_web_republisher"
                    ],
                    "/camera/driver/parameter_updates": [
                        "/camera/camera_nodelet_manager"
                    ],
                    "/camera/ir/camera_info": [
                        "/camera/camera_nodelet_manager"
                    ],
                    "/tf2_web_republisher/status": [
                        "/tf2_web_republisher"
                    ],
                    "/camera/ir/image": [
                        "/camera/camera_nodelet_manager"
                    ],
                    "/im/object_markers": [
                        "/pickit"
                    ],
                    "/im/roi_box_markers": [
                        "/pickit"
                    ]
                },
                "subscribers": {
                    "/camera/rgb/camera_info": [
                        "/camera/camera_nodelet_manager"
                    ],
                    "/camera/rgb/image_raw": [
                        "/camera/camera_nodelet_manager"
                    ],
                    "/camera/depth_registered/points": [
                        "/camera/camera_nodelet_manager"
                    ],
                    "/camera/depth_registered/image_raw": [
                        "/camera/camera_nodelet_manager"
                    ],
                    "/camera/depth_registered/points_3d_rectified": [
                        "/pickit"
                    ],
                    "/im/pickit/robot_pose": [
                        "/robot_connection_check",
                        "/pickit"
                    ],
                    "/joint_states": [
                        "/camera_state_publisher"
                    ],
                    "/rosout": [
                        "/rosout"
                    ],
                    "/camera/rgb/image_rect_color": [
                        "/camera/camera_nodelet_manager"
                    ],
                    "/tf": [
                        "/tf2_web_republisher",
                        "/depthcloud_encoder_camera",
                        "/pickit_viewer",
                        "/markers",
                        "/pickit"
                    ],
                    "/tf_static": [
                        "/tf2_web_republisher",
                        "/depthcloud_encoder_camera",
                        "/pickit_viewer",
                        "/markers",
                        "/pickit"
                    ],
                    "/im/pickit/external_cmds": [
                        "/pickit"
                    ],
                    "/camera/depth_registered/hw_registered/image_rect_raw": [
                        "/camera/camera_nodelet_manager"
                    ],
                    "/tf2_web_republisher/cancel": [
                        "/tf2_web_republisher"
                    ],
                    "/tf2_web_republisher/goal": [
                        "/tf2_web_republisher"
                    ],
                    "/ar_pose_marker": [
                        "/pickit"
                    ],
                    "/camera/depth_registered/camera_info": [
                        "/camera/camera_nodelet_manager"
                    ]
                },
                "services": {
                    "/camera/rgb_rectify_color/set_parameters": [
                        "/camera/camera_nodelet_manager"
                    ],
                    "/camera/rgb/set_camera_info": [
                        "/camera/camera_nodelet_manager"
                    ],
                    "/camera/camera_nodelet_manager/set_logger_level": [
                        "/camera/camera_nodelet_manager"
                    ],
                    "/load_scene": [
                        "/pickit"
                    ],
                    "/camera/depth_metric/set_logger_level": [
                        "/camera/depth_metric"
                    ],
                    "/save_product": [
                        "/pickit"
                    ],
                    "/camera_base_link2/get_loggers": [
                        "/camera_base_link2"
                    ],
                    "/camera/driver/set_logger_level": [
                        "/camera/driver"
                    ],
                    "/camera/driver/set_parameters": [
                        "/camera/camera_nodelet_manager"
                    ],
                    "/camera_state_publisher/get_loggers": [
                        "/camera_state_publisher"
                    ],
                    "/robot_connection_check/get_loggers": [
                        "/robot_connection_check"
                    ],
                    "/camera_base_link1/get_loggers": [
                        "/camera_base_link1"
                    ],
                    "/rosapi/get_param_names": [
                        "/rosapi_server"
                    ],
                    "/pickit_viewer/set_logger_level": [
                        "/pickit_viewer"
                    ],
                    "/camera_base_link3/get_loggers": [
                        "/camera_base_link3"
                    ],
                    "/camera_base_link/get_loggers": [
                        "/camera_base_link"
                    ],
                    "/camera/rgb_rectify_color/get_loggers": [
                        "/camera/rgb_rectify_color"
                    ],
                    "/reset_product": [
                        "/pickit"
                    ],
                    "/reset_setup": [
                        "/pickit"
                    ],
                    "/camera/get_serial": [
                        "/camera/camera_nodelet_manager"
                    ],
                    "/check_for_objects": [
                        "/pickit"
                    ],
                    "/rosapi/service_node": [
                        "/rosapi_server"
                    ],
                    "/rosapi/services_for_type": [
                        "/rosapi_server"
                    ],
                    "/web_video_server/get_loggers": [
                        "/web_video_server"
                    ],
                    "/pointcloud_rectifier/get_loggers": [
                        "/pointcloud_rectifier"
                    ],
                    "/rosapi/set_param": [
                        "/rosapi_server"
                    ],
                    "/republish_tfs": [
                        "/tf2_web_republisher"
                    ],
                    "/rosapi/get_param": [
                        "/rosapi_server"
                    ],
                    "/reset_tf_tree": [
                        "/pickit"
                    ],
                    "/rosapi/service_request_details": [
                        "/rosapi_server"
                    ],
                    "/load_setup": [
                        "/pickit"
                    ],
                    "/camera/ir/set_camera_info": [
                        "/camera/camera_nodelet_manager"
                    ],
                    "/save_setup": [
                        "/pickit"
                    ],
                    "/robot_connection_check/set_logger_level": [
                        "/robot_connection_check"
                    ],
                    "/rosapi/topics": [
                        "/rosapi_server"
                    ],
                    "/rosapi/topic_type": [
                        "/rosapi_server"
                    ],
                    "/camera/depth_registered_rectify_depth/get_loggers": [
                        "/camera/depth_registered_rectify_depth"
                    ],
                    "/camera/depth_metric/get_loggers": [
                        "/camera/depth_metric"
                    ],
                    "/rosapi/subscribers": [
                        "/rosapi_server"
                    ],
                    "/network_configurator/set_network_config": [
                        "/network_configurator"
                    ],
                    "/rosout/set_logger_level": [
                        "/rosout"
                    ],
                    "/camera/rgb_rectify_color/set_logger_level": [
                        "/camera/rgb_rectify_color"
                    ],
                    "/load_ensenso_config": [
                        "/pickit"
                    ],
                    "/camera/camera_nodelet_manager/unload_nodelet": [
                        "/camera/camera_nodelet_manager"
                    ],
                    "/camera/driver/get_loggers": [
                        "/camera/driver"
                    ],
                    "/camera/depth_registered_rectify_depth/set_parameters": [
                        "/camera/camera_nodelet_manager"
                    ],
                    "/rosbridge_server/get_loggers": [
                        "/rosbridge_server"
                    ],
                    "/camera_base_link/set_logger_level": [
                        "/camera_base_link"
                    ],
                    "/rosapi/message_details": [
                        "/rosapi_server"
                    ],
                    "/camera/depth_registered_hw_metric_rect/get_loggers": [
                        "/camera/depth_registered_hw_metric_rect"
                    ],
                    "/markers/set_parameters": [
                        "/markers"
                    ],
                    "/rosapi/nodes": [
                        "/rosapi_server"
                    ],
                    "/camera/depth_rectify_depth/set_logger_level": [
                        "/camera/depth_rectify_depth"
                    ],
                    "/markers/get_loggers": [
                        "/markers"
                    ],
                    "/rosapi/node_details": [
                        "/rosapi_server"
                    ],
                    "/camera/points_xyzrgb_hw_registered/get_loggers": [
                        "/camera/points_xyzrgb_hw_registered"
                    ],
                    "/camera/depth_metric_rect/get_loggers": [
                        "/camera/depth_metric_rect"
                    ],
                    "/rosapi/service_providers": [
                        "/rosapi_server"
                    ],
                    "/network_configurator/set_hostname": [
                        "/network_configurator"
                    ],
                    "/camera/depth_registered_hw_metric_rect/set_logger_level": [
                        "/camera/depth_registered_hw_metric_rect"
                    ],
                    "/sync_calib_files": [
                        "/pickit"
                    ],
                    "/camera/camera_nodelet_manager/get_loggers": [
                        "/camera/camera_nodelet_manager"
                    ],
                    "/network_configurator/ping_address": [
                        "/network_configurator"
                    ],
                    "/camera/depth_registered_rectify_depth/set_logger_level": [
                        "/camera/depth_registered_rectify_depth"
                    ],
                    "/rosapi/delete_param": [
                        "/rosapi_server"
                    ],
                    "/rosapi_server/set_logger_level": [
                        "/rosapi_server"
                    ],
                    "/change_robot_type": [
                        "/pickit"
                    ],
                    "/camera/depth_points/set_logger_level": [
                        "/camera/depth_points"
                    ],
                    "/save_image": [
                        "/pickit_viewer"
                    ],
                    "/camera/depth_rectify_depth/get_loggers": [
                        "/camera/depth_rectify_depth"
                    ],
                    "/camera/points_xyzrgb_hw_registered/set_logger_level": [
                        "/camera/points_xyzrgb_hw_registered"
                    ],
                    "/rosapi/service_response_details": [
                        "/rosapi_server"
                    ],
                    "/camera_state_publisher/set_logger_level": [
                        "/camera_state_publisher"
                    ],
                    "/network_configurator/set_logger_level": [
                        "/network_configurator"
                    ],
                    "/camera/depth_points/get_loggers": [
                        "/camera/depth_points"
                    ],
                    "/pickit/get_loggers": [
                        "/pickit"
                    ],
                    "/camera/depth_metric_rect/set_logger_level": [
                        "/camera/depth_metric_rect"
                    ],
                    "/pickit/set_parameters": [
                        "/pickit"
                    ],
                    "/markers/set_logger_level": [
                        "/markers"
                    ],
                    "/delete_setup": [
                        "/pickit"
                    ],
                    "/camera_base_link2/set_logger_level": [
                        "/camera_base_link2"
                    ],
                    "/rosapi/service_host": [
                        "/rosapi_server"
                    ],
                    "/rosout/get_loggers": [
                        "/rosout"
                    ],
                    "/rosapi/topics_for_type": [
                        "/rosapi_server"
                    ],
                    "/network_configurator/get_hostname": [
                        "/network_configurator"
                    ],
                    "/rosapi/service_type": [
                        "/rosapi_server"
                    ],
                    "/pickit_viewer/get_loggers": [
                        "/pickit_viewer"
                    ],
                    "/network_configurator/get_loggers": [
                        "/network_configurator"
                    ],
                    "/network_configurator/get_network_config": [
                        "/network_configurator"
                    ],
                    "/pickit/set_logger_level": [
                        "/pickit"
                    ],
                    "/rosapi/has_param": [
                        "/rosapi_server"
                    ],
                    "/depthcloud_encoder_camera/set_logger_level": [
                        "/depthcloud_encoder_camera"
                    ],
                    "/tf2_web_republisher/get_loggers": [
                        "/tf2_web_republisher"
                    ],
                    "/camera/depth_registered_metric/get_loggers": [
                        "/camera/depth_registered_metric"
                    ],
                    "/pointcloud_rectifier/set_logger_level": [
                        "/pointcloud_rectifier"
                    ],
                    "/camera/depth_registered_metric/set_logger_level": [
                        "/camera/depth_registered_metric"
                    ],
                    "/camera_base_link3/set_logger_level": [
                        "/camera_base_link3"
                    ],
                    "/dump_ensenso_config": [
                        "/pickit"
                    ],
                    "/load_product": [
                        "/pickit"
                    ],
                    "/rosapi/publishers": [
                        "/rosapi_server"
                    ],
                    "/rosapi_server/get_loggers": [
                        "/rosapi_server"
                    ],
                    "/rosapi/search_param": [
                        "/rosapi_server"
                    ],
                    "/rosapi/get_time": [
                        "/rosapi_server"
                    ],
                    "/rosbridge_server/set_logger_level": [
                        "/rosbridge_server"
                    ],
                    "/camera/camera_nodelet_manager/list": [
                        "/camera/camera_nodelet_manager"
                    ],
                    "/camera/camera_nodelet_manager/load_nodelet": [
                        "/camera/camera_nodelet_manager"
                    ],
                    "/rosapi/services": [
                        "/rosapi_server"
                    ],
                    "/depthcloud_encoder_camera/get_loggers": [
                        "/depthcloud_encoder_camera"
                    ],
                    "/tf2_web_republisher/set_logger_level": [
                        "/tf2_web_republisher"
                    ],
                    "/web_video_server/set_logger_level": [
                        "/web_video_server"
                    ],
                    "/delete_product": [
                        "/pickit"
                    ],
                    "/camera_base_link1/set_logger_level": [
                        "/camera_base_link1"
                    ],
                    "/camera/depth_rectify_depth/set_parameters": [
                        "/camera/camera_nodelet_manager"
                    ]
                }
            }
        }
    },
    "rosdescription": {
        "port": "11311",
        "type": "xmlrpc",
        "method": "rosdescription",
        "arg": "/robot_description",
        "status": "ok",
        "timestamp": 1513691975,
        "response": {
            "status_code": -1,
            "status_message": "Parameter [/robot_description] is not set",
            "param": 0
        }
    },
    "query_stats": {
        "param_count": 81,
        "publisher_count": 67,
        "subscriber_count": 17,
        "service_count": 113,
        "term_count": 292,
        "alphaterm_count": 280,
        "topic_count": 211,
        "has_description": false,
        "is_ros": true,
        "roscore_version": "1.11",
        "ros_version_name": "indigo",
        "missing_term_data": false,
        "roslaunch_machine_hostnames": [
            "pickit_076"
        ],
        "has_hostname": true,
        "machine_hostname": "pickit_076"
    },
    "search_info": {
        "count_control": 0,
        "count_simulators": 0,
        "count_sensors": 3,
        "count_actuators": 0,
        "count_other": 3,
        "count_robot_types": 0,
        "count_targets": 1,
        "total_query_hits": 7
    },
    "search_stats": {
        "control": {},
        "simulators": {},
        "sensors": {
            "camera_nofake": {
                "param": "or",
                "hit": true,
                "children": [
                    {
                        "param": "camera_!fake",
                        "hit": true,
                        "count": 90,
                        "matches": [
                            "/camera/driver/set_parameters",
                            "/camera/depth_registered/image",
                            "/camera/depth_rectify_depth/get_loggers",
                            "/camera/depth/image_rect",
                            "/camera/ir/image",
                            "/camera_state_publisher/get_loggers",
                            "/camera/get_serial",
                            "/camera/camera_nodelet_manager/set_logger_level",
                            "/camera_base_link3/get_loggers",
                            "/camera_base_link2/set_logger_level",
                            "/camera/rgb_rectify_color/parameter_updates",
                            "/camera/depth_rectify_depth/parameter_descriptions",
                            "/camera/rgb_rectify_color",
                            "/camera/camera_nodelet_manager/load_nodelet",
                            "/camera/depth/image_raw",
                            "/camera/depth/points",
                            "/camera/driver/parameter_updates",
                            "/camera_state_publisher",
                            "/camera/depth_metric_rect",
                            "/camera/driver/set_logger_level",
                            "/camera/depth_points/set_logger_level",
                            "/camera/depth/image_rect_raw",
                            "/camera/depth_registered_metric/set_logger_level",
                            "/camera_base_link/get_loggers",
                            "/camera/driver/parameter_descriptions",
                            "/camera/depth_registered_hw_metric_rect/get_loggers",
                            "/camera/driver",
                            "/camera/depth_registered/points",
                            "/camera/depth_registered/image_clipped",
                            "/camera/depth_registered_rectify_depth/parameter_descriptions",
                            "/depthcloud_encoder_camera",
                            "/dc_encoded/camera",
                            "/depthcloud_encoder_camera/set_logger_level",
                            "/camera/depth/camera_info",
                            "/camera/rgb/image_raw",
                            "/camera/rgb_rectify_color/parameter_descriptions",
                            "/camera/rgb/image_rect_color",
                            "/camera/ir/camera_info",
                            "/camera/depth_registered_rectify_depth/get_loggers",
                            "/camera/rgb_rectify_color/set_parameters",
                            "/depthcloud_encoder_camera/get_loggers",
                            "/camera/depth_rectify_depth/set_logger_level",
                            "/camera/depth_registered_rectify_depth/set_logger_level",
                            "/camera/depth_metric",
                            "/camera/depth_registered_rectify_depth",
                            "/camera/rgb/set_camera_info",
                            "/camera/depth_registered_hw_metric_rect/set_logger_level",
                            "/camera/camera_nodelet_manager/unload_nodelet",
                            "/camera_base_link/set_logger_level",
                            "/camera/depth_registered/image_raw",
                            "/camera/camera_nodelet_manager/list",
                            "/camera_base_link2",
                            "/camera_base_link3",
                            "/camera/depth_metric_rect/get_loggers",
                            "/camera/points_xyzrgb_hw_registered/get_loggers",
                            "/camera/depth_metric/get_loggers",
                            "/camera/rgb/camera_info",
                            "/camera/depth_metric_rect/set_logger_level",
                            "/camera/depth_registered_hw_metric_rect",
                            "/camera/points_xyzrgb_hw_registered",
                            "/camera/depth_registered/points_3d_rectified",
                            "/camera/depth_registered_rectify_depth/parameter_updates",
                            "/camera/depth_registered_metric",
                            "/camera/rgb_rectify_color/set_logger_level",
                            "/camera/depth_rectify_depth/set_parameters",
                            "/camera_base_link",
                            "/camera/camera_nodelet_manager",
                            "/camera_state_publisher/set_logger_level",
                            "/camera/depth/image",
                            "/camera_base_link3/set_logger_level",
                            "/camera/ir/set_camera_info",
                            "/camera/depth_registered_metric/get_loggers",
                            "/camera_base_link1",
                            "/camera/depth_points",
                            "/camera/rgb_rectify_color/get_loggers",
                            "/camera/depth_registered/hw_registered/image_rect_raw",
                            "/camera/depth_registered/camera_info",
                            "/camera/triggered/depth_registered/trigger",
                            "/camera/depth_points/get_loggers",
                            "/camera/depth_metric/set_logger_level",
                            "/camera/camera_nodelet_manager/get_loggers",
                            "/camera_base_link2/get_loggers",
                            "/camera/points_xyzrgb_hw_registered/set_logger_level",
                            "/camera/depth_registered/hw_registered/image_rect",
                            "/camera/depth_rectify_depth/parameter_updates",
                            "/camera_base_link1/get_loggers",
                            "/camera/depth_registered_rectify_depth/set_parameters",
                            "/camera_base_link1/set_logger_level",
                            "/camera/depth_rectify_depth",
                            "/camera/driver/get_loggers"
                        ]
                    },
                    {
                        "param": "image_!fake",
                        "hit": true,
                        "count": 14,
                        "matches": [
                            "/camera/depth_registered/image",
                            "/camera/depth/image_rect",
                            "/camera/ir/image",
                            "/camera/depth/image_raw",
                            "/camera/depth/image_rect_raw",
                            "/camera/depth_registered/image_clipped",
                            "/camera/rgb/image_raw",
                            "/camera/rgb/image_rect_color",
                            "/image_out",
                            "/camera/depth_registered/image_raw",
                            "/camera/depth/image",
                            "/save_image",
                            "/camera/depth_registered/hw_registered/image_rect_raw",
                            "/camera/depth_registered/hw_registered/image_rect"
                        ]
                    },
                    {
                        "param": "pointgrey_!fake",
                        "hit": false,
                        "count": 0,
                        "matches": []
                    },
                    {
                        "param": "usb_cam_!fake",
                        "hit": false,
                        "count": 0,
                        "matches": []
                    }
                ]
            },
            "camera_depth": {
                "param": "or",
                "hit": true,
                "children": [
                    {
                        "param": "camera_depth_!fake",
                        "hit": true,
                        "count": 42,
                        "matches": [
                            "/camera/depth_registered/image",
                            "/camera/depth_rectify_depth/get_loggers",
                            "/camera/depth/image_rect",
                            "/camera/depth_rectify_depth/parameter_descriptions",
                            "/camera/depth/image_raw",
                            "/camera/depth/points",
                            "/camera/depth_metric_rect",
                            "/camera/depth_points/set_logger_level",
                            "/camera/depth/image_rect_raw",
                            "/camera/depth_registered_metric/set_logger_level",
                            "/camera/depth_registered_hw_metric_rect/get_loggers",
                            "/camera/depth_registered/points",
                            "/camera/depth_registered/image_clipped",
                            "/camera/depth_registered_rectify_depth/parameter_descriptions",
                            "/camera/depth/camera_info",
                            "/camera/depth_registered_rectify_depth/get_loggers",
                            "/camera/depth_rectify_depth/set_logger_level",
                            "/camera/depth_registered_rectify_depth/set_logger_level",
                            "/camera/depth_metric",
                            "/camera/depth_registered_rectify_depth",
                            "/camera/depth_registered_hw_metric_rect/set_logger_level",
                            "/camera/depth_registered/image_raw",
                            "/camera/depth_metric_rect/get_loggers",
                            "/camera/depth_metric/get_loggers",
                            "/camera/depth_metric_rect/set_logger_level",
                            "/camera/depth_registered_hw_metric_rect",
                            "/camera/depth_registered/points_3d_rectified",
                            "/camera/depth_registered_rectify_depth/parameter_updates",
                            "/camera/depth_registered_metric",
                            "/camera/depth_rectify_depth/set_parameters",
                            "/camera/depth/image",
                            "/camera/depth_registered_metric/get_loggers",
                            "/camera/depth_points",
                            "/camera/depth_registered/hw_registered/image_rect_raw",
                            "/camera/depth_registered/camera_info",
                            "/camera/triggered/depth_registered/trigger",
                            "/camera/depth_points/get_loggers",
                            "/camera/depth_metric/set_logger_level",
                            "/camera/depth_registered/hw_registered/image_rect",
                            "/camera/depth_rectify_depth/parameter_updates",
                            "/camera/depth_registered_rectify_depth/set_parameters",
                            "/camera/depth_rectify_depth"
                        ]
                    },
                    {
                        "param": "compressedDepth",
                        "hit": false,
                        "count": 0,
                        "matches": []
                    },
                    {
                        "param": "registered_points",
                        "hit": false,
                        "count": 0,
                        "matches": []
                    }
                ]
            },
            "camera_rgb": {
                "param": "or",
                "hit": true,
                "children": [
                    {
                        "param": "camera_rgb_!fake",
                        "hit": true,
                        "count": 10,
                        "matches": [
                            "/camera/rgb_rectify_color/parameter_updates",
                            "/camera/rgb_rectify_color",
                            "/camera/rgb/image_raw",
                            "/camera/rgb_rectify_color/parameter_descriptions",
                            "/camera/rgb/image_rect_color",
                            "/camera/rgb_rectify_color/set_parameters",
                            "/camera/rgb/set_camera_info",
                            "/camera/rgb/camera_info",
                            "/camera/rgb_rectify_color/set_logger_level",
                            "/camera/rgb_rectify_color/get_loggers"
                        ]
                    },
                    {
                        "param": "kinect2",
                        "hit": false,
                        "count": 0,
                        "matches": []
                    }
                ]
            }
        },
        "actuators": {},
        "other": {
            "rosbridge": {
                "param": "rosbridge",
                "hit": true,
                "count": 3,
                "matches": [
                    "/rosbridge_server/set_logger_level",
                    "/rosbridge_server/get_loggers",
                    "/rosbridge_server"
                ]
            },
            "transform": {
                "param": "or",
                "hit": true,
                "children": [
                    {
                        "param": "tf",
                        "hit": true,
                        "count": 11,
                        "matches": [
                            "/tf2_web_republisher/status",
                            "/tf",
                            "/tf2_web_republisher/set_logger_level",
                            "/tf2_web_republisher",
                            "/tf2_web_republisher/get_loggers",
                            "/tf2_web_republisher/cancel",
                            "/tf_static",
                            "/tf2_web_republisher/feedback",
                            "/tf2_web_republisher/result",
                            "/tf2_web_republisher/goal",
                            "/reset_tf_tree"
                        ]
                    },
                    {
                        "param": "tf_static",
                        "hit": true,
                        "count": 1,
                        "matches": [
                            "/tf_static"
                        ]
                    }
                ]
            },
            "web_video_server": {
                "param": "web_video_server",
                "hit": true,
                "count": 3,
                "matches": [
                    "/web_video_server",
                    "/web_video_server/set_logger_level",
                    "/web_video_server/get_loggers"
                ]
            }
        },
        "robot_types": {},
        "targets": {
            "collision": {
                "param": "collision",
                "hit": true,
                "count": 1,
                "matches": [
                    "/im/collision_cloud"
                ]
            }
        }
    },
    "inferred_results": {
        "identified_robot": false,
        "only_sim": false,
        "likely_empty": false,
        "only_sensors": true,
        "only_actuators": false,
        "only_services": false,
        "needs_more_info": false,
        "confirmed_ros": true,
        "total_hosts": false,
        "is_unconnectable": false,
        "search_hit_sim": false,
        "has_sensor": true,
        "has_actuator": false,
        "has_hostname": true,
        "missing_term_data": false,
        "has_description": false,
        "has_descr_name": false,
        "has_search_hits": true,
        "manually_tagged": false,
        "search_hit_gazebo": false,
        "likely_non_robot": false
    }
}
