{
    "ip": "198.199.112.89",
    "dns.hostname": "ubuntu-14.04",
    "dns.authority": "ns1.digitalocean.com. hostmaster.112.199.198.in-addr.arpa. 1513787263 10800 3600 604800 1800",
    "geoip.country": "United States",
    "geoip.country_code": "US",
    "geoip.specific_name": "California",
    "geoip.specific_name_code": "CA",
    "geoip.latitude": 37.7353,
    "geoip.longitude": -122.3732,
    "geoip.as_number": 14061,
    "geoip.as_organization": "DigitalOcean, LLC",
    "shodan.ports": [
        22
    ],
    "shodan.tags": [
        "cloud"
    ],
    "rosversion": {
        "port": "11311",
        "type": "xmlrpc",
        "method": "rosversion",
        "arg": "/rosversion",
        "status": "ok",
        "timestamp": 1513797512,
        "response": {
            "status_code": 1,
            "status_message": "Parameter [/rosversion]",
            "param": "1.11.21\n"
        }
    },
    "rosparamnames": {
        "port": "11311",
        "type": "xmlrpc",
        "method": "rosparamnames",
        "arg": "",
        "status": "ok",
        "timestamp": 1513797514,
        "response": {
            "status_code": 1,
            "status_message": "Parameter names",
            "paramNames": [
                "/roslaunch/uris/host_ubuntu_14__50604",
                "/rosversion",
                "/run_id",
                "/rostwitter_18740_1509632930197/account_info",
                "/rostwitter/account_info",
                "/account_info",
                "/rostwitter_18641_1509632838245/account_info",
                "/rosdistro"
            ]
        }
    },
    "rostopic": {
        "port": "11311",
        "type": "xmlrpc",
        "method": "rostopic",
        "arg": "/rosversion",
        "status": "ok",
        "timestamp": 1513797517,
        "response": {
            "status_code": 1,
            "status_message": "current system state",
            "system_state": {
                "publishers": {
                    "/rosout_agg": [
                        "/rosout"
                    ]
                },
                "subscribers": {
                    "/rosout": [
                        "/rosout"
                    ]
                },
                "services": {
                    "/rosout/get_loggers": [
                        "/rosout"
                    ],
                    "/rosout/set_logger_level": [
                        "/rosout"
                    ]
                }
            }
        }
    },
    "rosdescription": {
        "port": "11311",
        "type": "xmlrpc",
        "method": "rosdescription",
        "arg": "/robot_description",
        "status": "ok",
        "timestamp": 1513797519,
        "response": {
            "status_code": -1,
            "status_message": "Parameter [/robot_description] is not set",
            "param": 0
        }
    },
    "query_stats": {
        "param_count": 8,
        "publisher_count": 1,
        "subscriber_count": 1,
        "service_count": 2,
        "term_count": 12,
        "alphaterm_count": 11,
        "topic_count": 4,
        "has_description": false,
        "is_ros": true,
        "roscore_version": "1.11",
        "ros_version_name": "indigo",
        "missing_term_data": false,
        "roslaunch_machine_hostnames": [
            "ubuntu_14"
        ],
        "has_hostname": true,
        "machine_hostname": "ubuntu_14"
    },
    "search_info": {
        "count_control": 0,
        "count_simulators": 0,
        "count_sensors": 0,
        "count_actuators": 0,
        "count_other": 0,
        "count_robot_types": 0,
        "count_targets": 0,
        "total_query_hits": 0
    },
    "search_stats": {
        "control": {},
        "simulators": {},
        "sensors": {},
        "actuators": {},
        "other": {},
        "robot_types": {},
        "targets": {}
    },
    "inferred_results": {
        "identified_robot": false,
        "only_sim": false,
        "likely_empty": true,
        "only_sensors": false,
        "only_actuators": false,
        "only_services": false,
        "needs_more_info": false,
        "confirmed_ros": true,
        "total_hosts": false,
        "is_unconnectable": false,
        "search_hit_sim": false,
        "has_sensor": false,
        "has_actuator": false,
        "has_hostname": true,
        "missing_term_data": false,
        "has_description": false,
        "has_descr_name": false,
        "has_search_hits": false,
        "manually_tagged": false,
        "search_hit_gazebo": false,
        "likely_non_robot": false
    }
}
