{
    "ip": "141.26.176.136",
    "dns.hostname": "lisa3.uni-koblenz.de",
    "dns.authority": "ns1.uni-koblenz.de. root.ns1.uni-koblenz.de. 2014082782 14400 900 172800 28800",
    "geoip.country": "Germany",
    "geoip.country_code": "DE",
    "geoip.specific_name": "Rheinland-Pfalz",
    "geoip.specific_name_code": "RP",
    "geoip.latitude": 50.35,
    "geoip.longitude": 7.6,
    "geoip.as_number": 2857,
    "geoip.as_organization": "Johannes Gutenberg-Universitaet Mainz",
    "shodan.ports": "",
    "shodan.tags": "",
    "rosversion": {
        "port": "11311",
        "type": "xmlrpc",
        "method": "rosversion",
        "arg": "/rosversion",
        "status": "ok",
        "timestamp": 1513787275,
        "response": {
            "status_code": 1,
            "status_message": "Parameter [/rosversion]",
            "param": "1.12.7\n"
        }
    },
    "rosparamnames": {
        "port": "11311",
        "type": "xmlrpc",
        "method": "rosparamnames",
        "arg": "",
        "status": "ok",
        "timestamp": 1513787277,
        "response": {
            "status_code": 1,
            "status_message": "Parameter names",
            "paramNames": [
                "/roslaunch/uris/host_laplisa3__38934",
                "/rosdistro",
                "/rosversion",
                "/run_id"
            ]
        }
    },
    "rostopic": {
        "port": "11311",
        "type": "xmlrpc",
        "method": "rostopic",
        "arg": "/rosversion",
        "status": "ok",
        "timestamp": 1513787280,
        "response": {
            "status_code": 1,
            "status_message": "current system state",
            "system_state": {
                "publishers": {
                    "/rosout_agg": [
                        "/rosout"
                    ]
                },
                "subscribers": {
                    "/rosout": [
                        "/rosout"
                    ]
                },
                "services": {
                    "/rosout/set_logger_level": [
                        "/rosout"
                    ],
                    "/rosout/get_loggers": [
                        "/rosout"
                    ]
                }
            }
        }
    },
    "rosdescription": {
        "port": "11311",
        "type": "xmlrpc",
        "method": "rosdescription",
        "arg": "/robot_description",
        "status": "ok",
        "timestamp": 1513787282,
        "response": {
            "status_code": -1,
            "status_message": "Parameter [/robot_description] is not set",
            "param": 0
        }
    },
    "query_stats": {
        "param_count": 4,
        "publisher_count": 1,
        "subscriber_count": 1,
        "service_count": 2,
        "term_count": 8,
        "alphaterm_count": 8,
        "topic_count": 4,
        "has_description": false,
        "is_ros": true,
        "roscore_version": "1.12",
        "ros_version_name": "kinetic",
        "missing_term_data": false,
        "roslaunch_machine_hostnames": [
            "laplisa3"
        ],
        "has_hostname": true,
        "machine_hostname": "laplisa3"
    },
    "search_info": {
        "count_control": 0,
        "count_simulators": 0,
        "count_sensors": 0,
        "count_actuators": 0,
        "count_other": 0,
        "count_robot_types": 0,
        "count_targets": 0,
        "total_query_hits": 0
    },
    "search_stats": {
        "control": {},
        "simulators": {},
        "sensors": {},
        "actuators": {},
        "other": {},
        "robot_types": {},
        "targets": {}
    },
    "inferred_results": {
        "identified_robot": false,
        "only_sim": false,
        "likely_empty": true,
        "only_sensors": false,
        "only_actuators": false,
        "only_services": false,
        "needs_more_info": false,
        "confirmed_ros": true,
        "total_hosts": false,
        "is_unconnectable": false,
        "search_hit_sim": false,
        "has_sensor": false,
        "has_actuator": false,
        "has_hostname": true,
        "missing_term_data": false,
        "has_description": false,
        "has_descr_name": false,
        "has_search_hits": false,
        "manually_tagged": false,
        "search_hit_gazebo": false,
        "likely_non_robot": false
    }
}
