{
    "ip": "110.161.8.243",
    "dns.hostname": "mo110-161-8-243.air.mopera.net",
    "dns.authority": "ns1.mopera.net. postmaster.mopera.ne.jp. 2016071500 3600 1800 1209600 21600",
    "geoip.country": "Japan",
    "geoip.country_code": "JP",
    "geoip.specific_name": "Tokyo",
    "geoip.specific_name_code": "13",
    "geoip.latitude": 35.685,
    "geoip.longitude": 139.7514,
    "geoip.as_number": 9605,
    "geoip.as_organization": "NTT DOCOMO, INC.",
    "shodan.ports": "",
    "shodan.tags": "",
    "rosversion": {
        "port": "11311",
        "type": "xmlrpc",
        "method": "rosversion",
        "arg": "/rosversion",
        "status": "ok",
        "timestamp": 1513753624,
        "response": {
            "status_code": 1,
            "status_message": "Parameter [/rosversion]",
            "param": "1.11.20\n"
        }
    },
    "rosparamnames": {
        "port": "11311",
        "type": "xmlrpc",
        "method": "rosparamnames",
        "arg": "",
        "status": "ok",
        "timestamp": 1513753627,
        "response": {
            "status_code": 1,
            "status_message": "Parameter names",
            "paramNames": [
                "/roslaunch/uris/host_192_168_0_1__50636",
                "/roslaunch/uris/host_192_168_0_1__55297",
                "/roslaunch/uris/host_192_168_0_1__57718",
                "/rulodriver/id_",
                "/rulodriver/publishTf",
                "/rulodriver/twistCovariance",
                "/rulodriver/poseCovariance",
                "/rulodriver/port_",
                "/rulodriver/publish_name_",
                "/rulodriver/wheel_diameter",
                "/rulodriver/base_name_",
                "/rulodriver/axle_length",
                "/rosversion",
                "/LED_node/port_",
                "/run_id",
                "/gps_node/socket_name",
                "/gps_node/topic_name",
                "/air_condition_node/socket_name",
                "/air_condition_node/topic_name",
                "/pana_navi/xy_goal_tolerance",
                "/pana_navi/max_vel",
                "/pana_navi/rot_min",
                "/pana_navi/vel_kd",
                "/pana_navi/threshold_for_rotate_in_place",
                "/pana_navi/vel_ki",
                "/pana_navi/max_rot_vel",
                "/pana_navi/rot_ki",
                "/pana_navi/overrun_allow",
                "/pana_navi/rot_kd",
                "/pana_navi/rot_kp",
                "/pana_navi/vel_kp",
                "/pana_navi/slow_down_radius",
                "/pana_navi/rotation_speed_decrease",
                "/pana_navi/distance_diff_k",
                "/pana_navi/robot_radius",
                "/pana_navi/yaw_goal_tolerance",
                "/amcl/kld_err",
                "/amcl/odom_alpha2",
                "/amcl/odom_alpha1",
                "/amcl/initial_cov_xx",
                "/amcl/gui_publish_rate",
                "/amcl/odom_alpha4",
                "/amcl/tf_broadcast",
                "/amcl/laser_sigma_hit",
                "/amcl/odom_model_type",
                "/amcl/max_particles",
                "/amcl/initial_cov_yy",
                "/amcl/laser_min_range",
                "/amcl/laser_max_range",
                "/amcl/laser_z_short",
                "/amcl/odom_alpha5",
                "/amcl/restore_defaults",
                "/amcl/transform_tolerance",
                "/amcl/base_frame_id",
                "/amcl/use_map_topic",
                "/amcl/laser_z_rand",
                "/amcl/beam_skip_threshold",
                "/amcl/initial_cov_aa",
                "/amcl/odom_alpha3",
                "/amcl/initial_pose_x",
                "/amcl/first_map_only",
                "/amcl/initial_pose_y",
                "/amcl/update_min_d",
                "/amcl/update_min_a",
                "/amcl/recovery_alpha_slow",
                "/amcl/initial_pose_a",
                "/amcl/resample_interval",
                "/amcl/laser_z_max",
                "/amcl/laser_z_hit",
                "/amcl/kld_z",
                "/amcl/min_particles",
                "/amcl/odom_frame_id",
                "/amcl/laser_likelihood_max_dist",
                "/amcl/laser_lambda_short",
                "/amcl/laser_max_beams",
                "/amcl/global_frame_id",
                "/amcl/recovery_alpha_fast",
                "/amcl/beam_skip_distance",
                "/amcl/save_pose_rate",
                "/amcl/do_beamskip",
                "/amcl/laser_model_type",
                "/rosdistro",
                "/outer_condition_node/socket_name",
                "/outer_condition_node/topic_name",
                "/system_info_node/socket_name",
                "/system_info_node/topic_name",
                "/urg_node/angle_min",
                "/urg_node/tf_prefix",
                "/urg_node/cluster",
                "/urg_node/time_offset",
                "/urg_node/angle_max",
                "/urg_node/frame_id",
                "/urg_node/skip",
                "/urg_node/ip_address"
            ]
        }
    },
    "rostopic": {
        "port": "11311",
        "type": "xmlrpc",
        "method": "rostopic",
        "arg": "/rosversion",
        "status": "ok",
        "timestamp": 1513753631,
        "response": {
            "status_code": 1,
            "status_message": "current system state",
            "system_state": {
                "publishers": {
                    "/mobile_base/event/optical_ranging_sensor": [
                        "/rulodriver"
                    ],
                    "/map_metadata": [
                        "/map_server1"
                    ],
                    "/amcl_pose": [
                        "/amcl"
                    ],
                    "/pana_navi/parameter_descriptions": [
                        "/pana_navi"
                    ],
                    "/mobile_base/command/mode": [
                        "/GoalRetry_node"
                    ],
                    "/mobile_base/event/bumper": [
                        "/rulodriver"
                    ],
                    "/mobile_base/event/ultrasonic_sensor": [
                        "/rulodriver"
                    ],
                    "/tf": [
                        "/rulodriver",
                        "/static_transform_publisher3",
                        "/static_transform_publisher4",
                        "/amcl"
                    ],
                    "/initialpose": [
                        "/rosjava_tutorial_pubsub/talker1initpose"
                    ],
                    "/mobile_base/event/dirt_detect": [
                        "/rulodriver"
                    ],
                    "/odom": [
                        "/rulodriver"
                    ],
                    "/mobile_base/event/gps/vel": [
                        "/gps_node"
                    ],
                    "/rosout_agg": [
                        "/rosout"
                    ],
                    "/mobile_base/event/gps/time_reference": [
                        "/gps_node"
                    ],
                    "/global_plan": [
                        "/pana_navi"
                    ],
                    "/move_base_simple/goal": [
                        "/GoalRetry_node",
                        "/rosjava_tutorial_pubsub/talker"
                    ],
                    "/urg_node/parameter_updates": [
                        "/urg_node"
                    ],
                    "/infration": [
                        "/rosjava_tutorial_pubsub/infration"
                    ],
                    "/move_path": [
                        "/ab_scenario"
                    ],
                    "/DoorState": [
                        "/rosjava_tutorial_pubsub/DoorState"
                    ],
                    "/mobile_base/event/brashes": [
                        "/rulodriver"
                    ],
                    "/mobile_base/event/dustbox": [
                        "/rulodriver"
                    ],
                    "/pana_navi/parameter_updates": [
                        "/pana_navi"
                    ],
                    "/mobile_base/event/cliff": [
                        "/rulodriver"
                    ],
                    "/air_pressure_sensor": [
                        "/outer_condition_node"
                    ],
                    "/mobile_base/event/gps/fix": [
                        "/gps_node"
                    ],
                    "/mobile_base/event/battery": [
                        "/rulodriver"
                    ],
                    "/humidity_sensor": [
                        "/outer_condition_node"
                    ],
                    "/diagnostics": [
                        "/urg_node"
                    ],
                    "/mobile_base/event/drive": [
                        "/rulodriver"
                    ],
                    "/particlecloud": [
                        "/amcl"
                    ],
                    "/map": [
                        "/map_server1"
                    ],
                    "/rosout": [
                        "/rulodriver",
                        "/LED_node",
                        "/Status_node",
                        "/air_condition_node",
                        "/outer_condition_node",
                        "/system_info_node",
                        "/gps_node",
                        "/static_transform_publisher3",
                        "/urg_node",
                        "/static_transform_publisher4",
                        "/map_server1",
                        "/amcl",
                        "/pana_navi",
                        "/GoalRetry_node",
                        "/ab_scenario",
                        "/rosjava_tutorial_pubsub/talker",
                        "/rosjava_tutorial_pubsub/talker1initpose",
                        "/rosjava_tutorial_pubsub/work_model",
                        "/speed",
                        "/currentPose",
                        "/robotblock",
                        "/rosjava_tutorial_pubsub/Led",
                        "/goalPosition",
                        "/rosjava_tutorial_pubsub/DoorState",
                        "/switch_abc",
                        "/mDoorState",
                        "/rosjava_tutorial_pubsub/infration",
                        "/rosjava_tutorial_pubsub/Show_msg",
                        "/rosjava_tutorial_pubsub/avoid"
                    ],
                    "/mobile_base/event/led_board": [
                        "/rulodriver"
                    ],
                    "/amcl/parameter_descriptions": [
                        "/amcl"
                    ],
                    "/mobile_base/event/slip": [
                        "/rulodriver"
                    ],
                    "/mobile_base/event/air_condition": [
                        "/air_condition_node"
                    ],
                    "/avoid": [
                        "/rosjava_tutorial_pubsub/avoid"
                    ],
                    "/amcl/parameter_updates": [
                        "/amcl"
                    ],
                    "/mobile_base/event/dust": [
                        "/rulodriver"
                    ],
                    "/mobile_base/event/mode": [
                        "/rulodriver"
                    ],
                    "/Rulo/cmd_vel": [
                        "/pana_navi"
                    ],
                    "/elevator_map_switch/floor": [
                        "/rosjava_tutorial_pubsub/work_model"
                    ],
                    "/Show_msg": [
                        "/rosjava_tutorial_pubsub/Show_msg"
                    ],
                    "/mobile_base/event/outer_environment": [
                        "/outer_condition_node"
                    ],
                    "/Led": [
                        "/Status_node",
                        "/rosjava_tutorial_pubsub/Led"
                    ],
                    "/Door": [
                        "/LED_node"
                    ],
                    "/move_base/result": [
                        "/pana_navi"
                    ],
                    "/urg_node/parameter_descriptions": [
                        "/urg_node"
                    ],
                    "/mobile_base/event/system_info": [
                        "/system_info_node"
                    ],
                    "/mobile_base/event/ir_character": [
                        "/rulodriver"
                    ],
                    "/mobile_base/event/wheel_drop": [
                        "/rulodriver"
                    ],
                    "/scan": [
                        "/urg_node"
                    ]
                },
                "subscribers": {
                    "/drive_pwm": [
                        "/rulodriver"
                    ],
                    "/mobile_base/command/mode": [
                        "/rulodriver"
                    ],
                    "/amcl_pose": [
                        "/currentPose"
                    ],
                    "/tf": [
                        "/amcl",
                        "/pana_navi"
                    ],
                    "/Led": [
                        "/LED_node"
                    ],
                    "/odom": [
                        "/pana_navi",
                        "/speed"
                    ],
                    "/scan": [
                        "/pana_navi",
                        "/amcl"
                    ],
                    "/mobile_base/command/brushesPWM_cmd": [
                        "/rulodriver"
                    ],
                    "/move_base_simple/goal": [
                        "/GoalRetry_node",
                        "/ab_scenario",
                        "/goalPosition"
                    ],
                    "/robot_blocked/xiaomei": [
                        "/robotblock"
                    ],
                    "/DoorState": [
                        "/LED_node"
                    ],
                    "/tf_static": [
                        "/pana_navi",
                        "/amcl"
                    ],
                    "/imu": [
                        "/rulodriver"
                    ],
                    "/mobile_base/command/brushes_cmd": [
                        "/rulodriver"
                    ],
                    "/mobile_base/event/battery": [
                        "/Status_node"
                    ],
                    "/map": [
                        "/amcl"
                    ],
                    "/rosout": [
                        "/rosout"
                    ],
                    "/initialpose": [
                        "/amcl"
                    ],
                    "/map_switched/finished": [
                        "/switch_abc"
                    ],
                    "/move_path": [
                        "/pana_navi"
                    ],
                    "/mobile_base/command/ledboard_Command": [
                        "/rulodriver"
                    ],
                    "/Door": [
                        "/mDoorState"
                    ],
                    "/move_base/result": [
                        "/GoalRetry_node",
                        "/ab_scenario"
                    ],
                    "/Rulo/cmd_vel": [
                        "/rulodriver"
                    ]
                },
                "services": {
                    "/rulodriver/get_loggers": [
                        "/rulodriver"
                    ],
                    "/rulodriver/set_logger_level": [
                        "/rulodriver"
                    ],
                    "/static_transform_publisher4/get_loggers": [
                        "/static_transform_publisher4"
                    ],
                    "/map_server1/get_loggers": [
                        "/map_server1"
                    ],
                    "/pana_navi/get_loggers": [
                        "/pana_navi"
                    ],
                    "/urg_node/get_loggers": [
                        "/urg_node"
                    ],
                    "/urg_node/set_logger_level": [
                        "/urg_node"
                    ],
                    "/global_localization": [
                        "/amcl"
                    ],
                    "/gps_node/get_loggers": [
                        "/gps_node"
                    ],
                    "/system_info_node/set_logger_level": [
                        "/system_info_node"
                    ],
                    "/map_server1/set_logger_level": [
                        "/map_server1"
                    ],
                    "/pana_navi/set_logger_level": [
                        "/pana_navi"
                    ],
                    "/air_condition_node/get_loggers": [
                        "/air_condition_node"
                    ],
                    "/request_nomotion_update": [
                        "/amcl"
                    ],
                    "/rosout/set_logger_level": [
                        "/rosout"
                    ],
                    "/LED_node/set_logger_level": [
                        "/LED_node"
                    ],
                    "/static_map": [
                        "/map_server1"
                    ],
                    "/gps_node/set_logger_level": [
                        "/gps_node"
                    ],
                    "/LED_node/get_loggers": [
                        "/LED_node"
                    ],
                    "/urg_node/set_parameters": [
                        "/urg_node"
                    ],
                    "/outer_condition_node/get_loggers": [
                        "/outer_condition_node"
                    ],
                    "/ab_scenario/get_loggers": [
                        "/ab_scenario"
                    ],
                    "/amcl/set_parameters": [
                        "/amcl"
                    ],
                    "/amcl/get_loggers": [
                        "/amcl"
                    ],
                    "/Status_node/get_loggers": [
                        "/Status_node"
                    ],
                    "/static_transform_publisher3/set_logger_level": [
                        "/static_transform_publisher3"
                    ],
                    "/ab_scenario/set_logger_level": [
                        "/ab_scenario"
                    ],
                    "/static_transform_publisher3/get_loggers": [
                        "/static_transform_publisher3"
                    ],
                    "/amcl/set_logger_level": [
                        "/amcl"
                    ],
                    "/air_condition_node/set_logger_level": [
                        "/air_condition_node"
                    ],
                    "/GoalRetry_node/set_logger_level": [
                        "/GoalRetry_node"
                    ],
                    "/rosout/get_loggers": [
                        "/rosout"
                    ],
                    "/system_info_node/get_loggers": [
                        "/system_info_node"
                    ],
                    "/Status_node/set_logger_level": [
                        "/Status_node"
                    ],
                    "/static_transform_publisher4/set_logger_level": [
                        "/static_transform_publisher4"
                    ],
                    "/outer_condition_node/set_logger_level": [
                        "/outer_condition_node"
                    ],
                    "/set_map": [
                        "/amcl"
                    ],
                    "/pana_navi/set_parameters": [
                        "/pana_navi"
                    ],
                    "/GoalRetry_node/get_loggers": [
                        "/GoalRetry_node"
                    ]
                }
            }
        }
    },
    "rosdescription": {
        "port": "11311",
        "type": "xmlrpc",
        "method": "rosdescription",
        "arg": "/robot_description",
        "status": "ok",
        "timestamp": 1513753635,
        "response": {
            "status_code": -1,
            "status_message": "Parameter [/robot_description] is not set",
            "param": 0
        }
    },
    "query_stats": {
        "param_count": 94,
        "publisher_count": 53,
        "subscriber_count": 24,
        "service_count": 39,
        "term_count": 223,
        "alphaterm_count": 214,
        "topic_count": 129,
        "has_description": false,
        "is_ros": true,
        "roscore_version": "1.11",
        "ros_version_name": "indigo",
        "missing_term_data": false,
        "roslaunch_machine_hostnames": [],
        "has_hostname": false
    },
    "search_info": {
        "count_control": 0,
        "count_simulators": 0,
        "count_sensors": 6,
        "count_actuators": 2,
        "count_other": 1,
        "count_robot_types": 0,
        "count_targets": 1,
        "total_query_hits": 10
    },
    "search_stats": {
        "control": {},
        "simulators": {},
        "sensors": {
            "imu": {
                "param": "imu",
                "hit": true,
                "count": 1,
                "matches": [
                    "/imu"
                ]
            },
            "lidar": {
                "param": "or",
                "hit": true,
                "children": [
                    {
                        "param": "lidar",
                        "hit": false,
                        "count": 0,
                        "matches": []
                    },
                    {
                        "param": "hokuyo",
                        "hit": false,
                        "count": 0,
                        "matches": []
                    },
                    {
                        "param": "scan",
                        "hit": true,
                        "count": 1,
                        "matches": [
                            "/scan"
                        ]
                    },
                    {
                        "param": "lms511",
                        "hit": false,
                        "count": 0,
                        "matches": []
                    },
                    {
                        "param": "laser_points_pc2",
                        "hit": false,
                        "count": 0,
                        "matches": []
                    }
                ]
            },
            "odometry": {
                "param": "odom",
                "hit": true,
                "count": 1,
                "matches": [
                    "/odom"
                ]
            },
            "bumper": {
                "param": "or",
                "hit": true,
                "children": [
                    {
                        "param": "bumper",
                        "hit": true,
                        "count": 1,
                        "matches": [
                            "/mobile_base/event/bumper"
                        ]
                    },
                    {
                        "param": "contact",
                        "hit": false,
                        "count": 0,
                        "matches": []
                    }
                ]
            },
            "gps_nofake": {
                "param": "or",
                "hit": true,
                "children": [
                    {
                        "param": "gps_!fake_!sim",
                        "hit": true,
                        "count": 6,
                        "matches": [
                            "/mobile_base/event/gps/time_reference",
                            "/mobile_base/event/gps/vel",
                            "/gps_node",
                            "/gps_node/set_logger_level",
                            "/gps_node/get_loggers",
                            "/mobile_base/event/gps/fix"
                        ]
                    },
                    {
                        "param": "gnss_!fake_!sim",
                        "hit": false,
                        "count": 0,
                        "matches": []
                    },
                    {
                        "param": "vectornav_!fake_!sim",
                        "hit": false,
                        "count": 0,
                        "matches": []
                    }
                ]
            },
            "battery": {
                "param": "or",
                "hit": true,
                "children": [
                    {
                        "param": "battery",
                        "hit": true,
                        "count": 1,
                        "matches": [
                            "/mobile_base/event/battery"
                        ]
                    },
                    {
                        "param": "voltage",
                        "hit": false,
                        "count": 0,
                        "matches": []
                    }
                ]
            }
        },
        "actuators": {
            "cmd_vel": {
                "param": "cmd_vel",
                "hit": true,
                "count": 1,
                "matches": [
                    "/Rulo/cmd_vel"
                ]
            },
            "move_base_simple": {
                "param": "move_base_simple",
                "hit": true,
                "count": 1,
                "matches": [
                    "/move_base_simple/goal"
                ]
            }
        },
        "other": {
            "transform": {
                "param": "or",
                "hit": true,
                "children": [
                    {
                        "param": "tf",
                        "hit": true,
                        "count": 2,
                        "matches": [
                            "/tf",
                            "/tf_static"
                        ]
                    },
                    {
                        "param": "tf_static",
                        "hit": true,
                        "count": 1,
                        "matches": [
                            "/tf_static"
                        ]
                    }
                ]
            }
        },
        "robot_types": {},
        "targets": {
            "map": {
                "param": "map",
                "hit": true,
                "count": 9,
                "matches": [
                    "/map_switched/finished",
                    "/map_metadata",
                    "/map_server1/get_loggers",
                    "/map_server1/set_logger_level",
                    "/map_server1",
                    "/set_map",
                    "/map",
                    "/static_map",
                    "/elevator_map_switch/floor"
                ]
            }
        }
    },
    "inferred_results": {
        "identified_robot": true,
        "only_sim": false,
        "likely_empty": false,
        "only_sensors": false,
        "only_actuators": false,
        "only_services": false,
        "needs_more_info": false,
        "confirmed_ros": true,
        "total_hosts": false,
        "is_unconnectable": false,
        "search_hit_sim": false,
        "has_sensor": true,
        "has_actuator": true,
        "has_hostname": false,
        "missing_term_data": false,
        "has_description": false,
        "has_descr_name": false,
        "has_search_hits": true,
        "manually_tagged": false,
        "search_hit_gazebo": false,
        "likely_non_robot": false
    }
}
