{
    "ip": "132.177.8.82",
    "dns.hostname": "shield.assistiverobotics.cs.unh.edu",
    "dns.authority": "cs.unh.edu. glr.cs.unh.edu. 2017101000 3600 360 3600000 86400",
    "geoip.country": "United States",
    "geoip.country_code": "US",
    "geoip.specific_name": "New Hampshire",
    "geoip.specific_name_code": "NH",
    "geoip.latitude": 43.1271,
    "geoip.longitude": -70.9627,
    "geoip.as_number": 11745,
    "geoip.as_organization": "University System of New Hampshire",
    "shodan.ports": [
        123,
        5353
    ],
    "shodan.tags": [],
    "rosversion": {
        "port": "11311",
        "type": "xmlrpc",
        "method": "rosversion",
        "arg": "/rosversion",
        "status": "ok",
        "timestamp": 1513904312,
        "response": {
            "status_code": 1,
            "status_message": "Parameter [/rosversion]",
            "param": "1.11.21\n"
        }
    },
    "rosparamnames": {
        "port": "11311",
        "type": "xmlrpc",
        "method": "rosparamnames",
        "arg": "",
        "status": "ok",
        "timestamp": 1513904314,
        "response": {
            "status_code": 1,
            "status_message": "Parameter names",
            "paramNames": [
                "/roslaunch/uris/host_mbc2004_precision_tower_7910__39238",
                "/rosdistro",
                "/rosversion",
                "/run_id"
            ]
        }
    },
    "rostopic": {
        "port": "11311",
        "type": "xmlrpc",
        "method": "rostopic",
        "arg": "/rosversion",
        "status": "ok",
        "timestamp": 1513904316,
        "response": {
            "status_code": 1,
            "status_message": "current system state",
            "system_state": {
                "publishers": {
                    "/rosout": [
                        "/gen_tfrecord_18820_1513880536231"
                    ],
                    "/rosout_agg": [
                        "/rosout"
                    ]
                },
                "subscribers": {
                    "/nao_robot/camera/top/camera/image_raw": [
                        "/gen_tfrecord_18820_1513880536231"
                    ],
                    "/rosout": [
                        "/rosout"
                    ],
                    "/nao_robot/microphone/naoqi_microphone/audio_raw": [
                        "/gen_tfrecord_18820_1513880536231"
                    ]
                },
                "services": {
                    "/gen_tfrecord_18820_1513880536231/set_logger_level": [
                        "/gen_tfrecord_18820_1513880536231"
                    ],
                    "/rosout/set_logger_level": [
                        "/rosout"
                    ],
                    "/rosout/get_loggers": [
                        "/rosout"
                    ],
                    "/gen_tfrecord_18820_1513880536231/get_loggers": [
                        "/gen_tfrecord_18820_1513880536231"
                    ]
                }
            }
        }
    },
    "rosdescription": {
        "port": "11311",
        "type": "xmlrpc",
        "method": "rosdescription",
        "arg": "/robot_description",
        "status": "ok",
        "timestamp": 1513904319,
        "response": {
            "status_code": -1,
            "status_message": "Parameter [/robot_description] is not set",
            "param": 0
        }
    },
    "query_stats": {
        "param_count": 4,
        "publisher_count": 2,
        "subscriber_count": 3,
        "service_count": 4,
        "term_count": 13,
        "alphaterm_count": 13,
        "topic_count": 9,
        "has_description": false,
        "is_ros": true,
        "roscore_version": "1.11",
        "ros_version_name": "indigo",
        "missing_term_data": false,
        "roslaunch_machine_hostnames": [
            "mbc2004_precision_tower_7910"
        ],
        "has_hostname": true,
        "machine_hostname": "mbc2004_precision_tower_7910"
    },
    "search_info": {
        "count_control": 0,
        "count_simulators": 0,
        "count_sensors": 2,
        "count_actuators": 0,
        "count_other": 0,
        "count_robot_types": 0,
        "count_targets": 0,
        "total_query_hits": 2
    },
    "search_stats": {
        "control": {},
        "simulators": {},
        "sensors": {
            "camera_nofake": {
                "param": "or",
                "hit": true,
                "children": [
                    {
                        "param": "camera_!fake",
                        "hit": true,
                        "count": 1,
                        "matches": [
                            "/nao_robot/camera/top/camera/image_raw"
                        ]
                    },
                    {
                        "param": "image_!fake",
                        "hit": true,
                        "count": 1,
                        "matches": [
                            "/nao_robot/camera/top/camera/image_raw"
                        ]
                    },
                    {
                        "param": "pointgrey_!fake",
                        "hit": false,
                        "count": 0,
                        "matches": []
                    },
                    {
                        "param": "usb_cam_!fake",
                        "hit": false,
                        "count": 0,
                        "matches": []
                    }
                ]
            },
            "audio": {
                "param": "microphone",
                "hit": true,
                "count": 1,
                "matches": [
                    "/nao_robot/microphone/naoqi_microphone/audio_raw"
                ]
            }
        },
        "actuators": {},
        "other": {},
        "robot_types": {},
        "targets": {}
    },
    "inferred_results": {
        "identified_robot": true,
        "only_sim": false,
        "likely_empty": false,
        "only_sensors": false,
        "only_actuators": false,
        "only_services": false,
        "needs_more_info": false,
        "confirmed_ros": true,
        "total_hosts": false,
        "is_unconnectable": false,
        "search_hit_sim": false,
        "has_sensor": true,
        "has_actuator": false,
        "has_hostname": true,
        "missing_term_data": false,
        "has_description": false,
        "has_descr_name": false,
        "has_search_hits": true,
        "manually_tagged": true,
        "search_hit_gazebo": false,
        "likely_non_robot": false
    }
}
