{
    "ip": "141.219.228.124",
    "dns.hostname": "rover-228-124.rovernet.mtu.edu",
    "dns.authority": "dns.mtu.edu. dns-admin.mtu.edu. 2017121910 14400 1800 604800 86400",
    "geoip.country": "United States",
    "geoip.country_code": "US",
    "geoip.specific_name": "Michigan",
    "geoip.specific_name_code": "MI",
    "geoip.latitude": 47.1544,
    "geoip.longitude": -88.6471,
    "geoip.as_number": 62618,
    "geoip.as_organization": "Michigan Technological University",
    "shodan.ports": [
        22
    ],
    "shodan.tags": [],
    "rosversion": {
        "port": "11311",
        "type": "xmlrpc",
        "method": "rosversion",
        "arg": "/rosversion",
        "status": "ok",
        "timestamp": 1513765040,
        "response": {
            "status_code": 1,
            "status_message": "Parameter [/rosversion]",
            "param": "1.12.12\n"
        }
    },
    "rosparamnames": {
        "port": "11311",
        "type": "xmlrpc",
        "method": "rosparamnames",
        "arg": "",
        "status": "ok",
        "timestamp": 1513765042,
        "response": {
            "status_code": 1,
            "status_message": "Parameter names",
            "paramNames": [
                "/roslaunch/uris/host_the_white_case__39693",
                "/husky_joint_publisher/type",
                "/husky_joint_publisher/publish_rate",
                "/husky_velocity_controller/left_wheel",
                "/husky_velocity_controller/twist_covariance_diagonal",
                "/husky_velocity_controller/linear/x/max_velocity",
                "/husky_velocity_controller/linear/x/has_acceleration_limits",
                "/husky_velocity_controller/linear/x/has_velocity_limits",
                "/husky_velocity_controller/linear/x/max_acceleration",
                "/husky_velocity_controller/publish_rate",
                "/husky_velocity_controller/wheel_radius_multiplier",
                "/husky_velocity_controller/pose_covariance_diagonal",
                "/husky_velocity_controller/wheel_separation_multiplier",
                "/husky_velocity_controller/right_wheel",
                "/husky_velocity_controller/enable_odom_tf",
                "/husky_velocity_controller/base_frame_id",
                "/husky_velocity_controller/cmd_vel_timeout",
                "/husky_velocity_controller/estimate_velocity_from_position",
                "/husky_velocity_controller/type",
                "/husky_velocity_controller/angular/z/max_velocity",
                "/husky_velocity_controller/angular/z/has_acceleration_limits",
                "/husky_velocity_controller/angular/z/has_velocity_limits",
                "/husky_velocity_controller/angular/z/max_acceleration",
                "/rosversion",
                "/run_id",
                "/twist_mux/locks",
                "/twist_mux/topics",
                "/ekf_localization/odom_frame",
                "/ekf_localization/odom0_queue_size",
                "/ekf_localization/odom0",
                "/ekf_localization/odom0_differential",
                "/ekf_localization/odom0_config",
                "/ekf_localization/two_d_mode",
                "/ekf_localization/base_link_frame",
                "/ekf_localization/imu0",
                "/ekf_localization/imu0_config",
                "/ekf_localization/frequency",
                "/ekf_localization/imu0_queue_size",
                "/ekf_localization/imu0_differential",
                "/ekf_localization/imu0_remove_gravitational_acceleration",
                "/ekf_localization/world_frame",
                "/robot_description",
                "/use_sim_time",
                "/rosdistro",
                "/gazebo/gravity_z",
                "/gazebo/cfm",
                "/gazebo/erp",
                "/gazebo/contact_max_correcting_vel",
                "/gazebo/sor_pgs_iters",
                "/gazebo/sor_pgs_precon_iters",
                "/gazebo/auto_disable_bodies",
                "/gazebo/sor_pgs_rms_error_tol",
                "/gazebo/contact_surface_layer",
                "/gazebo/max_update_rate",
                "/gazebo/gravity_x",
                "/gazebo/gravity_y",
                "/gazebo/time_step",
                "/gazebo/max_contacts",
                "/gazebo/sor_pgs_w"
            ]
        }
    },
    "rostopic": {
        "port": "11311",
        "type": "xmlrpc",
        "method": "rostopic",
        "arg": "/rosversion",
        "status": "ok",
        "timestamp": 1513765044,
        "response": {
            "status_code": 1,
            "status_message": "current system state",
            "system_state": {
                "publishers": {
                    "/gazebo/parameter_descriptions": [
                        "/gazebo"
                    ],
                    "/gazebo/model_states": [
                        "/gazebo"
                    ],
                    "/husky_velocity_controller/odom": [
                        "/gazebo"
                    ],
                    "/gazebo/link_states": [
                        "/gazebo"
                    ],
                    "/joint_states": [
                        "/gazebo"
                    ],
                    "/rosout": [
                        "/twist_mux",
                        "/twist_marker_server",
                        "/ekf_localization",
                        "/gazebo",
                        "/controller_spawner",
                        "/simulation_wrapper"
                    ],
                    "/scan": [
                        "/gazebo"
                    ],
                    "/rosout_agg": [
                        "/rosout"
                    ],
                    "/cmd_vel": [
                        "/simulation_wrapper"
                    ],
                    "/twist_marker_server/cmd_vel": [
                        "/twist_marker_server"
                    ],
                    "/clock": [
                        "/gazebo"
                    ],
                    "/tf": [
                        "/ekf_localization",
                        "/gazebo"
                    ],
                    "/husky_velocity_controller/cmd_vel": [
                        "/twist_mux"
                    ],
                    "/odometry/filtered": [
                        "/ekf_localization"
                    ],
                    "/diagnostics": [
                        "/ekf_localization",
                        "/twist_mux"
                    ],
                    "/twist_marker_server/update": [
                        "/twist_marker_server"
                    ],
                    "/twist_marker_server/update_full": [
                        "/twist_marker_server"
                    ],
                    "/gazebo/parameter_updates": [
                        "/gazebo"
                    ]
                },
                "subscribers": {
                    "/e_stop": [
                        "/twist_mux"
                    ],
                    "/tf_static": [
                        "/ekf_localization"
                    ],
                    "/gazebo/set_model_state": [
                        "/gazebo"
                    ],
                    "/twist_marker_server/feedback": [
                        "/twist_marker_server"
                    ],
                    "/husky_velocity_controller/odom": [
                        "/ekf_localization"
                    ],
                    "/gazebo/set_link_state": [
                        "/gazebo"
                    ],
                    "/gazebo/model_states": [
                        "/simulation_wrapper"
                    ],
                    "/imu/data": [
                        "/ekf_localization"
                    ],
                    "/set_pose": [
                        "/ekf_localization"
                    ],
                    "/rosout": [
                        "/rosout"
                    ],
                    "/tf": [
                        "/ekf_localization"
                    ],
                    "/cmd_vel": [
                        "/twist_mux"
                    ],
                    "/twist_marker_server/cmd_vel": [
                        "/twist_mux"
                    ],
                    "/clock": [
                        "/rosout",
                        "/twist_mux",
                        "/ekf_localization",
                        "/twist_marker_server",
                        "/gazebo",
                        "/controller_spawner",
                        "/simulation_wrapper"
                    ],
                    "/husky_velocity_controller/cmd_vel": [
                        "/gazebo"
                    ],
                    "/scan": [
                        "/simulation_wrapper"
                    ],
                    "/platform_control/cmd_vel": [
                        "/twist_mux"
                    ],
                    "/joy_teleop/cmd_vel": [
                        "/twist_mux"
                    ]
                },
                "services": {
                    "/gazebo/apply_joint_effort": [
                        "/gazebo"
                    ],
                    "/gazebo/get_link_state": [
                        "/gazebo"
                    ],
                    "/gazebo/get_physics_properties": [
                        "/gazebo"
                    ],
                    "/gazebo/set_link_state": [
                        "/gazebo"
                    ],
                    "/gazebo/set_joint_properties": [
                        "/gazebo"
                    ],
                    "/gazebo/set_logger_level": [
                        "/gazebo"
                    ],
                    "/gazebo/reset_world": [
                        "/gazebo"
                    ],
                    "/twist_marker_server/set_logger_level": [
                        "/twist_marker_server"
                    ],
                    "/gazebo/set_model_configuration": [
                        "/gazebo"
                    ],
                    "/gazebo/get_world_properties": [
                        "/gazebo"
                    ],
                    "/gazebo/delete_light": [
                        "/gazebo"
                    ],
                    "/gazebo/set_parameters": [
                        "/gazebo"
                    ],
                    "/twist_mux/get_loggers": [
                        "/twist_mux"
                    ],
                    "/gazebo/spawn_sdf_model": [
                        "/gazebo"
                    ],
                    "/ekf_localization/set_logger_level": [
                        "/ekf_localization"
                    ],
                    "/gazebo/set_model_state": [
                        "/gazebo"
                    ],
                    "/gazebo/unpause_physics": [
                        "/gazebo"
                    ],
                    "/controller_spawner/set_logger_level": [
                        "/controller_spawner"
                    ],
                    "/controller_manager/load_controller": [
                        "/gazebo"
                    ],
                    "/ekf_localization/get_loggers": [
                        "/ekf_localization"
                    ],
                    "/gazebo/get_loggers": [
                        "/gazebo"
                    ],
                    "/controller_manager/unload_controller": [
                        "/gazebo"
                    ],
                    "/rosout/set_logger_level": [
                        "/rosout"
                    ],
                    "/gazebo/get_light_properties": [
                        "/gazebo"
                    ],
                    "/gazebo/clear_body_wrenches": [
                        "/gazebo"
                    ],
                    "/gazebo/pause_physics": [
                        "/gazebo"
                    ],
                    "/controller_manager/switch_controller": [
                        "/gazebo"
                    ],
                    "/simulation_wrapper/set_logger_level": [
                        "/simulation_wrapper"
                    ],
                    "/gazebo/set_physics_properties": [
                        "/gazebo"
                    ],
                    "/gazebo/set_light_properties": [
                        "/gazebo"
                    ],
                    "/controller_manager/list_controller_types": [
                        "/gazebo"
                    ],
                    "/gazebo/reset_simulation": [
                        "/gazebo"
                    ],
                    "/gazebo/delete_model": [
                        "/gazebo"
                    ],
                    "/controller_manager/list_controllers": [
                        "/gazebo"
                    ],
                    "/simulation_wrapper/get_loggers": [
                        "/simulation_wrapper"
                    ],
                    "/gazebo/spawn_urdf_model": [
                        "/gazebo"
                    ],
                    "/twist_marker_server/get_loggers": [
                        "/twist_marker_server"
                    ],
                    "/set_pose": [
                        "/ekf_localization"
                    ],
                    "/gazebo/set_link_properties": [
                        "/gazebo"
                    ],
                    "/gazebo/get_joint_properties": [
                        "/gazebo"
                    ],
                    "/gazebo/apply_body_wrench": [
                        "/gazebo"
                    ],
                    "/controller_manager/reload_controller_libraries": [
                        "/gazebo"
                    ],
                    "/twist_mux/set_logger_level": [
                        "/twist_mux"
                    ],
                    "/rosout/get_loggers": [
                        "/rosout"
                    ],
                    "/gazebo/get_link_properties": [
                        "/gazebo"
                    ],
                    "/gazebo/get_model_state": [
                        "/gazebo"
                    ],
                    "/gazebo/clear_joint_forces": [
                        "/gazebo"
                    ],
                    "/controller_spawner/get_loggers": [
                        "/controller_spawner"
                    ],
                    "/gazebo/get_model_properties": [
                        "/gazebo"
                    ]
                }
            }
        }
    },
    "rosdescription": {
        "port": "11311",
        "type": "xmlrpc",
        "method": "rosdescription",
        "arg": "/robot_description",
        "status": "ok",
        "timestamp": 1513765046,
        "response": {
            "status_code": 1,
            "status_message": "Parameter [/robot_description]",
            "param": "<SEE EXTERNAL_FILE>"
        }
    },
    "query_stats": {
        "param_count": 59,
        "publisher_count": 18,
        "subscriber_count": 18,
        "service_count": 49,
        "term_count": 138,
        "alphaterm_count": 138,
        "topic_count": 79,
        "has_description": true,
        "description_name": "husky_robot",
        "is_ros": true,
        "roscore_version": "1.12",
        "ros_version_name": "kinetic",
        "missing_term_data": false,
        "roslaunch_machine_hostnames": [
            "the_white_case"
        ],
        "has_hostname": true,
        "machine_hostname": "the_white_case"
    },
    "search_info": {
        "count_control": 0,
        "count_simulators": 2,
        "count_sensors": 4,
        "count_actuators": 3,
        "count_other": 1,
        "count_robot_types": 0,
        "count_targets": 0,
        "total_query_hits": 10
    },
    "search_stats": {
        "control": {},
        "simulators": {
            "sim_any": {
                "param": "not",
                "hit": true,
                "children": [
                    {
                        "param": "and",
                        "hit": false,
                        "children": [
                            {
                                "param": "not",
                                "hit": false,
                                "children": [
                                    {
                                        "param": "gazebo",
                                        "hit": true,
                                        "count": 35,
                                        "matches": [
                                            "/gazebo/set_logger_level",
                                            "/gazebo/get_world_properties",
                                            "/gazebo/reset_world",
                                            "/gazebo/get_model_state",
                                            "/gazebo/model_states",
                                            "/gazebo/clear_body_wrenches",
                                            "/gazebo/set_light_properties",
                                            "/gazebo/clear_joint_forces",
                                            "/gazebo/set_link_properties",
                                            "/gazebo/get_loggers",
                                            "/gazebo",
                                            "/gazebo/set_model_configuration",
                                            "/gazebo/get_link_state",
                                            "/gazebo/link_states",
                                            "/gazebo/get_joint_properties",
                                            "/gazebo/delete_model",
                                            "/gazebo/set_parameters",
                                            "/gazebo/set_physics_properties",
                                            "/gazebo/apply_joint_effort",
                                            "/gazebo/unpause_physics",
                                            "/gazebo/parameter_updates",
                                            "/gazebo/spawn_sdf_model",
                                            "/gazebo/pause_physics",
                                            "/gazebo/set_joint_properties",
                                            "/gazebo/set_model_state",
                                            "/gazebo/delete_light",
                                            "/gazebo/set_link_state",
                                            "/gazebo/get_light_properties",
                                            "/gazebo/get_link_properties",
                                            "/gazebo/reset_simulation",
                                            "/gazebo/parameter_descriptions",
                                            "/gazebo/get_physics_properties",
                                            "/gazebo/apply_body_wrench",
                                            "/gazebo/get_model_properties",
                                            "/gazebo/spawn_urdf_model"
                                        ]
                                    }
                                ]
                            },
                            {
                                "param": "not",
                                "hit": true,
                                "children": [
                                    {
                                        "param": "stageros",
                                        "hit": false,
                                        "count": 0,
                                        "matches": []
                                    }
                                ]
                            },
                            {
                                "param": "not",
                                "hit": true,
                                "children": [
                                    {
                                        "param": "simulator",
                                        "hit": false,
                                        "count": 0,
                                        "matches": []
                                    }
                                ]
                            },
                            {
                                "param": "not",
                                "hit": true,
                                "children": [
                                    {
                                        "param": "use_sim_time",
                                        "hit": false,
                                        "count": 0,
                                        "matches": []
                                    }
                                ]
                            },
                            {
                                "param": "not",
                                "hit": true,
                                "children": [
                                    {
                                        "param": "torcs_ros",
                                        "hit": false,
                                        "count": 0,
                                        "matches": []
                                    }
                                ]
                            },
                            {
                                "param": "not",
                                "hit": true,
                                "children": [
                                    {
                                        "param": "unity",
                                        "hit": false,
                                        "count": 0,
                                        "matches": []
                                    }
                                ]
                            },
                            {
                                "param": "not",
                                "hit": true,
                                "children": [
                                    {
                                        "param": "turtlesim",
                                        "hit": false,
                                        "count": 0,
                                        "matches": []
                                    }
                                ]
                            },
                            {
                                "param": "not",
                                "hit": true,
                                "children": [
                                    {
                                        "param": "dreamview",
                                        "hit": false,
                                        "count": 0,
                                        "matches": []
                                    }
                                ]
                            },
                            {
                                "param": "not",
                                "hit": true,
                                "children": [
                                    {
                                        "param": "videofile",
                                        "hit": false,
                                        "count": 0,
                                        "matches": []
                                    }
                                ]
                            },
                            {
                                "param": "not",
                                "hit": true,
                                "children": [
                                    {
                                        "param": "uwsim",
                                        "hit": false,
                                        "count": 0,
                                        "matches": []
                                    }
                                ]
                            },
                            {
                                "param": "not",
                                "hit": true,
                                "children": [
                                    {
                                        "param": "file_player",
                                        "hit": false,
                                        "count": 0,
                                        "matches": []
                                    }
                                ]
                            }
                        ]
                    }
                ]
            },
            "sim_gazebo": {
                "param": "gazebo",
                "hit": true,
                "count": 35,
                "matches": [
                    "/gazebo/set_logger_level",
                    "/gazebo/get_world_properties",
                    "/gazebo/reset_world",
                    "/gazebo/get_model_state",
                    "/gazebo/model_states",
                    "/gazebo/clear_body_wrenches",
                    "/gazebo/set_light_properties",
                    "/gazebo/clear_joint_forces",
                    "/gazebo/set_link_properties",
                    "/gazebo/get_loggers",
                    "/gazebo",
                    "/gazebo/set_model_configuration",
                    "/gazebo/get_link_state",
                    "/gazebo/link_states",
                    "/gazebo/get_joint_properties",
                    "/gazebo/delete_model",
                    "/gazebo/set_parameters",
                    "/gazebo/set_physics_properties",
                    "/gazebo/apply_joint_effort",
                    "/gazebo/unpause_physics",
                    "/gazebo/parameter_updates",
                    "/gazebo/spawn_sdf_model",
                    "/gazebo/pause_physics",
                    "/gazebo/set_joint_properties",
                    "/gazebo/set_model_state",
                    "/gazebo/delete_light",
                    "/gazebo/set_link_state",
                    "/gazebo/get_light_properties",
                    "/gazebo/get_link_properties",
                    "/gazebo/reset_simulation",
                    "/gazebo/parameter_descriptions",
                    "/gazebo/get_physics_properties",
                    "/gazebo/apply_body_wrench",
                    "/gazebo/get_model_properties",
                    "/gazebo/spawn_urdf_model"
                ]
            }
        },
        "sensors": {
            "imu": {
                "param": "imu",
                "hit": true,
                "count": 1,
                "matches": [
                    "/imu/data"
                ]
            },
            "lidar": {
                "param": "or",
                "hit": true,
                "children": [
                    {
                        "param": "lidar",
                        "hit": false,
                        "count": 0,
                        "matches": []
                    },
                    {
                        "param": "hokuyo",
                        "hit": false,
                        "count": 0,
                        "matches": []
                    },
                    {
                        "param": "scan",
                        "hit": true,
                        "count": 1,
                        "matches": [
                            "/scan"
                        ]
                    },
                    {
                        "param": "lms511",
                        "hit": false,
                        "count": 0,
                        "matches": []
                    },
                    {
                        "param": "laser_points_pc2",
                        "hit": false,
                        "count": 0,
                        "matches": []
                    }
                ]
            },
            "odometry": {
                "param": "odom",
                "hit": true,
                "count": 1,
                "matches": [
                    "/husky_velocity_controller/odom"
                ]
            },
            "joystick": {
                "param": "or",
                "hit": true,
                "children": [
                    {
                        "param": "joy",
                        "hit": true,
                        "count": 1,
                        "matches": [
                            "/joy_teleop/cmd_vel"
                        ]
                    },
                    {
                        "param": "joystick",
                        "hit": false,
                        "count": 0,
                        "matches": []
                    }
                ]
            }
        },
        "actuators": {
            "cmd_vel": {
                "param": "cmd_vel",
                "hit": true,
                "count": 5,
                "matches": [
                    "/husky_velocity_controller/cmd_vel",
                    "/cmd_vel",
                    "/twist_marker_server/cmd_vel",
                    "/platform_control/cmd_vel",
                    "/joy_teleop/cmd_vel"
                ]
            },
            "lights": {
                "param": "or",
                "hit": true,
                "children": [
                    {
                        "param": "set_light",
                        "hit": true,
                        "count": 1,
                        "matches": [
                            "/gazebo/set_light_properties"
                        ]
                    },
                    {
                        "param": "set_lights",
                        "hit": false,
                        "count": 0,
                        "matches": []
                    },
                    {
                        "param": "set_red_level",
                        "hit": false,
                        "count": 0,
                        "matches": []
                    }
                ]
            },
            "e_stop": {
                "param": "or",
                "hit": true,
                "children": [
                    {
                        "param": "e_stop",
                        "hit": true,
                        "count": 1,
                        "matches": [
                            "/e_stop"
                        ]
                    },
                    {
                        "param": "emergency_stop",
                        "hit": false,
                        "count": 0,
                        "matches": []
                    }
                ]
            }
        },
        "other": {
            "transform": {
                "param": "or",
                "hit": true,
                "children": [
                    {
                        "param": "tf",
                        "hit": true,
                        "count": 2,
                        "matches": [
                            "/tf",
                            "/tf_static"
                        ]
                    },
                    {
                        "param": "tf_static",
                        "hit": true,
                        "count": 1,
                        "matches": [
                            "/tf_static"
                        ]
                    }
                ]
            }
        },
        "robot_types": {},
        "targets": {}
    },
    "inferred_results": {
        "identified_robot": false,
        "only_sim": true,
        "likely_empty": false,
        "only_sensors": false,
        "only_actuators": false,
        "only_services": false,
        "needs_more_info": false,
        "confirmed_ros": true,
        "total_hosts": false,
        "is_unconnectable": false,
        "search_hit_sim": true,
        "has_sensor": true,
        "has_actuator": true,
        "has_hostname": true,
        "missing_term_data": false,
        "has_description": true,
        "has_descr_name": true,
        "has_search_hits": true,
        "manually_tagged": false,
        "search_hit_gazebo": true,
        "likely_non_robot": true
    }
}
