category	search	robot_count	other_count
sensors	camera_all	3	16
sensors	camera_nofake	3	17
sensors	camera_depth	2	7
sensors	camera_rgb	2	1
sensors	camera_stereo	0	1
sensors	kinect	0	1
sensors	imu	2	12
sensors	gyro	1	1
sensors	lidar	1	4
sensors	motion_capture	0	0
sensors	barometer	1	0
sensors	compass	0	0
sensors	odometry	1	7
sensors	altimeter	0	0
sensors	bumper	0	1
sensors	biotac	0	0
sensors	velodyne	0	1
sensors	point_cloud	0	3
sensors	radar	1	0
sensors	gps_nofake	0	4
sensors	gps_all	1	4
sensors	battery	2	0
actuators	wheels	0	6
actuators	arm_topics	0	3
actuators	joint_trajectory	0	3
actuators	joint_trajectory_goal	0	0
actuators	trajectory_controller	0	1
actuators	action_controller	0	0
actuators	gripper	2	3
actuators	gripper_goal	0	1
actuators	flipper	0	5
actuators	sound_play	0	0
actuators	joystick	0	5
actuators	mouse	0	0
actuators	heartbeat	2	1
actuators	transform	3	10
actuators	alexa	0	0
actuators	voice	0	0
actuators	move_base_simple	0	4
actuators	flystate2phidgetsanalog	0	1
actuators	command_joint_position	2	0
actuators	MotorCommand	0	0
actuators	inceptor_command	1	0
actuators	SendJointTrajectory	0	0
actuators	neck	0	0
actuators	head	2	4
actuators	leg	0	0
actuators	torso	2	3
actuators	arm	2	3
actuators	joint_states	2	14
actuators	move_base_sample	0	0
actuators	e_stop	0	0
actuators	yaw_goal	0	0
actuators	roll_goal	0	0
actuators	velocity_commands	0	0
actuators	follow_command	0	0
actuators	set_movement	0	0
actuators	set_servo	0	0
simulators	sim_sim	1	8
simulators	sim_fake	0	2
simulators	use_sim_time	0	6
simulators	sim_any	0	16
simulators	file_player	0	0
simulators	turtlesim	0	1
robot_types	baxter_all	2	2
robot_types	baxter_topics	2	2
robot_types	pr2	0	1
robot_types	wam	0	0
robot_types	turtlebot_all	0	1
robot_types	turtlebot_nosim	0	1
robot_types	rethink	1	0
robot_types	abb	0	0
other	rosbridge	2	2
other	sim_gazebo	0	13
other	rviz	1	7
other	unity	0	0
other	moveit	0	2
other	openrave	0	1
other	fiducial	0	0
other	ros_tutorials	0	1
targets	car	0	1
targets	boat	0	0
targets	drone	0	0
targets	vehicle	1	2
targets	uav	0	0
targets	mav	0	0
targets	flight	1	0
targets	explore	0	1
targets	planning	2	11
targets	collision	2	4
targets	map	1	5
targets	android	0	0
