{
    "ip": "138.100.71.35",
    "dns.hostname": "",
    "dns.authority": "sanjose.etsii.upm.es. hostmaster.etsii.upm.es. 2017112401 10800 3600 604800 38400",
    "geoip.country": "Spain",
    "geoip.country_code": "ES",
    "geoip.specific_name": "Madrid",
    "geoip.specific_name_code": "M",
    "geoip.latitude": 40.4167,
    "geoip.longitude": -3.6837999999999997,
    "geoip.as_number": 766,
    "geoip.as_organization": "Entidad Publica Empresarial Red.es",
    "shodan.ports": "",
    "shodan.tags": "",
    "rosversion": {
        "port": "11311",
        "type": "xmlrpc",
        "method": "rosversion",
        "arg": "/rosversion",
        "status": "ok",
        "timestamp": 1515184261,
        "response": {
            "status_code": 1,
            "status_message": "Parameter [/rosversion]",
            "param": "1.12.7\n"
        }
    },
    "rosparamnames": {
        "port": "11311",
        "type": "xmlrpc",
        "method": "rosparamnames",
        "arg": "",
        "status": "ok",
        "timestamp": 1515184263,
        "response": {
            "status_code": 1,
            "status_message": "Parameter names",
            "paramNames": [
                "/roslaunch/uris/host_localhost__41621",
                "/roslaunch/uris/host_localhost__41969",
                "/roslaunch/uris/host_localhost__36327",
                "/roslaunch/uris/host_localhost__39539",
                "/roslaunch/uris/host_localhost__39707",
                "/roslaunch/uris/host_localhost__36345",
                "/roslaunch/uris/host_pumpkin__36375",
                "/roslaunch/uris/host_pumpkin__38721",
                "/roslaunch/uris/host_localhost__36895",
                "/roslaunch/uris/host_localhost__39041",
                "/roslaunch/uris/host_pumpkin__36419",
                "/roslaunch/uris/host_localhost__42589",
                "/roslaunch/uris/host_localhost__37929",
                "/roslaunch/uris/host_localhost__33449",
                "/roslaunch/uris/host_pumpkin__41383",
                "/roslaunch/uris/host_localhost__44397",
                "/roslaunch/uris/host_localhost__36175",
                "/roslaunch/uris/host_localhost__34777",
                "/roslaunch/uris/host_pumpkin__45247",
                "/roslaunch/uris/host_localhost__36063",
                "/roslaunch/uris/host_localhost__34755",
                "/roslaunch/uris/host_localhost__43035",
                "/roslaunch/uris/host_localhost__36151",
                "/hummingbird1/camera_bottom/image_raw/compressedDepth/depth_max",
                "/hummingbird1/camera_bottom/image_raw/compressedDepth/png_level",
                "/hummingbird1/camera_bottom/image_raw/compressedDepth/depth_quantization",
                "/hummingbird1/camera_bottom/image_raw/compressed/png_level",
                "/hummingbird1/camera_bottom/image_raw/compressed/jpeg_quality",
                "/hummingbird1/camera_bottom/image_raw/compressed/format",
                "/hummingbird1/camera_bottom/image_raw/theora/optimize_for",
                "/hummingbird1/camera_bottom/image_raw/theora/target_bitrate",
                "/hummingbird1/camera_bottom/image_raw/theora/quality",
                "/hummingbird1/camera_bottom/image_raw/theora/keyframe_frequency",
                "/hummingbird1/camera_bottom/imager_rate",
                "/hummingbird1/roll_pitch_yawrate_thrust_controller_node/mass",
                "/hummingbird1/roll_pitch_yawrate_thrust_controller_node/rotor_configuration/1/direction",
                "/hummingbird1/roll_pitch_yawrate_thrust_controller_node/rotor_configuration/1/rotor_moment_constant",
                "/hummingbird1/roll_pitch_yawrate_thrust_controller_node/rotor_configuration/1/angle",
                "/hummingbird1/roll_pitch_yawrate_thrust_controller_node/rotor_configuration/1/rotor_force_constant",
                "/hummingbird1/roll_pitch_yawrate_thrust_controller_node/rotor_configuration/1/arm_length",
                "/hummingbird1/roll_pitch_yawrate_thrust_controller_node/rotor_configuration/0/rotor_force_constant",
                "/hummingbird1/roll_pitch_yawrate_thrust_controller_node/rotor_configuration/0/rotor_moment_constant",
                "/hummingbird1/roll_pitch_yawrate_thrust_controller_node/rotor_configuration/0/angle",
                "/hummingbird1/roll_pitch_yawrate_thrust_controller_node/rotor_configuration/0/direction",
                "/hummingbird1/roll_pitch_yawrate_thrust_controller_node/rotor_configuration/0/arm_length",
                "/hummingbird1/roll_pitch_yawrate_thrust_controller_node/rotor_configuration/3/direction",
                "/hummingbird1/roll_pitch_yawrate_thrust_controller_node/rotor_configuration/3/rotor_moment_constant",
                "/hummingbird1/roll_pitch_yawrate_thrust_controller_node/rotor_configuration/3/angle",
                "/hummingbird1/roll_pitch_yawrate_thrust_controller_node/rotor_configuration/3/rotor_force_constant",
                "/hummingbird1/roll_pitch_yawrate_thrust_controller_node/rotor_configuration/3/arm_length",
                "/hummingbird1/roll_pitch_yawrate_thrust_controller_node/rotor_configuration/2/direction",
                "/hummingbird1/roll_pitch_yawrate_thrust_controller_node/rotor_configuration/2/rotor_moment_constant",
                "/hummingbird1/roll_pitch_yawrate_thrust_controller_node/rotor_configuration/2/angle",
                "/hummingbird1/roll_pitch_yawrate_thrust_controller_node/rotor_configuration/2/rotor_force_constant",
                "/hummingbird1/roll_pitch_yawrate_thrust_controller_node/rotor_configuration/2/arm_length",
                "/hummingbird1/roll_pitch_yawrate_thrust_controller_node/inertia/xz",
                "/hummingbird1/roll_pitch_yawrate_thrust_controller_node/inertia/yz",
                "/hummingbird1/roll_pitch_yawrate_thrust_controller_node/inertia/yy",
                "/hummingbird1/roll_pitch_yawrate_thrust_controller_node/inertia/xx",
                "/hummingbird1/roll_pitch_yawrate_thrust_controller_node/inertia/xy",
                "/hummingbird1/roll_pitch_yawrate_thrust_controller_node/inertia/zz",
                "/hummingbird1/roll_pitch_yawrate_thrust_controller_node/angular_rate_gain/y",
                "/hummingbird1/roll_pitch_yawrate_thrust_controller_node/angular_rate_gain/x",
                "/hummingbird1/roll_pitch_yawrate_thrust_controller_node/angular_rate_gain/z",
                "/hummingbird1/roll_pitch_yawrate_thrust_controller_node/attitude_gain/y",
                "/hummingbird1/roll_pitch_yawrate_thrust_controller_node/attitude_gain/x",
                "/hummingbird1/roll_pitch_yawrate_thrust_controller_node/attitude_gain/z",
                "/hummingbird1/tf_prefix",
                "/hummingbird1/robot_description",
                "/gym_ddpg_chainer_agent/actor_networks_path",
                "/gym_ddpg_chainer_agent/exp_logger_path",
                "/gym_ddpg_chainer_agent/enable_iteration_flag",
                "/gym_ddpg_chainer_agent/num_episodes",
                "/gym_ddpg_chainer_agent/num_episodes_between_logs",
                "/gym_ddpg_chainer_agent/rl_boost_python_path",
                "/gym_ddpg_chainer_agent/rl_python_distpackages_path",
                "/gym_ddpg_chainer_agent/configs_path",
                "/gym_ddpg_chainer_agent/num_tests",
                "/gym_ddpg_chainer_agent/frecuency",
                "/rosversion",
                "/run_id",
                "/drone11/error_notification_topic",
                "/drone11/droneRotationAngles/droneId",
                "/drone11/droneRotationAngles/stackPath",
                "/drone11/droneRotationAngles/droneSwarmId",
                "/drone11/droneRotationAngles/mav_name",
                "/drone11/alive_signal_topic",
                "/drone11/RlEnvironmentGazeboRos/droneId",
                "/drone11/RlEnvironmentGazeboRos/reset_estimator",
                "/drone11/RlEnvironmentGazeboRos/position_refs",
                "/drone11/RlEnvironmentGazeboRos/environment_name",
                "/drone11/RlEnvironmentGazeboRos/stackPath",
                "/drone11/RlEnvironmentGazeboRos/laser_scan",
                "/drone11/RlEnvironmentGazeboRos/model_states",
                "/drone11/RlEnvironmentGazeboRos/set_model_state",
                "/drone11/RlEnvironmentGazeboRos/speed_refs",
                "/drone11/RlEnvironmentGazeboRos/esimtated_pose",
                "/drone11/RlEnvironmentGazeboRos/set_link_state",
                "/drone11/RlEnvironmentGazeboRos/env_state",
                "/drone11/droneTrajectoryController/drone_trajectory_controller_config_file",
                "/drone11/droneTrajectoryController/drone_command_dyaw_topic_name",
                "/drone11/droneTrajectoryController/drone_speed_reference_topic_name",
                "/drone11/droneTrajectoryController/drone_pbvs_estimated_rel_pose_topic_name",
                "/drone11/droneTrajectoryController/control_mode_topic_name",
                "/drone11/droneTrajectoryController/set_control_mode_service_name",
                "/drone11/droneTrajectoryController/drone_trajectory_abs_ref_topic_name",
                "/drone11/droneTrajectoryController/drone_yaw_ref_command_topic_name",
                "/drone11/droneTrajectoryController/drone_trajectory_rel_ref_topic_name",
                "/drone11/droneTrajectoryController/drone_position_ref_topic_name",
                "/drone11/droneTrajectoryController/drone_estimated_pose_topic_name",
                "/drone11/droneTrajectoryController/droneId",
                "/drone11/droneTrajectoryController/drone_trajectory_reference_topic_name",
                "/drone11/droneTrajectoryController/drone_command_daltitude_topic_name",
                "/drone11/droneTrajectoryController/drone_position_reference_topic_name",
                "/drone11/droneTrajectoryController/drone_speeds_ref_topic_name",
                "/drone11/droneTrajectoryController/drone_command_pitch_roll_topic_name",
                "/drone11/droneTrajectoryController/drone_estimated_speeds_topic_name",
                "/drone11/droneTrajectoryController/stackPath",
                "/drone11/droneTrajectoryController/drone_pbvs_altitude_ref_command_topic_name",
                "/drone11/droneMidLevelAutopilot/droneId",
                "/drone11/droneMidLevelAutopilot/config_file",
                "/drone11/droneMidLevelAutopilot/sensor_altitude_topic_name",
                "/drone11/droneMidLevelAutopilot/estimated_speeds_topic_name",
                "/drone11/droneMidLevelAutopilot/stackPath",
                "/drone11/droneMidLevelAutopilot/ground_speed_topic_name",
                "/drone11/droneMidLevelAutopilot/command_pitch_roll_topic_name",
                "/drone11/droneMidLevelAutopilot/command_dYaw_topic_name",
                "/drone11/droneMidLevelAutopilot/command_low_level_topic_name",
                "/drone11/droneMidLevelAutopilot/midlevel_status_topic_name",
                "/drone11/droneMidLevelAutopilot/command_high_level_topic_name",
                "/drone11/droneMidLevelAutopilot/command_dAltitude_topic_name",
                "/drone11/droneMidLevelAutopilot/rotation_angles_topic_name",
                "/drone11/processes_performance_topic",
                "/drone11/droneInterface/droneId",
                "/drone11/droneInterface/stackPath",
                "/drone11/drone_ip_address",
                "/drone11/droneOdometryStateEstimator/drone_command_dyaw_topic_name",
                "/drone11/droneOdometryStateEstimator/droneId",
                "/drone11/droneOdometryStateEstimator/drone_estimated_GMR_pose_topic_name",
                "/drone11/droneOdometryStateEstimator/drone_estimated_LMrT_pose_topic_name",
                "/drone11/droneOdometryStateEstimator/drone_estimated_GMR_speeds_topic_name",
                "/drone11/droneOdometryStateEstimator/drone_command_pitch_roll_topic_name",
                "/drone11/droneOdometryStateEstimator/drone_estimated_LMrT_speeds_topic_name",
                "/drone11/droneOdometryStateEstimator/stackPath",
                "/drone11/droneOdometryStateEstimator/drone_ekf_state_estimator_config_file",
                "/drone11/droneOdometryStateEstimator/drone_rotation_angles_topic_name",
                "/drone11/droneOdometryStateEstimator/set_drone_yaw_init_srv_name",
                "/drone11/droneOdometryStateEstimator/drone_command_daltitude_topic_name",
                "/drone11/droneOdometryStateEstimator/drone_altitude_topic_name",
                "/drone11/droneOdometryStateEstimator/drone_ground_optical_flow_topic_name",
                "/drone11/droneLocalPose/droneId",
                "/drone11/droneLocalPose/stackPath",
                "/drone11/droneLocalPose/droneSwarmId",
                "/drone11/droneLocalPose/mav_name",
                "/drone11/error_topic",
                "/drone11/droneManagerOfActions/config_file",
                "/drone11/droneManagerOfActions/droneId",
                "/drone11/droneManagerOfActions/stackPath",
                "/drone11/wifi_connection_topic",
                "/drone11/droneCommand/droneId",
                "/drone11/droneCommand/stackPath",
                "/drone11/droneCommand/droneSwarmId",
                "/drone11/droneCommand/mav_name",
                "/use_sim_time",
                "/rosdistro",
                "/gazebo/gravity_z",
                "/gazebo/cfm",
                "/gazebo/erp",
                "/gazebo/contact_max_correcting_vel",
                "/gazebo/sor_pgs_iters",
                "/gazebo/sor_pgs_precon_iters",
                "/gazebo/auto_disable_bodies",
                "/gazebo/sor_pgs_rms_error_tol",
                "/gazebo/contact_surface_layer",
                "/gazebo/max_update_rate",
                "/gazebo/gravity_x",
                "/gazebo/gravity_y",
                "/gazebo/time_step",
                "/gazebo/max_contacts",
                "/gazebo/sor_pgs_w"
            ]
        }
    },
    "rostopic": {
        "port": "11311",
        "type": "xmlrpc",
        "method": "rostopic",
        "arg": "/rosversion",
        "status": "ok",
        "timestamp": 1515184266,
        "response": {
            "status_code": 1,
            "status_message": "current system state",
            "system_state": {
                "publishers": {
                    "/drone11/ground_speed": [
                        "/drone11/droneLocalPose"
                    ],
                    "/hummingbird1/camera_bottom/image_raw": [
                        "/gazebo"
                    ],
                    "/drone11/dronePositionRefs": [
                        "/drone11/droneManagerOfActions",
                        "/drone11/droneInterface",
                        "/drone11/RlEnvironmentGazeboRos"
                    ],
                    "/hummingbird1/camera_bottom/image_raw/compressedDepth/parameter_descriptions": [
                        "/gazebo"
                    ],
                    "/hummingbird1/motor_speed/2": [
                        "/gazebo"
                    ],
                    "/hummingbird1/motor_speed/3": [
                        "/gazebo"
                    ],
                    "/hummingbird1/motor_speed": [
                        "/gazebo"
                    ],
                    "/hummingbird1/motor_speed/1": [
                        "/gazebo"
                    ],
                    "/drone11/trajectoryControllerPositionReferencesRebroadcast": [
                        "/drone11/droneTrajectoryController"
                    ],
                    "/tf": [
                        "/hummingbird1/robot_state_publisher",
                        "/gazebo"
                    ],
                    "/drone11/EstimatedPose_droneGMR_wrt_GFF": [
                        "/drone11/droneOdometryStateEstimator"
                    ],
                    "/hummingbird1/ground_truth/pose": [
                        "/gazebo"
                    ],
                    "/drone11/droneMissionHLCommandAck": [
                        "/drone11/droneManagerOfActions"
                    ],
                    "/hummingbird1/camera_bottom/parameter_updates": [
                        "/gazebo"
                    ],
                    "/drone11/SOEstimatedSpeeds": [
                        "/drone11/droneOdometryStateEstimator"
                    ],
                    "/hummingbird1/gazebo/command/motor_speed": [
                        "/gazebo"
                    ],
                    "/drone11/command/low_level": [
                        "/drone11/droneMidLevelAutopilot"
                    ],
                    "/drone11/droneSpeedsRefs": [
                        "/drone11/droneInterface",
                        "/drone11/RlEnvironmentGazeboRos"
                    ],
                    "/hummingbird1/ground_truth/imu": [
                        "/gazebo"
                    ],
                    "/drone11/imu": [
                        "/drone11/droneRotationAngles"
                    ],
                    "/drone11/SOEstimatedPose": [
                        "/drone11/droneOdometryStateEstimator"
                    ],
                    "/drone11/status": [
                        "/drone11/droneMidLevelAutopilot"
                    ],
                    "/hummingbird1/ground_truth/pose_with_covariance": [
                        "/gazebo"
                    ],
                    "/drone11/scan": [
                        "/gazebo"
                    ],
                    "/hummingbird1/camera_bottom/image_raw/compressed/parameter_descriptions": [
                        "/gazebo"
                    ],
                    "/drone11/altitude": [
                        "/drone11/droneLocalPose"
                    ],
                    "/hummingbird1/odometry_sensor1/odometry": [
                        "/gazebo"
                    ],
                    "/drone11/gazebo_estimated_pose": [
                        "/drone11/droneLocalPose"
                    ],
                    "/drone11/rotation_angles": [
                        "/drone11/droneRotationAngles"
                    ],
                    "/tf_static": [
                        "/hummingbird1/robot_state_publisher"
                    ],
                    "/gazebo/parameter_descriptions": [
                        "/gazebo"
                    ],
                    "/drone11/wifiIsOk": [
                        "/drone11/process_monitor_process_main"
                    ],
                    "/hummingbird1/joint_states": [
                        "/hummingbird1/joint_state_publisher",
                        "/gazebo"
                    ],
                    "/hummingbird1/camera_bottom/image_raw/theora": [
                        "/gazebo"
                    ],
                    "/drone11/droneTrajectoryController/controlMode": [
                        "/drone11/droneTrajectoryController"
                    ],
                    "/drone11/rotation_angles_radians": [
                        "/drone11/droneRotationAngles"
                    ],
                    "/hummingbird1/ground_truth/odometry": [
                        "/gazebo"
                    ],
                    "/hummingbird1/motor_speed/0": [
                        "/gazebo"
                    ],
                    "/drone11/command/dAltitude": [
                        "/drone11/droneManagerOfActions",
                        "/drone11/droneTrajectoryController",
                        "/drone11/droneInterface"
                    ],
                    "/drone11/command/pitch_roll": [
                        "/drone11/droneManagerOfActions",
                        "/drone11/droneTrajectoryController",
                        "/drone11/droneInterface"
                    ],
                    "/hummingbird1/camera_bottom/camera_info": [
                        "/gazebo"
                    ],
                    "/drone11/gazebo_estimated_speed": [
                        "/drone11/droneLocalPose"
                    ],
                    "/hummingbird1/odometry_sensor1/transform": [
                        "/gazebo"
                    ],
                    "/rosout": [
                        "/hummingbird1/robot_state_publisher",
                        "/gazebo",
                        "/hummingbird1/roll_pitch_yawrate_thrust_controller_node",
                        "/hummingbird1/joint_state_publisher",
                        "/drone11/droneMidLevelAutopilot",
                        "/drone11/droneOdometryStateEstimator",
                        "/drone11/droneTrajectoryController",
                        "/drone11/process_monitor_process_main",
                        "/drone11/droneRotationAngles",
                        "/drone11/droneCommand",
                        "/drone11/droneLocalPose",
                        "/drone11/droneManagerOfActions",
                        "/drone11/droneInterface",
                        "/drone11/RlEnvironmentGazeboRos",
                        "/gym_ddpg_chainer_agent"
                    ],
                    "/drone11/processes_performance": [
                        "/drone11/process_monitor_process_main"
                    ],
                    "/hummingbird1/odometry_sensor1/pose_with_covariance": [
                        "/gazebo"
                    ],
                    "/drone11/droneTrajectoryAbsRefCommand": [
                        "/drone11/droneInterface"
                    ],
                    "/drone11/droneManagerStateDoContinue": [
                        "/drone11/droneManagerOfActions"
                    ],
                    "/drone11/eventString": [
                        "/drone11/droneOdometryStateEstimator",
                        "/drone11/droneTrajectoryController"
                    ],
                    "/rosout_agg": [
                        "/rosout"
                    ],
                    "/drone11/trajectoryControllerSpeedReferencesRebroadcast": [
                        "/drone11/droneTrajectoryController"
                    ],
                    "/drone11/command/dYaw": [
                        "/drone11/droneManagerOfActions",
                        "/drone11/droneTrajectoryController",
                        "/drone11/droneInterface"
                    ],
                    "/hummingbird1/camera_bottom/image_raw/theora/parameter_descriptions": [
                        "/gazebo"
                    ],
                    "/hummingbird1/ground_truth/transform": [
                        "/gazebo"
                    ],
                    "/hummingbird1/camera_bottom/image_raw/compressed": [
                        "/gazebo"
                    ],
                    "/drone11/droneTrajectoryRefCommand": [
                        "/drone11/droneInterface"
                    ],
                    "/hummingbird1/camera_bottom/image_raw/compressedDepth/parameter_updates": [
                        "/gazebo"
                    ],
                    "/drone11/droneControllerYawRefCommand": [
                        "/drone11/droneManagerOfActions",
                        "/drone11/droneInterface"
                    ],
                    "/hummingbird1/odometry_sensor1/position": [
                        "/gazebo"
                    ],
                    "/hummingbird1/camera_bottom/image_raw/compressedDepth": [
                        "/gazebo"
                    ],
                    "/hummingbird1/odometry_sensor1/pose": [
                        "/gazebo"
                    ],
                    "/hummingbird1/camera_bottom/image_raw/compressed/parameter_updates": [
                        "/gazebo"
                    ],
                    "/gazebo/link_states": [
                        "/gazebo"
                    ],
                    "/hummingbird1/command/motor_speed": [
                        "/hummingbird1/roll_pitch_yawrate_thrust_controller_node"
                    ],
                    "/hummingbird1/camera_bottom/image_raw/theora/parameter_updates": [
                        "/gazebo"
                    ],
                    "/drone11/droneManagerStatus": [
                        "/drone11/droneManagerOfActions"
                    ],
                    "/gazebo/model_states": [
                        "/gazebo"
                    ],
                    "/clock": [
                        "/gazebo"
                    ],
                    "/drone11/trajectoryControllerTrajectoryReferencesRebroadcast": [
                        "/drone11/droneTrajectoryController"
                    ],
                    "/drone11/EstimatedSpeed_droneGMR_wrt_GFF": [
                        "/drone11/droneOdometryStateEstimator"
                    ],
                    "/hummingbird1/command/roll_pitch_yawrate_thrust": [
                        "/drone11/droneCommand"
                    ],
                    "/drone11/process_error_unified_notification": [
                        "/drone11/process_monitor_process_main"
                    ],
                    "/hummingbird1/imu": [
                        "/gazebo"
                    ],
                    "/drone11/command/high_level": [
                        "/drone11/droneManagerOfActions",
                        "/drone11/droneInterface"
                    ],
                    "/hummingbird1/ground_truth/position": [
                        "/gazebo"
                    ],
                    "/drone11/process_alive_signal": [
                        "/drone11/droneMidLevelAutopilot",
                        "/drone11/droneTrajectoryController",
                        "/drone11/droneCommand",
                        "/drone11/droneRotationAngles",
                        "/drone11/droneLocalPose",
                        "/drone11/droneManagerOfActions",
                        "/drone11/droneOdometryStateEstimator",
                        "/drone11/droneInterface"
                    ],
                    "/hummingbird1/camera_bottom/parameter_descriptions": [
                        "/gazebo"
                    ],
                    "/gazebo/parameter_updates": [
                        "/gazebo"
                    ]
                },
                "subscribers": {
                    "/drone11/trajectoryControllerPositionReferencesRebroadcast": [
                        "/drone11/droneInterface"
                    ],
                    "/drone11/ArucoSlam_EstimatedPose": [
                        "/drone11/droneInterface"
                    ],
                    "/drone11/droneSpeedsRefs": [
                        "/drone11/droneTrajectoryController"
                    ],
                    "/drone11/controller_image_features": [
                        "/drone11/droneInterface"
                    ],
                    "/gazebo/set_link_state": [
                        "/gazebo"
                    ],
                    "/drone11/command_PBVS/Altitude": [
                        "/drone11/droneTrajectoryController"
                    ],
                    "/drone11/command/low_level": [
                        "/drone11/droneCommand"
                    ],
                    "/drone11/command/high_level": [
                        "/drone11/droneMidLevelAutopilot",
                        "/drone11/droneInterface"
                    ],
                    "/drone11/tracking_object": [
                        "/drone11/droneInterface"
                    ],
                    "/drone11/ArucoSlam_EstimatedSpeeds": [
                        "/drone11/droneInterface"
                    ],
                    "/drone11/magnetometer": [
                        "/drone11/droneInterface"
                    ],
                    "/drone11/SOEstimatedSpeeds": [
                        "/drone11/droneInterface"
                    ],
                    "/hummingbird1/gazebo/command/motor_speed": [
                        "/gazebo"
                    ],
                    "/drone11/get_bounding_box": [
                        "/drone11/droneInterface"
                    ],
                    "/drone11/trajectoryControllerTrajectoryReferencesRebroadcast": [
                        "/drone11/droneInterface"
                    ],
                    "/drone11/camera/front/image_raw": [
                        "/drone11/droneInterface"
                    ],
                    "/drone11/rotation_angles": [
                        "/drone11/droneMidLevelAutopilot",
                        "/drone11/droneCommand",
                        "/drone11/droneOdometryStateEstimator",
                        "/drone11/droneInterface",
                        "/drone11/droneManagerOfActions"
                    ],
                    "/drone11/self_detected_process_error": [
                        "/drone11/process_monitor_process_main"
                    ],
                    "/drone11/droneTrajectoryRefCommand": [
                        "/drone11/droneTrajectoryController"
                    ],
                    "/drone11/altitude": [
                        "/drone11/droneMidLevelAutopilot",
                        "/drone11/droneOdometryStateEstimator",
                        "/drone11/droneInterface"
                    ],
                    "/drone11/SOEstimatedPose": [
                        "/drone11/droneInterface"
                    ],
                    "/drone11/controller_image_features_feedback": [
                        "/drone11/droneInterface"
                    ],
                    "/drone11/EstimatedPose_droneGMR_wrt_GFF": [
                        "/drone11/droneCommand",
                        "/drone11/droneManagerOfActions",
                        "/drone11/droneTrajectoryController",
                        "/drone11/droneInterface",
                        "/drone11/RlEnvironmentGazeboRos"
                    ],
                    "/drone11/imu": [
                        "/drone11/droneInterface"
                    ],
                    "/drone11/odometry/filtered": [
                        "/drone11/droneCommand"
                    ],
                    "/drone11/command/pitch_roll": [
                        "/drone11/droneMidLevelAutopilot",
                        "/drone11/droneOdometryStateEstimator",
                        "/drone11/droneInterface"
                    ],
                    "/hummingbird1/joint_states": [
                        "/hummingbird1/robot_state_publisher"
                    ],
                    "/drone11/droneTrajectoryController/controlMode": [
                        "/drone11/droneInterface"
                    ],
                    "/hummingbird1/odometry_sensor1/odometry": [
                        "/hummingbird1/roll_pitch_yawrate_thrust_controller_node",
                        "/drone11/droneLocalPose"
                    ],
                    "/drone11/command/dAltitude": [
                        "/drone11/droneMidLevelAutopilot",
                        "/drone11/droneOdometryStateEstimator",
                        "/drone11/droneInterface"
                    ],
                    "/drone11/EstimatedPose_iRobotGMR_wrt_droneGMR": [
                        "/drone11/droneTrajectoryController"
                    ],
                    "/rosout": [
                        "/rosout"
                    ],
                    "/drone11/scan": [
                        "/drone11/RlEnvironmentGazeboRos"
                    ],
                    "/drone11/command/dYaw": [
                        "/drone11/droneMidLevelAutopilot",
                        "/drone11/droneOdometryStateEstimator",
                        "/drone11/droneInterface"
                    ],
                    "/drone11/droneControllerYawRefCommand": [
                        "/drone11/droneCommand",
                        "/drone11/droneTrajectoryController"
                    ],
                    "/drone11/droneTrajectoryAbsRefCommand": [
                        "/drone11/droneTrajectoryController"
                    ],
                    "/drone11/droneManagerStateDoContinue": [
                        "/drone11/droneManagerOfActions"
                    ],
                    "/drone11/battery": [
                        "/drone11/droneCommand",
                        "/drone11/droneInterface",
                        "/drone11/droneManagerOfActions"
                    ],
                    "/drone11/trajectoryControllerSpeedReferencesRebroadcast": [
                        "/drone11/droneInterface"
                    ],
                    "/drone11/status": [
                        "/drone11/droneManagerOfActions",
                        "/drone11/droneInterface"
                    ],
                    "/hummingbird1/wind_speed": [
                        "/gazebo"
                    ],
                    "/gazebo/set_model_state": [
                        "/gazebo"
                    ],
                    "/drone11/wifiIsOk": [
                        "/drone11/droneManagerOfActions"
                    ],
                    "/hummingbird1/command/motor_speed": [
                        "/gazebo"
                    ],
                    "/drone11/ground_speed": [
                        "/drone11/droneMidLevelAutopilot",
                        "/drone11/droneOdometryStateEstimator",
                        "/drone11/droneInterface"
                    ],
                    "/gazebo/model_states": [
                        "/drone11/RlEnvironmentGazeboRos"
                    ],
                    "/clock": [
                        "/hummingbird1/robot_state_publisher",
                        "/gazebo",
                        "/hummingbird1/roll_pitch_yawrate_thrust_controller_node",
                        "/hummingbird1/joint_state_publisher",
                        "/drone11/droneMidLevelAutopilot",
                        "/drone11/droneOdometryStateEstimator",
                        "/drone11/droneTrajectoryController",
                        "/drone11/process_monitor_process_main",
                        "/drone11/droneCommand",
                        "/drone11/droneRotationAngles",
                        "/drone11/droneLocalPose",
                        "/drone11/droneManagerOfActions",
                        "/drone11/droneInterface",
                        "/drone11/RlEnvironmentGazeboRos",
                        "/gym_ddpg_chainer_agent"
                    ],
                    "/drone11/is_object_on_frame": [
                        "/drone11/droneManagerOfActions",
                        "/drone11/droneInterface"
                    ],
                    "/drone11/EstimatedSpeed_droneGMR_wrt_GFF": [
                        "/drone11/droneMidLevelAutopilot",
                        "/drone11/droneTrajectoryController",
                        "/drone11/droneInterface"
                    ],
                    "/drone11/droneMissionPlannerCommand": [
                        "/drone11/droneManagerOfActions"
                    ],
                    "/hummingbird1/command/roll_pitch_yawrate_thrust": [
                        "/hummingbird1/roll_pitch_yawrate_thrust_controller_node"
                    ],
                    "/hummingbird1/imu": [
                        "/drone11/droneRotationAngles"
                    ],
                    "/drone11/process_alive_signal": [
                        "/drone11/process_monitor_process_main",
                        "/drone11/droneInterface"
                    ],
                    "/drone11/dronePositionRefs": [
                        "/drone11/droneTrajectoryController"
                    ]
                },
                "services": {
                    "/gazebo/apply_joint_effort": [
                        "/gazebo"
                    ],
                    "/gazebo/get_physics_properties": [
                        "/gazebo"
                    ],
                    "/drone11/droneTrajectoryController/setControlMode": [
                        "/drone11/droneTrajectoryController"
                    ],
                    "/drone11/droneManagerOfActions/reset": [
                        "/drone11/droneManagerOfActions"
                    ],
                    "/drone11/droneOdometryStateEstimator/reset": [
                        "/drone11/droneOdometryStateEstimator"
                    ],
                    "/hummingbird1/camera_bottom/image_raw/compressedDepth/set_parameters": [
                        "/gazebo"
                    ],
                    "/gazebo/reset_world": [
                        "/gazebo"
                    ],
                    "/hummingbird1/roll_pitch_yawrate_thrust_controller_node/get_loggers": [
                        "/hummingbird1/roll_pitch_yawrate_thrust_controller_node"
                    ],
                    "/hummingbird1/camera_bottom/image_raw/theora/set_parameters": [
                        "/gazebo"
                    ],
                    "/drone11/droneManagerOfActions/get_loggers": [
                        "/drone11/droneManagerOfActions"
                    ],
                    "/drone11/RlEnvironmentGazeboRos/get_loggers": [
                        "/drone11/RlEnvironmentGazeboRos"
                    ],
                    "/drone11/droneMidLevelAutopilot/reset": [
                        "/drone11/droneMidLevelAutopilot"
                    ],
                    "/gazebo/clear_body_wrenches": [
                        "/gazebo"
                    ],
                    "/rl_env_reset_srv": [
                        "/drone11/RlEnvironmentGazeboRos"
                    ],
                    "/drone11/moduleIsStarted": [
                        "/drone11/process_monitor_process_main"
                    ],
                    "/hummingbird1/robot_state_publisher/get_loggers": [
                        "/hummingbird1/robot_state_publisher"
                    ],
                    "/hummingbird1/camera_bottom/set_parameters": [
                        "/gazebo"
                    ],
                    "/gazebo/delete_model": [
                        "/gazebo"
                    ],
                    "/drone11/droneRotationAngles/set_logger_level": [
                        "/drone11/droneRotationAngles"
                    ],
                    "/gazebo/set_link_properties": [
                        "/gazebo"
                    ],
                    "/hummingbird1/joint_state_publisher/set_logger_level": [
                        "/hummingbird1/joint_state_publisher"
                    ],
                    "/drone11/RlEnvironmentGazeboRos/set_logger_level": [
                        "/drone11/RlEnvironmentGazeboRos"
                    ],
                    "/drone11/droneTrajectoryController/get_loggers": [
                        "/drone11/droneTrajectoryController"
                    ],
                    "/drone11/droneRotationAngles/stop": [
                        "/drone11/droneRotationAngles"
                    ],
                    "/drone11/droneCommand/reset": [
                        "/drone11/droneCommand"
                    ],
                    "/rl_env_step_srv": [
                        "/drone11/RlEnvironmentGazeboRos"
                    ],
                    "/drone11/droneLocalPose/set_logger_level": [
                        "/drone11/droneLocalPose"
                    ],
                    "/hummingbird1/roll_pitch_yawrate_thrust_controller_node/set_logger_level": [
                        "/hummingbird1/roll_pitch_yawrate_thrust_controller_node"
                    ],
                    "/drone11/droneCommand/set_logger_level": [
                        "/drone11/droneCommand"
                    ],
                    "/drone11/droneOdometryStateEstimator/setInitDroneYaw": [
                        "/drone11/droneOdometryStateEstimator"
                    ],
                    "/rl_env_dimensionality_srv": [
                        "/drone11/RlEnvironmentGazeboRos"
                    ],
                    "/drone11/droneInterface/stop": [
                        "/drone11/droneInterface"
                    ],
                    "/drone11/droneManagerOfActions/start": [
                        "/drone11/droneManagerOfActions"
                    ],
                    "/gazebo/set_model_configuration": [
                        "/gazebo"
                    ],
                    "/drone11/droneMidLevelAutopilot/set_logger_level": [
                        "/drone11/droneMidLevelAutopilot"
                    ],
                    "/gym_ddpg_chainer_agent/set_logger_level": [
                        "/gym_ddpg_chainer_agent"
                    ],
                    "/gazebo/spawn_sdf_model": [
                        "/gazebo"
                    ],
                    "/drone11/droneOdometryStateEstimator/stop": [
                        "/drone11/droneOdometryStateEstimator"
                    ],
                    "/drone11/droneRotationAngles/start": [
                        "/drone11/droneRotationAngles"
                    ],
                    "/gazebo/unpause_physics": [
                        "/gazebo"
                    ],
                    "/drone11/droneLocalPose/get_loggers": [
                        "/drone11/droneLocalPose"
                    ],
                    "/rosout/get_loggers": [
                        "/rosout"
                    ],
                    "/gazebo/pause_physics": [
                        "/gazebo"
                    ],
                    "/drone11/droneInterface/get_loggers": [
                        "/drone11/droneInterface"
                    ],
                    "/rosout/set_logger_level": [
                        "/rosout"
                    ],
                    "/gazebo/get_light_properties": [
                        "/gazebo"
                    ],
                    "/gym_ddpg_chainer_agent/get_loggers": [
                        "/gym_ddpg_chainer_agent"
                    ],
                    "/gazebo/get_joint_properties": [
                        "/gazebo"
                    ],
                    "/drone11/droneMidLevelAutopilot/get_loggers": [
                        "/drone11/droneMidLevelAutopilot"
                    ],
                    "/gazebo/spawn_urdf_model": [
                        "/gazebo"
                    ],
                    "/drone11/droneCommand/stop": [
                        "/drone11/droneCommand"
                    ],
                    "/gazebo/get_link_state": [
                        "/gazebo"
                    ],
                    "/hummingbird1/camera_bottom/set_camera_info": [
                        "/gazebo"
                    ],
                    "/drone11/droneMidLevelAutopilot/stop": [
                        "/drone11/droneMidLevelAutopilot"
                    ],
                    "/drone11/droneOdometryStateEstimator/start": [
                        "/drone11/droneOdometryStateEstimator"
                    ],
                    "/gazebo/set_light_properties": [
                        "/gazebo"
                    ],
                    "/drone11/droneCommand/get_loggers": [
                        "/drone11/droneCommand"
                    ],
                    "/gazebo/set_joint_properties": [
                        "/gazebo"
                    ],
                    "/hummingbird1/joint_state_publisher/get_loggers": [
                        "/hummingbird1/joint_state_publisher"
                    ],
                    "/drone11/droneLocalPose/stop": [
                        "/drone11/droneLocalPose"
                    ],
                    "/gazebo/get_world_properties": [
                        "/gazebo"
                    ],
                    "/gazebo/delete_light": [
                        "/gazebo"
                    ],
                    "/gazebo/set_parameters": [
                        "/gazebo"
                    ],
                    "/drone11/droneManagerOfActions/stop": [
                        "/drone11/droneManagerOfActions"
                    ],
                    "/drone11/droneTrajectoryController/stop": [
                        "/drone11/droneTrajectoryController"
                    ],
                    "/drone11/droneInterface/reset": [
                        "/drone11/droneInterface"
                    ],
                    "/drone11/droneManagerOfActions/set_logger_level": [
                        "/drone11/droneManagerOfActions"
                    ],
                    "/drone11/droneLocalPose/reset": [
                        "/drone11/droneLocalPose"
                    ],
                    "/gazebo/set_model_state": [
                        "/gazebo"
                    ],
                    "/drone11/droneCommand/start": [
                        "/drone11/droneCommand"
                    ],
                    "/drone11/droneMidLevelAutopilot/start": [
                        "/drone11/droneMidLevelAutopilot"
                    ],
                    "/drone11/moduleIsOnline": [
                        "/drone11/process_monitor_process_main"
                    ],
                    "/gazebo/get_link_properties": [
                        "/gazebo"
                    ],
                    "/gazebo/set_link_state": [
                        "/gazebo"
                    ],
                    "/drone11/droneOdometryStateEstimator/get_loggers": [
                        "/drone11/droneOdometryStateEstimator"
                    ],
                    "/drone11/droneTrajectoryController/reset": [
                        "/drone11/droneTrajectoryController"
                    ],
                    "/drone11/droneInterface/start": [
                        "/drone11/droneInterface"
                    ],
                    "/gazebo/set_logger_level": [
                        "/gazebo"
                    ],
                    "/drone11/process_monitor_process_main/set_logger_level": [
                        "/drone11/process_monitor_process_main"
                    ],
                    "/drone11/droneInterface/set_logger_level": [
                        "/drone11/droneInterface"
                    ],
                    "/gazebo/get_loggers": [
                        "/gazebo"
                    ],
                    "/drone11/droneOdometryStateEstimator/set_logger_level": [
                        "/drone11/droneOdometryStateEstimator"
                    ],
                    "/hummingbird1/camera_bottom/image_raw/compressed/set_parameters": [
                        "/gazebo"
                    ],
                    "/gazebo/clear_joint_forces": [
                        "/gazebo"
                    ],
                    "/gazebo/set_physics_properties": [
                        "/gazebo"
                    ],
                    "/drone11/droneRotationAngles/reset": [
                        "/drone11/droneRotationAngles"
                    ],
                    "/gazebo/reset_simulation": [
                        "/gazebo"
                    ],
                    "/drone11/droneTrajectoryController/start": [
                        "/drone11/droneTrajectoryController"
                    ],
                    "/drone11/droneRotationAngles/get_loggers": [
                        "/drone11/droneRotationAngles"
                    ],
                    "/gazebo/apply_body_wrench": [
                        "/gazebo"
                    ],
                    "/hummingbird1/robot_state_publisher/set_logger_level": [
                        "/hummingbird1/robot_state_publisher"
                    ],
                    "/drone11/wifiIsOk": [
                        "/drone11/process_monitor_process_main"
                    ],
                    "/drone11/droneLocalPose/start": [
                        "/drone11/droneLocalPose"
                    ],
                    "/gazebo/get_model_state": [
                        "/gazebo"
                    ],
                    "/drone11/process_monitor_process_main/get_loggers": [
                        "/drone11/process_monitor_process_main"
                    ],
                    "/gazebo/get_model_properties": [
                        "/gazebo"
                    ],
                    "/drone11/droneTrajectoryController/set_logger_level": [
                        "/drone11/droneTrajectoryController"
                    ]
                }
            }
        }
    },
    "rosdescription": {
        "port": "11311",
        "type": "xmlrpc",
        "method": "rosdescription",
        "arg": "/robot_description",
        "status": "ok",
        "timestamp": 1515184268,
        "response": {
            "status_code": -1,
            "status_message": "Parameter [/robot_description] is not set",
            "param": 0
        }
    },
    "query_stats": {
        "param_count": 180,
        "publisher_count": 78,
        "subscriber_count": 54,
        "service_count": 97,
        "term_count": 385,
        "alphaterm_count": 346,
        "topic_count": 205,
        "has_description": false,
        "is_ros": true,
        "roscore_version": "1.12",
        "ros_version_name": "kinetic",
        "missing_term_data": false,
        "roslaunch_machine_hostnames": [
            "pumpkin"
        ],
        "has_hostname": true,
        "machine_hostname": "pumpkin"
    },
    "search_info": {
        "count_control": 0,
        "count_simulators": 2,
        "count_sensors": 5,
        "count_actuators": 1,
        "count_other": 1,
        "count_robot_types": 0,
        "count_targets": 1,
        "total_query_hits": 10
    },
    "search_stats": {
        "control": {},
        "simulators": {
            "sim_any": {
                "param": "not",
                "hit": true,
                "children": [
                    {
                        "param": "and",
                        "hit": false,
                        "children": [
                            {
                                "param": "not",
                                "hit": false,
                                "children": [
                                    {
                                        "param": "gazebo",
                                        "hit": true,
                                        "count": 38,
                                        "matches": [
                                            "/gazebo/set_logger_level",
                                            "/gazebo/reset_world",
                                            "/gazebo/model_states",
                                            "/gazebo/clear_body_wrenches",
                                            "/gazebo/clear_joint_forces",
                                            "/gazebo/set_link_properties",
                                            "/gazebo/get_loggers",
                                            "/gazebo",
                                            "/gazebo/set_model_configuration",
                                            "/gazebo/get_link_state",
                                            "/gazebo/link_states",
                                            "/gazebo/get_joint_properties",
                                            "/gazebo/apply_joint_effort",
                                            "/gazebo/set_model_state",
                                            "/gazebo/parameter_descriptions",
                                            "/gazebo/get_physics_properties",
                                            "/drone11/gazebo_estimated_pose",
                                            "/gazebo/spawn_urdf_model",
                                            "/gazebo/spawn_sdf_model",
                                            "/gazebo/get_world_properties",
                                            "/gazebo/get_model_state",
                                            "/gazebo/set_light_properties",
                                            "/gazebo/delete_model",
                                            "/gazebo/set_parameters",
                                            "/gazebo/set_physics_properties",
                                            "/gazebo/unpause_physics",
                                            "/gazebo/parameter_updates",
                                            "/gazebo/pause_physics",
                                            "/gazebo/set_joint_properties",
                                            "/gazebo/set_link_state",
                                            "/gazebo/delete_light",
                                            "/gazebo/get_light_properties",
                                            "/gazebo/get_link_properties",
                                            "/gazebo/reset_simulation",
                                            "/gazebo/apply_body_wrench",
                                            "/gazebo/get_model_properties",
                                            "/hummingbird1/gazebo/command/motor_speed",
                                            "/drone11/gazebo_estimated_speed"
                                        ]
                                    }
                                ]
                            },
                            {
                                "param": "not",
                                "hit": true,
                                "children": [
                                    {
                                        "param": "stageros",
                                        "hit": false,
                                        "count": 0,
                                        "matches": []
                                    }
                                ]
                            },
                            {
                                "param": "not",
                                "hit": true,
                                "children": [
                                    {
                                        "param": "simulator",
                                        "hit": false,
                                        "count": 0,
                                        "matches": []
                                    }
                                ]
                            },
                            {
                                "param": "not",
                                "hit": true,
                                "children": [
                                    {
                                        "param": "use_sim_time",
                                        "hit": false,
                                        "count": 0,
                                        "matches": []
                                    }
                                ]
                            },
                            {
                                "param": "not",
                                "hit": true,
                                "children": [
                                    {
                                        "param": "torcs_ros",
                                        "hit": false,
                                        "count": 0,
                                        "matches": []
                                    }
                                ]
                            },
                            {
                                "param": "not",
                                "hit": true,
                                "children": [
                                    {
                                        "param": "unity",
                                        "hit": false,
                                        "count": 0,
                                        "matches": []
                                    }
                                ]
                            },
                            {
                                "param": "not",
                                "hit": true,
                                "children": [
                                    {
                                        "param": "turtlesim",
                                        "hit": false,
                                        "count": 0,
                                        "matches": []
                                    }
                                ]
                            },
                            {
                                "param": "not",
                                "hit": true,
                                "children": [
                                    {
                                        "param": "dreamview",
                                        "hit": false,
                                        "count": 0,
                                        "matches": []
                                    }
                                ]
                            },
                            {
                                "param": "not",
                                "hit": true,
                                "children": [
                                    {
                                        "param": "videofile",
                                        "hit": false,
                                        "count": 0,
                                        "matches": []
                                    }
                                ]
                            },
                            {
                                "param": "not",
                                "hit": true,
                                "children": [
                                    {
                                        "param": "uwsim",
                                        "hit": false,
                                        "count": 0,
                                        "matches": []
                                    }
                                ]
                            },
                            {
                                "param": "not",
                                "hit": true,
                                "children": [
                                    {
                                        "param": "file_player",
                                        "hit": false,
                                        "count": 0,
                                        "matches": []
                                    }
                                ]
                            }
                        ]
                    }
                ]
            },
            "sim_gazebo": {
                "param": "gazebo",
                "hit": true,
                "count": 38,
                "matches": [
                    "/gazebo/set_logger_level",
                    "/gazebo/reset_world",
                    "/gazebo/model_states",
                    "/gazebo/clear_body_wrenches",
                    "/gazebo/clear_joint_forces",
                    "/gazebo/set_link_properties",
                    "/gazebo/get_loggers",
                    "/gazebo",
                    "/gazebo/set_model_configuration",
                    "/gazebo/get_link_state",
                    "/gazebo/link_states",
                    "/gazebo/get_joint_properties",
                    "/gazebo/apply_joint_effort",
                    "/gazebo/set_model_state",
                    "/gazebo/parameter_descriptions",
                    "/gazebo/get_physics_properties",
                    "/drone11/gazebo_estimated_pose",
                    "/gazebo/spawn_urdf_model",
                    "/gazebo/spawn_sdf_model",
                    "/gazebo/get_world_properties",
                    "/gazebo/get_model_state",
                    "/gazebo/set_light_properties",
                    "/gazebo/delete_model",
                    "/gazebo/set_parameters",
                    "/gazebo/set_physics_properties",
                    "/gazebo/unpause_physics",
                    "/gazebo/parameter_updates",
                    "/gazebo/pause_physics",
                    "/gazebo/set_joint_properties",
                    "/gazebo/set_link_state",
                    "/gazebo/delete_light",
                    "/gazebo/get_light_properties",
                    "/gazebo/get_link_properties",
                    "/gazebo/reset_simulation",
                    "/gazebo/apply_body_wrench",
                    "/gazebo/get_model_properties",
                    "/hummingbird1/gazebo/command/motor_speed",
                    "/drone11/gazebo_estimated_speed"
                ]
            }
        },
        "sensors": {
            "camera_nofake": {
                "param": "or",
                "hit": true,
                "children": [
                    {
                        "param": "camera_!fake",
                        "hit": true,
                        "count": 19,
                        "matches": [
                            "/drone11/camera/front/image_raw",
                            "/hummingbird1/camera_bottom/parameter_descriptions",
                            "/hummingbird1/camera_bottom/image_raw/theora/parameter_updates",
                            "/hummingbird1/camera_bottom/set_camera_info",
                            "/hummingbird1/camera_bottom/image_raw/compressedDepth",
                            "/hummingbird1/camera_bottom/image_raw/compressed/set_parameters",
                            "/hummingbird1/camera_bottom/image_raw/compressed/parameter_descriptions",
                            "/hummingbird1/camera_bottom/image_raw/theora",
                            "/hummingbird1/camera_bottom/set_parameters",
                            "/hummingbird1/camera_bottom/camera_info",
                            "/hummingbird1/camera_bottom/image_raw/theora/parameter_descriptions",
                            "/hummingbird1/camera_bottom/image_raw/theora/set_parameters",
                            "/hummingbird1/camera_bottom/parameter_updates",
                            "/hummingbird1/camera_bottom/image_raw/compressed",
                            "/hummingbird1/camera_bottom/image_raw/compressed/parameter_updates",
                            "/hummingbird1/camera_bottom/image_raw",
                            "/hummingbird1/camera_bottom/image_raw/compressedDepth/parameter_updates",
                            "/hummingbird1/camera_bottom/image_raw/compressedDepth/parameter_descriptions",
                            "/hummingbird1/camera_bottom/image_raw/compressedDepth/set_parameters"
                        ]
                    },
                    {
                        "param": "image_!fake",
                        "hit": true,
                        "count": 16,
                        "matches": [
                            "/drone11/camera/front/image_raw",
                            "/hummingbird1/camera_bottom/image_raw/theora/parameter_updates",
                            "/hummingbird1/camera_bottom/image_raw/compressedDepth",
                            "/hummingbird1/camera_bottom/image_raw/compressed/set_parameters",
                            "/hummingbird1/camera_bottom/image_raw/compressed/parameter_descriptions",
                            "/hummingbird1/camera_bottom/image_raw/theora",
                            "/hummingbird1/camera_bottom/image_raw/theora/parameter_descriptions",
                            "/drone11/controller_image_features",
                            "/drone11/controller_image_features_feedback",
                            "/hummingbird1/camera_bottom/image_raw/theora/set_parameters",
                            "/hummingbird1/camera_bottom/image_raw/compressed",
                            "/hummingbird1/camera_bottom/image_raw/compressed/parameter_updates",
                            "/hummingbird1/camera_bottom/image_raw",
                            "/hummingbird1/camera_bottom/image_raw/compressedDepth/parameter_updates",
                            "/hummingbird1/camera_bottom/image_raw/compressedDepth/parameter_descriptions",
                            "/hummingbird1/camera_bottom/image_raw/compressedDepth/set_parameters"
                        ]
                    },
                    {
                        "param": "pointgrey_!fake",
                        "hit": false,
                        "count": 0,
                        "matches": []
                    },
                    {
                        "param": "usb_cam_!fake",
                        "hit": false,
                        "count": 0,
                        "matches": []
                    }
                ]
            },
            "camera_depth": {
                "param": "or",
                "hit": true,
                "children": [
                    {
                        "param": "camera_depth_!fake",
                        "hit": false,
                        "count": 0,
                        "matches": []
                    },
                    {
                        "param": "compressedDepth",
                        "hit": true,
                        "count": 4,
                        "matches": [
                            "/hummingbird1/camera_bottom/image_raw/compressedDepth",
                            "/hummingbird1/camera_bottom/image_raw/compressedDepth/parameter_updates",
                            "/hummingbird1/camera_bottom/image_raw/compressedDepth/parameter_descriptions",
                            "/hummingbird1/camera_bottom/image_raw/compressedDepth/set_parameters"
                        ]
                    },
                    {
                        "param": "registered_points",
                        "hit": false,
                        "count": 0,
                        "matches": []
                    }
                ]
            },
            "imu": {
                "param": "imu",
                "hit": true,
                "count": 3,
                "matches": [
                    "/drone11/imu",
                    "/hummingbird1/ground_truth/imu",
                    "/hummingbird1/imu"
                ]
            },
            "lidar": {
                "param": "or",
                "hit": true,
                "children": [
                    {
                        "param": "lidar",
                        "hit": false,
                        "count": 0,
                        "matches": []
                    },
                    {
                        "param": "hokuyo",
                        "hit": false,
                        "count": 0,
                        "matches": []
                    },
                    {
                        "param": "scan",
                        "hit": true,
                        "count": 1,
                        "matches": [
                            "/drone11/scan"
                        ]
                    },
                    {
                        "param": "lms511",
                        "hit": false,
                        "count": 0,
                        "matches": []
                    },
                    {
                        "param": "laser_points_pc2",
                        "hit": false,
                        "count": 0,
                        "matches": []
                    }
                ]
            },
            "battery": {
                "param": "or",
                "hit": true,
                "children": [
                    {
                        "param": "battery",
                        "hit": true,
                        "count": 1,
                        "matches": [
                            "/drone11/battery"
                        ]
                    },
                    {
                        "param": "voltage",
                        "hit": false,
                        "count": 0,
                        "matches": []
                    }
                ]
            }
        },
        "actuators": {
            "lights": {
                "param": "or",
                "hit": true,
                "children": [
                    {
                        "param": "set_light",
                        "hit": true,
                        "count": 1,
                        "matches": [
                            "/gazebo/set_light_properties"
                        ]
                    },
                    {
                        "param": "set_lights",
                        "hit": false,
                        "count": 0,
                        "matches": []
                    },
                    {
                        "param": "set_red_level",
                        "hit": false,
                        "count": 0,
                        "matches": []
                    }
                ]
            }
        },
        "other": {
            "transform": {
                "param": "or",
                "hit": true,
                "children": [
                    {
                        "param": "tf",
                        "hit": true,
                        "count": 2,
                        "matches": [
                            "/tf",
                            "/tf_static"
                        ]
                    },
                    {
                        "param": "tf_static",
                        "hit": true,
                        "count": 1,
                        "matches": [
                            "/tf_static"
                        ]
                    }
                ]
            }
        },
        "robot_types": {},
        "targets": {
            "drone": {
                "param": "drone",
                "hit": true,
                "count": 108,
                "matches": [
                    "/drone11/droneTrajectoryController/get_loggers",
                    "/drone11/camera/front/image_raw",
                    "/drone11/command/low_level",
                    "/drone11/droneRotationAngles/start",
                    "/drone11/is_object_on_frame",
                    "/drone11/droneInterface/reset",
                    "/drone11/droneInterface/start",
                    "/drone11/dronePositionRefs",
                    "/drone11/droneCommand",
                    "/drone11/droneManagerStateDoContinue",
                    "/drone11/droneOdometryStateEstimator/get_loggers",
                    "/drone11/droneManagerOfActions/get_loggers",
                    "/drone11/process_monitor_process_main/set_logger_level",
                    "/drone11/droneTrajectoryController/stop",
                    "/drone11/EstimatedPose_iRobotGMR_wrt_droneGMR",
                    "/drone11/droneInterface/get_loggers",
                    "/drone11/trajectoryControllerTrajectoryReferencesRebroadcast",
                    "/drone11/imu",
                    "/drone11/droneRotationAngles",
                    "/drone11/droneMidLevelAutopilot/start",
                    "/drone11/EstimatedSpeed_droneGMR_wrt_GFF",
                    "/drone11/SOEstimatedSpeeds",
                    "/drone11/droneRotationAngles/get_loggers",
                    "/drone11/droneTrajectoryController/controlMode",
                    "/drone11/droneOdometryStateEstimator/reset",
                    "/drone11/command/dAltitude",
                    "/drone11/command/high_level",
                    "/drone11/get_bounding_box",
                    "/drone11/command/dYaw",
                    "/drone11/status",
                    "/drone11/droneOdometryStateEstimator/stop",
                    "/drone11/droneManagerOfActions/set_logger_level",
                    "/drone11/process_monitor_process_main/get_loggers",
                    "/drone11/droneLocalPose/set_logger_level",
                    "/drone11/processes_performance",
                    "/drone11/droneTrajectoryController",
                    "/drone11/moduleIsStarted",
                    "/drone11/droneLocalPose/start",
                    "/drone11/droneLocalPose/get_loggers",
                    "/drone11/droneManagerOfActions/reset",
                    "/drone11/EstimatedPose_droneGMR_wrt_GFF",
                    "/drone11/trajectoryControllerPositionReferencesRebroadcast",
                    "/drone11/battery",
                    "/drone11/moduleIsOnline",
                    "/drone11/droneCommand/set_logger_level",
                    "/drone11/process_error_unified_notification",
                    "/drone11/droneManagerOfActions/start",
                    "/drone11/gazebo_estimated_pose",
                    "/drone11/droneOdometryStateEstimator",
                    "/drone11/droneManagerStatus",
                    "/drone11/controller_image_features",
                    "/drone11/magnetometer",
                    "/drone11/trajectoryControllerSpeedReferencesRebroadcast",
                    "/drone11/controller_image_features_feedback",
                    "/drone11/droneSpeedsRefs",
                    "/drone11/RlEnvironmentGazeboRos/set_logger_level",
                    "/drone11/droneTrajectoryRefCommand",
                    "/drone11/droneOdometryStateEstimator/setInitDroneYaw",
                    "/drone11/droneMidLevelAutopilot/get_loggers",
                    "/drone11/RlEnvironmentGazeboRos/get_loggers",
                    "/drone11/droneTrajectoryController/reset",
                    "/drone11/droneManagerOfActions",
                    "/drone11/command/pitch_roll",
                    "/drone11/ground_speed",
                    "/drone11/wifiIsOk",
                    "/drone11/process_alive_signal",
                    "/drone11/process_monitor_process_main",
                    "/drone11/droneCommand/stop",
                    "/drone11/droneInterface/set_logger_level",
                    "/drone11/droneControllerYawRefCommand",
                    "/drone11/droneRotationAngles/stop",
                    "/drone11/ArucoSlam_EstimatedSpeeds",
                    "/drone11/droneMissionPlannerCommand",
                    "/drone11/droneInterface",
                    "/drone11/droneMidLevelAutopilot/stop",
                    "/drone11/odometry/filtered",
                    "/drone11/droneLocalPose/stop",
                    "/drone11/droneCommand/get_loggers",
                    "/drone11/tracking_object",
                    "/drone11/droneLocalPose",
                    "/drone11/droneMidLevelAutopilot/set_logger_level",
                    "/drone11/eventString",
                    "/drone11/droneTrajectoryController/setControlMode",
                    "/drone11/droneManagerOfActions/stop",
                    "/drone11/droneCommand/reset",
                    "/drone11/droneInterface/stop",
                    "/drone11/droneMidLevelAutopilot",
                    "/drone11/droneCommand/start",
                    "/drone11/droneTrajectoryController/start",
                    "/drone11/droneRotationAngles/set_logger_level",
                    "/drone11/droneTrajectoryController/set_logger_level",
                    "/drone11/droneTrajectoryAbsRefCommand",
                    "/drone11/droneMidLevelAutopilot/reset",
                    "/drone11/command_PBVS/Altitude",
                    "/drone11/droneOdometryStateEstimator/start",
                    "/drone11/droneMissionHLCommandAck",
                    "/drone11/droneRotationAngles/reset",
                    "/drone11/scan",
                    "/drone11/rotation_angles_radians",
                    "/drone11/droneOdometryStateEstimator/set_logger_level",
                    "/drone11/SOEstimatedPose",
                    "/drone11/RlEnvironmentGazeboRos",
                    "/drone11/rotation_angles",
                    "/drone11/self_detected_process_error",
                    "/drone11/gazebo_estimated_speed",
                    "/drone11/ArucoSlam_EstimatedPose",
                    "/drone11/droneLocalPose/reset",
                    "/drone11/altitude"
                ]
            }
        }
    },
    "inferred_results": {
        "identified_robot": false,
        "only_sim": true,
        "likely_empty": false,
        "only_sensors": false,
        "only_actuators": false,
        "only_services": false,
        "needs_more_info": false,
        "confirmed_ros": true,
        "total_hosts": false,
        "is_unconnectable": false,
        "search_hit_sim": true,
        "has_sensor": true,
        "has_actuator": true,
        "has_hostname": true,
        "missing_term_data": false,
        "has_description": false,
        "has_descr_name": false,
        "has_search_hits": true,
        "manually_tagged": false,
        "search_hit_gazebo": true,
        "likely_non_robot": true
    }
}
