{
    "ip": "144.118.172.153",
    "dns.hostname": "n2-172-153.dhcp.drexel.edu",
    "dns.authority": "noc.drexel.edu. dunet-admin.drexel.edu. 2018011000 3600 1800 1814400 10800",
    "geoip.country": "United States",
    "geoip.country_code": "US",
    "geoip.specific_name": "Pennsylvania",
    "geoip.specific_name_code": "PA",
    "geoip.latitude": 39.9597,
    "geoip.longitude": -75.1968,
    "geoip.as_number": 11834,
    "geoip.as_organization": "Drexel University",
    "shodan.ports": [
        5353,
        80,
        22
    ],
    "shodan.tags": [],
    "rosversion": {
        "port": "11311",
        "type": "xmlrpc",
        "method": "rosversion",
        "arg": "/rosversion",
        "status": "ok",
        "timestamp": 1515658206,
        "response": {
            "status_code": 1,
            "status_message": "Parameter [/rosversion]",
            "param": "1.11.13\n"
        }
    },
    "rosparamnames": {
        "port": "11311",
        "type": "xmlrpc",
        "method": "rosparamnames",
        "arg": "",
        "status": "ok",
        "timestamp": 1515658208,
        "response": {
            "status_code": 1,
            "status_message": "Parameter names",
            "paramNames": [
                "/roslaunch/uris/host_peek_printer__44546",
                "/rosbridge_websocket/authenticate",
                "/rosbridge_websocket/port",
                "/rosbridge_websocket/address",
                "/cooling_curve/temperature",
                "/cooling_curve/time",
                "/rosversion",
                "/run_id",
                "/print_param_file_selected",
                "/print_param_file_list",
                "/network_status/active_device",
                "/network_status/wlan0/hw_addr",
                "/network_status/wlan0/wireless_passwd",
                "/network_status/wlan0/mask",
                "/network_status/wlan0/wireless_essid",
                "/network_status/wlan0/wireless",
                "/network_status/wlan0/state",
                "/network_status/wlan0/address",
                "/network_status/device_list",
                "/network_status/eth0/hw_addr",
                "/network_status/eth0/state",
                "/network_status/eth0/mask",
                "/network_status/eth0/address",
                "/print_param/layer_perimeter/units",
                "/print_param/layer_perimeter/values",
                "/print_param/support/units",
                "/print_param/support/values",
                "/print_param/cooling/units",
                "/print_param/cooling/values",
                "/print_param/infill/units",
                "/print_param/infill/values",
                "/print_param/advanced/units",
                "/print_param/advanced/values",
                "/print_param/skirt_brim/units",
                "/print_param/skirt_brim/values",
                "/print_param/speed/units",
                "/print_param/speed/values",
                "/print_param/filament/units",
                "/print_param/filament/values",
                "/print_param/extruder/units",
                "/print_param/extruder/values",
                "/hours_counter",
                "/indmatec_print_control/path_to_config_files",
                "/indmatec_print_control/baudrate",
                "/indmatec_print_control/print_file_path",
                "/indmatec_print_control/log_file_path",
                "/indmatec_print_control/print_param_subfolder",
                "/indmatec_print_control/temp_gcode_path",
                "/indmatec_print_control/eprom_config/home_offset",
                "/indmatec_print_control/slicer_path",
                "/indmatec_print_control/selected_printfile",
                "/indmatec_print_control/print_report_gen_path",
                "/indmatec_print_control/print_param_default",
                "/indmatec_print_control/print_report_files_path",
                "/indmatec_print_control/port",
                "/indmatec_print_control/print_job_params/estimated_time",
                "/indmatec_print_control/print_job_params/filament_length",
                "/indmatec_print_control/print_job_params/start_print_confirmed",
                "/indmatec_print_control/print_job_params/filament_volume",
                "/print_report_list",
                "/rosdistro"
            ]
        }
    },
    "rostopic": {
        "port": "11311",
        "type": "xmlrpc",
        "method": "rostopic",
        "arg": "/rosversion",
        "status": "ok",
        "timestamp": 1515658210,
        "response": {
            "status_code": 1,
            "status_message": "current system state",
            "system_state": {
                "publishers": {
                    "/indmatec_print_control/PrinterStatus": [
                        "/indmatec_print_control"
                    ],
                    "/indmatec_print_control/PrinterLog": [
                        "/indmatec_print_control"
                    ],
                    "/rosout": [
                        "/indmatec_print_control",
                        "/indmatec_network_manager",
                        "/rosbridge_websocket",
                        "/rosapi"
                    ],
                    "/rosout_agg": [
                        "/rosout"
                    ],
                    "/indmatec_print_control/PrinterCommand": [
                        "/rosbridge_websocket"
                    ],
                    "/indmatec_network_manager/ResetNetworkConfig": [
                        "/indmatec_print_control"
                    ],
                    "/indmatec_print_control/PrinterPosition": [
                        "/indmatec_print_control"
                    ],
                    "/indmatec_network_manager/NetworkStatus": [
                        "/indmatec_network_manager"
                    ]
                },
                "subscribers": {
                    "/indmatec_print_control/PrinterStatus": [
                        "/rosbridge_websocket"
                    ],
                    "/rosout": [
                        "/rosout"
                    ],
                    "/indmatec_print_control/SetTemperature": [
                        "/indmatec_print_control"
                    ],
                    "/indmatec_print_control/PrinterCommand": [
                        "/indmatec_print_control"
                    ],
                    "/indmatec_network_manager/CancelNetworkStartup": [
                        "/indmatec_network_manager"
                    ],
                    "/indmatec_network_manager/ResetNetworkConfig": [
                        "/indmatec_network_manager"
                    ],
                    "/indmatec_network_manager/NetworkStatus": [
                        "/rosbridge_websocket"
                    ]
                },
                "services": {
                    "/indmatec_print_control/set_logger_level": [
                        "/indmatec_print_control"
                    ],
                    "/indmatec_network_manager/set_logger_level": [
                        "/indmatec_network_manager"
                    ],
                    "/rosapi/get_loggers": [
                        "/rosapi"
                    ],
                    "/rosapi/has_param": [
                        "/rosapi"
                    ],
                    "/rosapi/delete_param": [
                        "/rosapi"
                    ],
                    "/rosapi/search_param": [
                        "/rosapi"
                    ],
                    "/indmatec_print_control/load_save_print_params": [
                        "/indmatec_print_control"
                    ],
                    "/rosapi/topic_type": [
                        "/rosapi"
                    ],
                    "/rosapi/get_param_names": [
                        "/rosapi"
                    ],
                    "/rosapi/subscribers": [
                        "/rosapi"
                    ],
                    "/rosapi/set_logger_level": [
                        "/rosapi"
                    ],
                    "/rosbridge_websocket/set_logger_level": [
                        "/rosbridge_websocket"
                    ],
                    "/rosout/set_logger_level": [
                        "/rosout"
                    ],
                    "/rosapi/service_host": [
                        "/rosapi"
                    ],
                    "/rosbridge_websocket/get_loggers": [
                        "/rosbridge_websocket"
                    ],
                    "/rosapi/publishers": [
                        "/rosapi"
                    ],
                    "/rosapi/topics": [
                        "/rosapi"
                    ],
                    "/indmatec_network_manager/change_network_config": [
                        "/indmatec_network_manager"
                    ],
                    "/rosapi/get_time": [
                        "/rosapi"
                    ],
                    "/indmatec_print_control/reset_factory_settings": [
                        "/indmatec_print_control"
                    ],
                    "/indmatec_network_manager/get_loggers": [
                        "/indmatec_network_manager"
                    ],
                    "/rosapi/message_details": [
                        "/rosapi"
                    ],
                    "/rosapi/services": [
                        "/rosapi"
                    ],
                    "/rosapi/service_node": [
                        "/rosapi"
                    ],
                    "/rosapi/services_for_type": [
                        "/rosapi"
                    ],
                    "/rosapi/service_response_details": [
                        "/rosapi"
                    ],
                    "/rosapi/nodes": [
                        "/rosapi"
                    ],
                    "/rosapi/set_param": [
                        "/rosapi"
                    ],
                    "/indmatec_print_control/get_loggers": [
                        "/indmatec_print_control"
                    ],
                    "/rosapi/service_providers": [
                        "/rosapi"
                    ],
                    "/rosout/get_loggers": [
                        "/rosout"
                    ],
                    "/rosapi/get_param": [
                        "/rosapi"
                    ],
                    "/rosapi/topics_for_type": [
                        "/rosapi"
                    ],
                    "/rosapi/service_request_details": [
                        "/rosapi"
                    ],
                    "/rosapi/service_type": [
                        "/rosapi"
                    ]
                }
            }
        }
    },
    "rosdescription": {
        "port": "11311",
        "type": "xmlrpc",
        "method": "rosdescription",
        "arg": "/robot_description",
        "status": "ok",
        "timestamp": 1515658212,
        "response": {
            "status_code": -1,
            "status_message": "Parameter [/robot_description] is not set",
            "param": 0
        }
    },
    "query_stats": {
        "param_count": 61,
        "publisher_count": 8,
        "subscriber_count": 7,
        "service_count": 35,
        "term_count": 110,
        "alphaterm_count": 110,
        "topic_count": 49,
        "has_description": false,
        "is_ros": true,
        "roscore_version": "1.11",
        "ros_version_name": "indigo",
        "missing_term_data": false,
        "roslaunch_machine_hostnames": [
            "peek_printer"
        ],
        "has_hostname": true,
        "machine_hostname": "peek_printer"
    },
    "search_info": {
        "count_control": 0,
        "count_simulators": 0,
        "count_sensors": 1,
        "count_actuators": 1,
        "count_other": 1,
        "count_robot_types": 0,
        "count_targets": 0,
        "total_query_hits": 3
    },
    "search_stats": {
        "control": {},
        "simulators": {},
        "sensors": {
            "print_sensor": {
                "param": "PrinterPosition",
                "hit": true,
                "count": 1,
                "matches": [
                    "/indmatec_print_control/PrinterPosition"
                ]
            }
        },
        "actuators": {
            "print_head": {
                "param": "PrinterCommand",
                "hit": true,
                "count": 1,
                "matches": [
                    "/indmatec_print_control/PrinterCommand"
                ]
            }
        },
        "other": {
            "rosbridge": {
                "param": "rosbridge",
                "hit": true,
                "count": 3,
                "matches": [
                    "/rosbridge_websocket/set_logger_level",
                    "/rosbridge_websocket/get_loggers",
                    "/rosbridge_websocket"
                ]
            }
        },
        "robot_types": {},
        "targets": {}
    },
    "inferred_results": {
        "identified_robot": true,
        "only_sim": false,
        "likely_empty": false,
        "only_sensors": false,
        "only_actuators": false,
        "only_services": false,
        "needs_more_info": false,
        "confirmed_ros": true,
        "total_hosts": false,
        "is_unconnectable": false,
        "search_hit_sim": false,
        "has_sensor": true,
        "has_actuator": true,
        "has_hostname": true,
        "missing_term_data": false,
        "has_description": false,
        "has_descr_name": false,
        "has_search_hits": true,
        "manually_tagged": false,
        "search_hit_gazebo": false,
        "likely_non_robot": false
    }
}
