{
    "ip": "140.123.106.97",
    "dns.hostname": "seurat.ee.ccu.edu.tw",
    "dns.authority": "dns.ee.ccu.edu.tw. adm.ee.ccu.edu.tw. 2017080315 3600 3600 1209600 172800",
    "geoip.country": "Taiwan",
    "geoip.country_code": "TW",
    "geoip.specific_name": null,
    "geoip.specific_name_code": null,
    "geoip.latitude": 23.5,
    "geoip.longitude": 121.0,
    "geoip.as_number": 1659,
    "geoip.as_organization": "Taiwan Academic Network (TANet) Information Center",
    "shodan.ports": [
        2000
    ],
    "shodan.tags": [],
    "rosversion": {
        "port": "11311",
        "type": "xmlrpc",
        "method": "rosversion",
        "arg": "/rosversion",
        "status": "ok",
        "timestamp": 1515076929,
        "response": {
            "status_code": 1,
            "status_message": "Parameter [/rosversion]",
            "param": "1.12.7\n"
        }
    },
    "rosparamnames": {
        "port": "11311",
        "type": "xmlrpc",
        "method": "rosparamnames",
        "arg": "",
        "status": "ok",
        "timestamp": 1515076931,
        "response": {
            "status_code": 1,
            "status_message": "Parameter names",
            "paramNames": [
                "/roslaunch/uris/host_yan_system_product_name__40523",
                "/roslaunch/uris/host_yan_system_product_name__39291",
                "/roslaunch/uris/host_yan_system_product_name__32959",
                "/roslaunch/uris/host_yan_system_product_name__35439",
                "/roslaunch/uris/host_yan_system_product_name__34841",
                "/roslaunch/uris/host_yan_system_product_name__33005",
                "/roslaunch/uris/host_yan_system_product_name__38921",
                "/robot_1/slam_gmapping/lasamplerange",
                "/robot_1/slam_gmapping/llsamplestep",
                "/robot_1/slam_gmapping/lasamplestep",
                "/robot_1/slam_gmapping/lskip",
                "/robot_1/slam_gmapping/maxUrange",
                "/robot_1/slam_gmapping/iterations",
                "/robot_1/slam_gmapping/xmin",
                "/robot_1/slam_gmapping/ymin",
                "/robot_1/slam_gmapping/base_frame",
                "/robot_1/slam_gmapping/stt",
                "/robot_1/slam_gmapping/ymax",
                "/robot_1/slam_gmapping/temporalUpdate",
                "/robot_1/slam_gmapping/particles",
                "/robot_1/slam_gmapping/lstep",
                "/robot_1/slam_gmapping/minimumScore",
                "/robot_1/slam_gmapping/odom_frame",
                "/robot_1/slam_gmapping/str",
                "/robot_1/slam_gmapping/maxRange",
                "/robot_1/slam_gmapping/lsigma",
                "/robot_1/slam_gmapping/kernelSize",
                "/robot_1/slam_gmapping/llsamplerange",
                "/robot_1/slam_gmapping/srt",
                "/robot_1/slam_gmapping/astep",
                "/robot_1/slam_gmapping/delta",
                "/robot_1/slam_gmapping/ogain",
                "/robot_1/slam_gmapping/angularUpdate",
                "/robot_1/slam_gmapping/map_frame",
                "/robot_1/slam_gmapping/srr",
                "/robot_1/slam_gmapping/linearUpdate",
                "/robot_1/slam_gmapping/xmax",
                "/robot_1/slam_gmapping/map_update_interval",
                "/robot_1/slam_gmapping/resampleThreshold",
                "/robot_1/slam_gmapping/sigma",
                "/robot_1/robot_state_publisher/use_tf_static",
                "/robot_1/robot_state_publisher/tf_prefix",
                "/robot_1/robot_state_publisher/publish_frequency",
                "/robot_1/use_sim_time",
                "/robot_1/robot_description",
                "/robot_1/move_base_node/controller_patience",
                "/robot_1/move_base_node/local_costmap/cost_scaling_factor",
                "/robot_1/move_base_node/local_costmap/footprint_padding",
                "/robot_1/move_base_node/local_costmap/raytrace_range",
                "/robot_1/move_base_node/local_costmap/height",
                "/robot_1/move_base_node/local_costmap/update_frequency",
                "/robot_1/move_base_node/local_costmap/plugins",
                "/robot_1/move_base_node/local_costmap/observation_sources",
                "/robot_1/move_base_node/local_costmap/transform_tolerance",
                "/robot_1/move_base_node/local_costmap/width",
                "/robot_1/move_base_node/local_costmap/inflation_layer/inflate_unknown",
                "/robot_1/move_base_node/local_costmap/inflation_layer/cost_scaling_factor",
                "/robot_1/move_base_node/local_costmap/inflation_layer/inflation_radius",
                "/robot_1/move_base_node/local_costmap/inflation_layer/enabled",
                "/robot_1/move_base_node/local_costmap/lethal_cost_threshold",
                "/robot_1/move_base_node/local_costmap/laser_scan_sensor/marking",
                "/robot_1/move_base_node/local_costmap/laser_scan_sensor/min_obstacle_height",
                "/robot_1/move_base_node/local_costmap/laser_scan_sensor/data_type",
                "/robot_1/move_base_node/local_costmap/laser_scan_sensor/clearing",
                "/robot_1/move_base_node/local_costmap/laser_scan_sensor/topic",
                "/robot_1/move_base_node/local_costmap/laser_scan_sensor/sensor_frame",
                "/robot_1/move_base_node/local_costmap/laser_scan_sensor/max_obstacle_height",
                "/robot_1/move_base_node/local_costmap/inflation_radius",
                "/robot_1/move_base_node/local_costmap/static_map",
                "/robot_1/move_base_node/local_costmap/origin_y",
                "/robot_1/move_base_node/local_costmap/origin_x",
                "/robot_1/move_base_node/local_costmap/footprint",
                "/robot_1/move_base_node/local_costmap/map_type",
                "/robot_1/move_base_node/local_costmap/robot_radius",
                "/robot_1/move_base_node/local_costmap/robot_base_frame",
                "/robot_1/move_base_node/local_costmap/obstacle_range",
                "/robot_1/move_base_node/local_costmap/global_frame",
                "/robot_1/move_base_node/local_costmap/rolling_window",
                "/robot_1/move_base_node/local_costmap/obstacle_layer/obstacle_range",
                "/robot_1/move_base_node/local_costmap/obstacle_layer/laser_scan_sensor/marking",
                "/robot_1/move_base_node/local_costmap/obstacle_layer/laser_scan_sensor/min_obstacle_height",
                "/robot_1/move_base_node/local_costmap/obstacle_layer/laser_scan_sensor/data_type",
                "/robot_1/move_base_node/local_costmap/obstacle_layer/laser_scan_sensor/clearing",
                "/robot_1/move_base_node/local_costmap/obstacle_layer/laser_scan_sensor/topic",
                "/robot_1/move_base_node/local_costmap/obstacle_layer/laser_scan_sensor/sensor_frame",
                "/robot_1/move_base_node/local_costmap/obstacle_layer/laser_scan_sensor/max_obstacle_height",
                "/robot_1/move_base_node/local_costmap/obstacle_layer/enabled",
                "/robot_1/move_base_node/local_costmap/obstacle_layer/combination_method",
                "/robot_1/move_base_node/local_costmap/obstacle_layer/raytrace_range",
                "/robot_1/move_base_node/local_costmap/obstacle_layer/footprint_clearing_enabled",
                "/robot_1/move_base_node/local_costmap/obstacle_layer/observation_sources",
                "/robot_1/move_base_node/local_costmap/obstacle_layer/max_obstacle_height",
                "/robot_1/move_base_node/local_costmap/resolution",
                "/robot_1/move_base_node/local_costmap/publish_frequency",
                "/robot_1/move_base_node/conservative_reset_dist",
                "/robot_1/move_base_node/conservative_reset/reset_distance",
                "/robot_1/move_base_node/base_global_planner",
                "/robot_1/move_base_node/max_planning_retries",
                "/robot_1/move_base_node/footprint_padding",
                "/robot_1/move_base_node/global_costmap/cost_scaling_factor",
                "/robot_1/move_base_node/global_costmap/footprint_padding",
                "/robot_1/move_base_node/global_costmap/raytrace_range",
                "/robot_1/move_base_node/global_costmap/height",
                "/robot_1/move_base_node/global_costmap/update_frequency",
                "/robot_1/move_base_node/global_costmap/plugins",
                "/robot_1/move_base_node/global_costmap/observation_sources",
                "/robot_1/move_base_node/global_costmap/rolling_window",
                "/robot_1/move_base_node/global_costmap/transform_tolerance",
                "/robot_1/move_base_node/global_costmap/width",
                "/robot_1/move_base_node/global_costmap/inflation_layer/inflate_unknown",
                "/robot_1/move_base_node/global_costmap/inflation_layer/cost_scaling_factor",
                "/robot_1/move_base_node/global_costmap/inflation_layer/inflation_radius",
                "/robot_1/move_base_node/global_costmap/inflation_layer/enabled",
                "/robot_1/move_base_node/global_costmap/lethal_cost_threshold",
                "/robot_1/move_base_node/global_costmap/laser_scan_sensor/marking",
                "/robot_1/move_base_node/global_costmap/laser_scan_sensor/min_obstacle_height",
                "/robot_1/move_base_node/global_costmap/laser_scan_sensor/data_type",
                "/robot_1/move_base_node/global_costmap/laser_scan_sensor/clearing",
                "/robot_1/move_base_node/global_costmap/laser_scan_sensor/topic",
                "/robot_1/move_base_node/global_costmap/laser_scan_sensor/sensor_frame",
                "/robot_1/move_base_node/global_costmap/laser_scan_sensor/max_obstacle_height",
                "/robot_1/move_base_node/global_costmap/inflation_radius",
                "/robot_1/move_base_node/global_costmap/static_map",
                "/robot_1/move_base_node/global_costmap/origin_y",
                "/robot_1/move_base_node/global_costmap/origin_x",
                "/robot_1/move_base_node/global_costmap/footprint",
                "/robot_1/move_base_node/global_costmap/map_type",
                "/robot_1/move_base_node/global_costmap/robot_radius",
                "/robot_1/move_base_node/global_costmap/robot_base_frame",
                "/robot_1/move_base_node/global_costmap/obstacle_range",
                "/robot_1/move_base_node/global_costmap/global_frame",
                "/robot_1/move_base_node/global_costmap/static_layer/enabled",
                "/robot_1/move_base_node/global_costmap/static_layer/lethal_cost_threshold",
                "/robot_1/move_base_node/global_costmap/obstacle_layer/obstacle_range",
                "/robot_1/move_base_node/global_costmap/obstacle_layer/laser_scan_sensor/marking",
                "/robot_1/move_base_node/global_costmap/obstacle_layer/laser_scan_sensor/min_obstacle_height",
                "/robot_1/move_base_node/global_costmap/obstacle_layer/laser_scan_sensor/data_type",
                "/robot_1/move_base_node/global_costmap/obstacle_layer/laser_scan_sensor/clearing",
                "/robot_1/move_base_node/global_costmap/obstacle_layer/laser_scan_sensor/topic",
                "/robot_1/move_base_node/global_costmap/obstacle_layer/laser_scan_sensor/sensor_frame",
                "/robot_1/move_base_node/global_costmap/obstacle_layer/laser_scan_sensor/max_obstacle_height",
                "/robot_1/move_base_node/global_costmap/obstacle_layer/enabled",
                "/robot_1/move_base_node/global_costmap/obstacle_layer/combination_method",
                "/robot_1/move_base_node/global_costmap/obstacle_layer/raytrace_range",
                "/robot_1/move_base_node/global_costmap/obstacle_layer/footprint_clearing_enabled",
                "/robot_1/move_base_node/global_costmap/obstacle_layer/observation_sources",
                "/robot_1/move_base_node/global_costmap/obstacle_layer/max_obstacle_height",
                "/robot_1/move_base_node/global_costmap/resolution",
                "/robot_1/move_base_node/global_costmap/publish_frequency",
                "/robot_1/move_base_node/shutdown_costmaps",
                "/robot_1/move_base_node/clearing_rotation_allowed",
                "/robot_1/move_base_node/restore_defaults",
                "/robot_1/move_base_node/oscillation_distance",
                "/robot_1/move_base_node/planner_frequency",
                "/robot_1/move_base_node/aggressive_reset/reset_distance",
                "/robot_1/move_base_node/oscillation_timeout",
                "/robot_1/move_base_node/controller_frequency",
                "/robot_1/move_base_node/base_local_planner",
                "/robot_1/move_base_node/recovery_behavior_enabled",
                "/robot_1/move_base_node/planner_patience",
                "/robot_1/move_base_node/TrajectoryPlannerROS/max_vel_theta",
                "/robot_1/move_base_node/TrajectoryPlannerROS/meter_scoring",
                "/robot_1/move_base_node/TrajectoryPlannerROS/vtheta_samples",
                "/robot_1/move_base_node/TrajectoryPlannerROS/min_vel_x",
                "/robot_1/move_base_node/TrajectoryPlannerROS/heading_lookahead",
                "/robot_1/move_base_node/TrajectoryPlannerROS/restore_defaults",
                "/robot_1/move_base_node/TrajectoryPlannerROS/heading_scoring",
                "/robot_1/move_base_node/TrajectoryPlannerROS/min_vel_theta",
                "/robot_1/move_base_node/TrajectoryPlannerROS/yaw_goal_tolerance",
                "/robot_1/move_base_node/TrajectoryPlannerROS/angular_sim_granularity",
                "/robot_1/move_base_node/TrajectoryPlannerROS/holonomic_robot",
                "/robot_1/move_base_node/TrajectoryPlannerROS/acc_lim_x",
                "/robot_1/move_base_node/TrajectoryPlannerROS/acc_lim_y",
                "/robot_1/move_base_node/TrajectoryPlannerROS/heading_scoring_timestep",
                "/robot_1/move_base_node/TrajectoryPlannerROS/clearing_rotation_allowed",
                "/robot_1/move_base_node/TrajectoryPlannerROS/sim_time",
                "/robot_1/move_base_node/TrajectoryPlannerROS/recovery_behavior_enabled",
                "/robot_1/move_base_node/TrajectoryPlannerROS/oscillation_reset_dist",
                "/robot_1/move_base_node/TrajectoryPlannerROS/escape_vel",
                "/robot_1/move_base_node/TrajectoryPlannerROS/y_vels",
                "/robot_1/move_base_node/TrajectoryPlannerROS/simple_attractor",
                "/robot_1/move_base_node/TrajectoryPlannerROS/acc_lim_theta",
                "/robot_1/move_base_node/TrajectoryPlannerROS/min_in_place_vel_theta",
                "/robot_1/move_base_node/TrajectoryPlannerROS/dwa",
                "/robot_1/move_base_node/TrajectoryPlannerROS/gdist_scale",
                "/robot_1/move_base_node/TrajectoryPlannerROS/xy_goal_tolerance",
                "/robot_1/move_base_node/TrajectoryPlannerROS/escape_reset_theta",
                "/robot_1/move_base_node/TrajectoryPlannerROS/occdist_scale",
                "/robot_1/move_base_node/TrajectoryPlannerROS/vx_samples",
                "/robot_1/move_base_node/TrajectoryPlannerROS/pdist_scale",
                "/robot_1/move_base_node/TrajectoryPlannerROS/max_vel_x",
                "/robot_1/move_base_node/TrajectoryPlannerROS/sim_granularity",
                "/robot_1/move_base_node/TrajectoryPlannerROS/escape_reset_dist",
                "/assigner/frontiers_topic",
                "/assigner/delay_after_assignement",
                "/assigner/hysteresis_gain",
                "/assigner/info_multiplier",
                "/assigner/rate",
                "/assigner/hysteresis_radius",
                "/assigner/info_radius",
                "/assigner/map_topic",
                "/assigner/n_robots",
                "/rosversion",
                "/run_id",
                "/local_detector/robot_frame",
                "/local_detector/eta",
                "/local_detector/map_topic",
                "/filter/rate",
                "/filter/info_radius",
                "/filter/costmap_clearing_threshold",
                "/filter/map_topic",
                "/filter/n_robots",
                "/filter/goals_topic",
                "/use_sim_time",
                "/global_detector/eta",
                "/global_detector/map_topic",
                "/rosdistro",
                "/gazebo/gravity_z",
                "/gazebo/cfm",
                "/gazebo/erp",
                "/gazebo/contact_max_correcting_vel",
                "/gazebo/sor_pgs_iters",
                "/gazebo/sor_pgs_precon_iters",
                "/gazebo/auto_disable_bodies",
                "/gazebo/sor_pgs_rms_error_tol",
                "/gazebo/contact_surface_layer",
                "/gazebo/max_update_rate",
                "/gazebo/gravity_x",
                "/gazebo/gravity_y",
                "/gazebo/time_step",
                "/gazebo/max_contacts",
                "/gazebo/sor_pgs_w"
            ]
        }
    },
    "rostopic": {
        "port": "11311",
        "type": "xmlrpc",
        "method": "rostopic",
        "arg": "/rosversion",
        "status": "ok",
        "timestamp": 1515076934,
        "response": {
            "status_code": 1,
            "status_message": "current system state",
            "system_state": {
                "publishers": {
                    "/tf": [
                        "/gazebo"
                    ],
                    "/robot_1/odom": [
                        "/gazebo"
                    ],
                    "/robot_1/base_scan": [
                        "/gazebo"
                    ],
                    "/rosout": [
                        "/gazebo"
                    ],
                    "/robot_1/mobile_base/events/cliff": [
                        "/gazebo"
                    ],
                    "/rosout_agg": [
                        "/rosout"
                    ],
                    "/robot_1/joint_states": [
                        "/gazebo"
                    ],
                    "/robot_1/mobile_base/events/bumper": [
                        "/gazebo"
                    ],
                    "/robot_1/mobile_base/sensors/imu_data": [
                        "/gazebo"
                    ]
                },
                "subscribers": {
                    "/robot_1/mobile_base/commands/reset_odometry": [
                        "/gazebo"
                    ],
                    "/rosout": [
                        "/rosout"
                    ],
                    "/robot_1/mobile_base/commands/motor_power": [
                        "/gazebo"
                    ],
                    "/robot_1/mobile_base/commands/velocity": [
                        "/gazebo"
                    ],
                    "/clock": [
                        "/gazebo"
                    ]
                },
                "services": {
                    "/gazebo/set_logger_level": [
                        "/gazebo"
                    ],
                    "/gazebo/get_loggers": [
                        "/gazebo"
                    ],
                    "/rosout/set_logger_level": [
                        "/rosout"
                    ],
                    "/rosout/get_loggers": [
                        "/rosout"
                    ]
                }
            }
        }
    },
    "rosdescription": {
        "port": "11311",
        "type": "xmlrpc",
        "method": "rosdescription",
        "arg": "/robot_description",
        "status": "ok",
        "timestamp": 1515076936,
        "response": {
            "status_code": -1,
            "status_message": "Parameter [/robot_description] is not set",
            "param": 0
        }
    },
    "query_stats": {
        "param_count": 232,
        "publisher_count": 9,
        "subscriber_count": 5,
        "service_count": 4,
        "term_count": 250,
        "alphaterm_count": 244,
        "topic_count": 18,
        "has_description": false,
        "is_ros": true,
        "roscore_version": "1.12",
        "ros_version_name": "kinetic",
        "missing_term_data": false,
        "roslaunch_machine_hostnames": [
            "yan_system_product_name"
        ],
        "has_hostname": true,
        "machine_hostname": "yan_system_product_name"
    },
    "search_info": {
        "count_control": 0,
        "count_simulators": 2,
        "count_sensors": 4,
        "count_actuators": 0,
        "count_other": 1,
        "count_robot_types": 0,
        "count_targets": 0,
        "total_query_hits": 7
    },
    "search_stats": {
        "control": {},
        "simulators": {
            "sim_any": {
                "param": "not",
                "hit": true,
                "children": [
                    {
                        "param": "and",
                        "hit": false,
                        "children": [
                            {
                                "param": "not",
                                "hit": false,
                                "children": [
                                    {
                                        "param": "gazebo",
                                        "hit": true,
                                        "count": 3,
                                        "matches": [
                                            "/gazebo",
                                            "/gazebo/set_logger_level",
                                            "/gazebo/get_loggers"
                                        ]
                                    }
                                ]
                            },
                            {
                                "param": "not",
                                "hit": true,
                                "children": [
                                    {
                                        "param": "stageros",
                                        "hit": false,
                                        "count": 0,
                                        "matches": []
                                    }
                                ]
                            },
                            {
                                "param": "not",
                                "hit": true,
                                "children": [
                                    {
                                        "param": "simulator",
                                        "hit": false,
                                        "count": 0,
                                        "matches": []
                                    }
                                ]
                            },
                            {
                                "param": "not",
                                "hit": true,
                                "children": [
                                    {
                                        "param": "use_sim_time",
                                        "hit": false,
                                        "count": 0,
                                        "matches": []
                                    }
                                ]
                            },
                            {
                                "param": "not",
                                "hit": true,
                                "children": [
                                    {
                                        "param": "torcs_ros",
                                        "hit": false,
                                        "count": 0,
                                        "matches": []
                                    }
                                ]
                            },
                            {
                                "param": "not",
                                "hit": true,
                                "children": [
                                    {
                                        "param": "unity",
                                        "hit": false,
                                        "count": 0,
                                        "matches": []
                                    }
                                ]
                            },
                            {
                                "param": "not",
                                "hit": true,
                                "children": [
                                    {
                                        "param": "turtlesim",
                                        "hit": false,
                                        "count": 0,
                                        "matches": []
                                    }
                                ]
                            },
                            {
                                "param": "not",
                                "hit": true,
                                "children": [
                                    {
                                        "param": "dreamview",
                                        "hit": false,
                                        "count": 0,
                                        "matches": []
                                    }
                                ]
                            },
                            {
                                "param": "not",
                                "hit": true,
                                "children": [
                                    {
                                        "param": "videofile",
                                        "hit": false,
                                        "count": 0,
                                        "matches": []
                                    }
                                ]
                            },
                            {
                                "param": "not",
                                "hit": true,
                                "children": [
                                    {
                                        "param": "uwsim",
                                        "hit": false,
                                        "count": 0,
                                        "matches": []
                                    }
                                ]
                            },
                            {
                                "param": "not",
                                "hit": true,
                                "children": [
                                    {
                                        "param": "file_player",
                                        "hit": false,
                                        "count": 0,
                                        "matches": []
                                    }
                                ]
                            }
                        ]
                    }
                ]
            },
            "sim_gazebo": {
                "param": "gazebo",
                "hit": true,
                "count": 3,
                "matches": [
                    "/gazebo",
                    "/gazebo/set_logger_level",
                    "/gazebo/get_loggers"
                ]
            }
        },
        "sensors": {
            "imu": {
                "param": "imu",
                "hit": true,
                "count": 1,
                "matches": [
                    "/robot_1/mobile_base/sensors/imu_data"
                ]
            },
            "lidar": {
                "param": "or",
                "hit": true,
                "children": [
                    {
                        "param": "lidar",
                        "hit": false,
                        "count": 0,
                        "matches": []
                    },
                    {
                        "param": "hokuyo",
                        "hit": false,
                        "count": 0,
                        "matches": []
                    },
                    {
                        "param": "scan",
                        "hit": true,
                        "count": 1,
                        "matches": [
                            "/robot_1/base_scan"
                        ]
                    },
                    {
                        "param": "lms511",
                        "hit": false,
                        "count": 0,
                        "matches": []
                    },
                    {
                        "param": "laser_points_pc2",
                        "hit": false,
                        "count": 0,
                        "matches": []
                    }
                ]
            },
            "odometry": {
                "param": "odom",
                "hit": true,
                "count": 1,
                "matches": [
                    "/robot_1/odom"
                ]
            },
            "bumper": {
                "param": "or",
                "hit": true,
                "children": [
                    {
                        "param": "bumper",
                        "hit": true,
                        "count": 1,
                        "matches": [
                            "/robot_1/mobile_base/events/bumper"
                        ]
                    },
                    {
                        "param": "contact",
                        "hit": false,
                        "count": 0,
                        "matches": []
                    }
                ]
            }
        },
        "actuators": {},
        "other": {
            "transform": {
                "param": "or",
                "hit": true,
                "children": [
                    {
                        "param": "tf",
                        "hit": true,
                        "count": 1,
                        "matches": [
                            "/tf"
                        ]
                    },
                    {
                        "param": "tf_static",
                        "hit": false,
                        "count": 0,
                        "matches": []
                    }
                ]
            }
        },
        "robot_types": {},
        "targets": {}
    },
    "inferred_results": {
        "identified_robot": false,
        "only_sim": true,
        "likely_empty": false,
        "only_sensors": false,
        "only_actuators": false,
        "only_services": false,
        "needs_more_info": false,
        "confirmed_ros": true,
        "total_hosts": false,
        "is_unconnectable": false,
        "search_hit_sim": true,
        "has_sensor": true,
        "has_actuator": false,
        "has_hostname": true,
        "missing_term_data": false,
        "has_description": false,
        "has_descr_name": false,
        "has_search_hits": true,
        "manually_tagged": false,
        "search_hit_gazebo": true,
        "likely_non_robot": true
    }
}
