{
    "ip": "166.111.71.80",
    "dns.hostname": "",
    "dns.authority": "dns.edu.cn. szhu.net.tsinghua.edu.cn. 1999121365 28800 7200 604800 86400",
    "geoip.country": "China",
    "geoip.country_code": "CN",
    "geoip.specific_name": "Beijing",
    "geoip.specific_name_code": "11",
    "geoip.latitude": 39.9289,
    "geoip.longitude": 116.3883,
    "geoip.as_number": 4538,
    "geoip.as_organization": "China Education and Research Network Center",
    "shodan.ports": [
        5353
    ],
    "shodan.tags": [],
    "rosversion": {
        "port": "11311",
        "type": "xmlrpc",
        "method": "rosversion",
        "arg": "/rosversion",
        "status": "ok",
        "timestamp": 1514970466,
        "response": {
            "status_code": 1,
            "status_message": "Parameter [/rosversion]",
            "param": "1.11.21\n"
        }
    },
    "rosparamnames": {
        "port": "11311",
        "type": "xmlrpc",
        "method": "rosparamnames",
        "arg": "",
        "status": "ok",
        "timestamp": 1514970468,
        "response": {
            "status_code": 1,
            "status_message": "Parameter names",
            "paramNames": [
                "/roslaunch/uris/host_cscg_4_gpus__34149",
                "/roslaunch/uris/host_cscg_4_gpus__45046",
                "/roslaunch/uris/host_cscg_4_gpus__41402",
                "/roslaunch/uris/host_cscg_4_gpus__41415",
                "/scale_linear",
                "/turtle1_tf_broadcaster/turtle",
                "/rosversion",
                "/run_id",
                "/background_g",
                "/background_b",
                "/scale_angular",
                "/turtle2_tf_broadcaster/turtle",
                "/rosdistro",
                "/background_r"
            ]
        }
    },
    "rostopic": {
        "port": "11311",
        "type": "xmlrpc",
        "method": "rostopic",
        "arg": "/rosversion",
        "status": "ok",
        "timestamp": 1514970471,
        "response": {
            "status_code": 1,
            "status_message": "current system state",
            "system_state": {
                "publishers": {
                    "/move_base_simple/goal": [
                        "/rviz_1514969481422053167"
                    ],
                    "/rosout": [
                        "/rviz_1514969481422053167"
                    ],
                    "/clicked_point": [
                        "/rviz_1514969481422053167"
                    ],
                    "/initialpose": [
                        "/rviz_1514969481422053167"
                    ],
                    "/rosout_agg": [
                        "/rosout"
                    ]
                },
                "subscribers": {
                    "/tf_static": [
                        "/rviz_1514969481422053167"
                    ],
                    "/rosout": [
                        "/rosout"
                    ],
                    "/tf": [
                        "/rviz_1514969481422053167"
                    ]
                },
                "services": {
                    "/rviz_1514969481422053167/set_logger_level": [
                        "/rviz_1514969481422053167"
                    ],
                    "/rviz_1514969481422053167/reload_shaders": [
                        "/rviz_1514969481422053167"
                    ],
                    "/rosout/get_loggers": [
                        "/rosout"
                    ],
                    "/rviz_1514969481422053167/get_loggers": [
                        "/rviz_1514969481422053167"
                    ],
                    "/rosout/set_logger_level": [
                        "/rosout"
                    ]
                }
            }
        }
    },
    "rosdescription": {
        "port": "11311",
        "type": "xmlrpc",
        "method": "rosdescription",
        "arg": "/robot_description",
        "status": "ok",
        "timestamp": 1514970473,
        "response": {
            "status_code": -1,
            "status_message": "Parameter [/robot_description] is not set",
            "param": 0
        }
    },
    "query_stats": {
        "param_count": 14,
        "publisher_count": 5,
        "subscriber_count": 3,
        "service_count": 5,
        "term_count": 27,
        "alphaterm_count": 23,
        "topic_count": 13,
        "has_description": false,
        "is_ros": true,
        "roscore_version": "1.11",
        "ros_version_name": "indigo",
        "missing_term_data": false,
        "roslaunch_machine_hostnames": [
            "cscg_4_gpus"
        ],
        "has_hostname": true,
        "machine_hostname": "cscg_4_gpus"
    },
    "search_info": {
        "count_control": 0,
        "count_simulators": 0,
        "count_sensors": 0,
        "count_actuators": 0,
        "count_other": 2,
        "count_robot_types": 0,
        "count_targets": 0,
        "total_query_hits": 2
    },
    "search_stats": {
        "control": {},
        "simulators": {},
        "sensors": {},
        "actuators": {},
        "other": {
            "rviz": {
                "param": "rviz",
                "hit": true,
                "count": 4,
                "matches": [
                    "/rviz_1514969481422053167/set_logger_level",
                    "/rviz_1514969481422053167/get_loggers",
                    "/rviz_1514969481422053167",
                    "/rviz_1514969481422053167/reload_shaders"
                ]
            },
            "transform": {
                "param": "or",
                "hit": true,
                "children": [
                    {
                        "param": "tf",
                        "hit": true,
                        "count": 2,
                        "matches": [
                            "/tf",
                            "/tf_static"
                        ]
                    },
                    {
                        "param": "tf_static",
                        "hit": true,
                        "count": 1,
                        "matches": [
                            "/tf_static"
                        ]
                    }
                ]
            }
        },
        "robot_types": {},
        "targets": {}
    },
    "inferred_results": {
        "identified_robot": false,
        "only_sim": false,
        "likely_empty": false,
        "only_sensors": false,
        "only_actuators": false,
        "only_services": true,
        "needs_more_info": false,
        "confirmed_ros": true,
        "total_hosts": false,
        "is_unconnectable": false,
        "search_hit_sim": false,
        "has_sensor": false,
        "has_actuator": false,
        "has_hostname": true,
        "missing_term_data": false,
        "has_description": false,
        "has_descr_name": false,
        "has_search_hits": true,
        "manually_tagged": false,
        "search_hit_gazebo": false,
        "likely_non_robot": false
    }
}
