{
    "ip": "141.223.198.68",
    "dns.hostname": "",
    "dns.authority": "ns.postech.ac.kr. domain.postech.ac.kr. 2017122204 10800 3600 604800 3600",
    "geoip.country": "Republic of Korea",
    "geoip.country_code": "KR",
    "geoip.specific_name": "Gyeongsangbuk-do",
    "geoip.specific_name_code": "47",
    "geoip.latitude": 36.0322,
    "geoip.longitude": 129.365,
    "geoip.as_number": 3784,
    "geoip.as_organization": "Pohang University of Science and Technology",
    "shodan.ports": [
        5353,
        5900
    ],
    "shodan.tags": [],
    "rosversion": {
        "port": "11311",
        "type": "xmlrpc",
        "method": "rosversion",
        "arg": "/rosversion",
        "status": "ok",
        "timestamp": 1515069704,
        "response": {
            "status_code": 1,
            "status_message": "Parameter [/rosversion]",
            "param": "1.12.7\n"
        }
    },
    "rosparamnames": {
        "port": "11311",
        "type": "xmlrpc",
        "method": "rosparamnames",
        "arg": "",
        "status": "ok",
        "timestamp": 1515069707,
        "response": {
            "status_code": 1,
            "status_message": "Parameter names",
            "paramNames": [
                "/roslaunch/uris/host_klauski_workstation0__33639",
                "/rosdistro",
                "/rosversion",
                "/run_id"
            ]
        }
    },
    "rostopic": {
        "port": "11311",
        "type": "xmlrpc",
        "method": "rostopic",
        "arg": "/rosversion",
        "status": "ok",
        "timestamp": 1515069709,
        "response": {
            "status_code": 1,
            "status_message": "current system state",
            "system_state": {
                "publishers": {
                    "/rosout": [
                        "/play_1512513290616521607"
                    ],
                    "/rosout_agg": [
                        "/rosout"
                    ],
                    "/clock": [
                        "/play_1512513290616521607"
                    ]
                },
                "subscribers": {
                    "/rosout": [
                        "/rosout"
                    ]
                },
                "services": {
                    "/play_1512513290616521607/get_loggers": [
                        "/play_1512513290616521607"
                    ],
                    "/play_1512513290616521607/set_logger_level": [
                        "/play_1512513290616521607"
                    ],
                    "/rosout/get_loggers": [
                        "/rosout"
                    ],
                    "/play_1512513290616521607/pause_playback": [
                        "/play_1512513290616521607"
                    ],
                    "/rosout/set_logger_level": [
                        "/rosout"
                    ]
                }
            }
        }
    },
    "rosdescription": {
        "port": "11311",
        "type": "xmlrpc",
        "method": "rosdescription",
        "arg": "/robot_description",
        "status": "ok",
        "timestamp": 1515069712,
        "response": {
            "status_code": -1,
            "status_message": "Parameter [/robot_description] is not set",
            "param": 0
        }
    },
    "query_stats": {
        "param_count": 4,
        "publisher_count": 3,
        "subscriber_count": 1,
        "service_count": 5,
        "term_count": 13,
        "alphaterm_count": 13,
        "topic_count": 9,
        "has_description": false,
        "is_ros": true,
        "roscore_version": "1.12",
        "ros_version_name": "kinetic",
        "missing_term_data": false,
        "roslaunch_machine_hostnames": [
            "klauski_workstation0"
        ],
        "has_hostname": true,
        "machine_hostname": "klauski_workstation0"
    },
    "search_info": {
        "count_control": 0,
        "count_simulators": 0,
        "count_sensors": 0,
        "count_actuators": 0,
        "count_other": 0,
        "count_robot_types": 0,
        "count_targets": 0,
        "total_query_hits": 0
    },
    "search_stats": {
        "control": {},
        "simulators": {},
        "sensors": {},
        "actuators": {},
        "other": {},
        "robot_types": {},
        "targets": {}
    },
    "inferred_results": {
        "identified_robot": false,
        "only_sim": false,
        "likely_empty": false,
        "only_sensors": false,
        "only_actuators": false,
        "only_services": false,
        "needs_more_info": true,
        "confirmed_ros": true,
        "total_hosts": false,
        "is_unconnectable": false,
        "search_hit_sim": false,
        "has_sensor": false,
        "has_actuator": false,
        "has_hostname": true,
        "missing_term_data": false,
        "has_description": false,
        "has_descr_name": false,
        "has_search_hits": false,
        "manually_tagged": false,
        "search_hit_gazebo": false,
        "likely_non_robot": false
    }
}
