{
    "ip": "143.89.78.38",
    "dns.hostname": "",
    "dns.authority": "ustsu1.ust.hk. postmaster.ust.hk. 2018011000 3600 1200 604800 3600",
    "geoip.country": "Hong Kong",
    "geoip.country_code": "HK",
    "geoip.specific_name": null,
    "geoip.specific_name_code": null,
    "geoip.latitude": 22.2833,
    "geoip.longitude": 114.15,
    "geoip.as_number": 3363,
    "geoip.as_organization": "Hong Kong University of Science and Technology",
    "shodan.ports": "",
    "shodan.tags": "",
    "rosversion": {
        "port": "11311",
        "type": "xmlrpc",
        "method": "rosversion",
        "arg": "/rosversion",
        "status": "ok",
        "timestamp": 1515614569,
        "response": {
            "status_code": 1,
            "status_message": "Parameter [/rosversion]",
            "param": "1.11.21\n"
        }
    },
    "rosparamnames": {
        "port": "11311",
        "type": "xmlrpc",
        "method": "rosparamnames",
        "arg": "",
        "status": "ok",
        "timestamp": 1515614572,
        "response": {
            "status_code": 1,
            "status_message": "Parameter names",
            "paramNames": [
                "/roslaunch/uris/host_adam_pc__36669",
                "/roslaunch/uris/host_adam_pc__38592",
                "/roslaunch/uris/host_adam_pc__42481",
                "/roslaunch/uris/host_adam_pc__43269",
                "/roslaunch/uris/host_adam_pc__41087",
                "/roslaunch/uris/host_adam_pc__40482",
                "/roslaunch/uris/host_adam_pc__41185",
                "/roslaunch/uris/host_adam_pc__42139",
                "/roslaunch/uris/host_adam_pc__35557",
                "/roslaunch/uris/host_adam_pc__36283",
                "/roslaunch/uris/host_adam_pc__45685",
                "/roslaunch/uris/host_adam_pc__41122",
                "/roslaunch/uris/host_adam_pc__42393",
                "/roslaunch/uris/host_adam_pc__44238",
                "/roslaunch/uris/host_adam_pc__44014",
                "/roslaunch/uris/host_adam_pc__43921",
                "/roslaunch/uris/host_adam_pc__39611",
                "/roslaunch/uris/host_adam_pc__39891",
                "/rosdistro",
                "/mapper/odom_frame",
                "/mapper/maxOverlapToMerge",
                "/mapper/subscribe_scan",
                "/mapper/map_frame",
                "/mapper/icpConfig",
                "/mapper/minOverlap",
                "/mapper/mapPostFiltersConfig",
                "/mapper/minMapPointCount",
                "/mapper/useROSLogger",
                "/mapper/inputFiltersConfig",
                "/rosversion",
                "/run_id"
            ]
        }
    },
    "rostopic": {
        "port": "11311",
        "type": "xmlrpc",
        "method": "rostopic",
        "arg": "/rosversion",
        "status": "ok",
        "timestamp": 1515614574,
        "response": {
            "status_code": 1,
            "status_message": "current system state",
            "system_state": {
                "publishers": {
                    "/trp_as/feedback": [
                        "/replanner"
                    ],
                    "/trp_as/status": [
                        "/replanner"
                    ],
                    "/private/nav/cmd_vel": [
                        "/replanner"
                    ],
                    "/trp_as/goal": [
                        "/replanner"
                    ],
                    "/trp/marker": [
                        "/replanner"
                    ],
                    "/posture_cmd": [
                        "/replanner"
                    ],
                    "/rosout": [
                        "/replanner"
                    ],
                    "/replanned_path": [
                        "/replanner"
                    ],
                    "/rosout_agg": [
                        "/rosout"
                    ],
                    "/trp_as/result": [
                        "/replanner"
                    ],
                    "/planned_path": [
                        "/replanner"
                    ],
                    "/trp/marker_array": [
                        "/replanner"
                    ]
                },
                "subscribers": {
                    "/trp_as/goal": [
                        "/replanner"
                    ],
                    "/trp_as/cancel": [
                        "/replanner"
                    ],
                    "/simple_goal": [
                        "/replanner"
                    ],
                    "/simple_cancel": [
                        "/replanner"
                    ],
                    "/rosout": [
                        "/rosout"
                    ],
                    "/tf": [
                        "/replanner"
                    ],
                    "/tf_static": [
                        "/replanner"
                    ]
                },
                "services": {
                    "/set_goal": [
                        "/replanner"
                    ],
                    "/replanner/set_logger_level": [
                        "/replanner"
                    ],
                    "/execute_plan": [
                        "/replanner"
                    ],
                    "/serialization": [
                        "/replanner"
                    ],
                    "/replanner/get_loggers": [
                        "/replanner"
                    ],
                    "/rosout/set_logger_level": [
                        "/rosout"
                    ],
                    "/rosout/get_loggers": [
                        "/rosout"
                    ],
                    "/call_global_map": [
                        "/replanner"
                    ],
                    "/compute_plan": [
                        "/replanner"
                    ]
                }
            }
        }
    },
    "rosdescription": {
        "port": "11311",
        "type": "xmlrpc",
        "method": "rosdescription",
        "arg": "/robot_description",
        "status": "ok",
        "timestamp": 1515614577,
        "response": {
            "status_code": -1,
            "status_message": "Parameter [/robot_description] is not set",
            "param": 0
        }
    },
    "query_stats": {
        "param_count": 31,
        "publisher_count": 12,
        "subscriber_count": 7,
        "service_count": 9,
        "term_count": 58,
        "alphaterm_count": 41,
        "topic_count": 27,
        "has_description": false,
        "is_ros": true,
        "roscore_version": "1.11",
        "ros_version_name": "indigo",
        "missing_term_data": false,
        "roslaunch_machine_hostnames": [
            "adam_pc"
        ],
        "has_hostname": true,
        "machine_hostname": "adam_pc"
    },
    "search_info": {
        "count_control": 0,
        "count_simulators": 0,
        "count_sensors": 0,
        "count_actuators": 1,
        "count_other": 1,
        "count_robot_types": 0,
        "count_targets": 1,
        "total_query_hits": 3
    },
    "search_stats": {
        "control": {},
        "simulators": {},
        "sensors": {},
        "actuators": {
            "cmd_vel": {
                "param": "cmd_vel",
                "hit": true,
                "count": 1,
                "matches": [
                    "/private/nav/cmd_vel"
                ]
            }
        },
        "other": {
            "transform": {
                "param": "or",
                "hit": true,
                "children": [
                    {
                        "param": "tf",
                        "hit": true,
                        "count": 2,
                        "matches": [
                            "/tf_static",
                            "/tf"
                        ]
                    },
                    {
                        "param": "tf_static",
                        "hit": true,
                        "count": 1,
                        "matches": [
                            "/tf_static"
                        ]
                    }
                ]
            }
        },
        "robot_types": {},
        "targets": {
            "map": {
                "param": "map",
                "hit": true,
                "count": 1,
                "matches": [
                    "/call_global_map"
                ]
            }
        }
    },
    "inferred_results": {
        "identified_robot": false,
        "only_sim": false,
        "likely_empty": false,
        "only_sensors": false,
        "only_actuators": true,
        "only_services": false,
        "needs_more_info": false,
        "confirmed_ros": true,
        "total_hosts": false,
        "is_unconnectable": false,
        "search_hit_sim": false,
        "has_sensor": false,
        "has_actuator": true,
        "has_hostname": true,
        "missing_term_data": false,
        "has_description": false,
        "has_descr_name": false,
        "has_search_hits": true,
        "manually_tagged": false,
        "search_hit_gazebo": false,
        "likely_non_robot": false
    }
}
