{
    "ip": "91.117.125.88",
    "dns.hostname": "88.125.117.91.static.reverse-mundo-r.com",
    "dns.authority": "ns-cor.net.mundo-r.com. hostmaster.mundo-r.com. 2017052901 28800 7200 604800 86400",
    "geoip.country": "Spain",
    "geoip.country_code": "ES",
    "geoip.specific_name": "A Coru\u00f1a",
    "geoip.specific_name_code": "C",
    "geoip.latitude": 42.7629,
    "geoip.longitude": -8.7053,
    "geoip.as_number": 12334,
    "geoip.as_organization": "R Cable y Telecomunicaciones Galicia, S.A.",
    "shodan.ports": [
        179
    ],
    "shodan.tags": [],
    "rosversion": {
        "port": "11311",
        "type": "xmlrpc",
        "method": "rosversion",
        "arg": "/rosversion",
        "status": "ok",
        "timestamp": 1515546349,
        "response": {
            "status_code": 1,
            "status_message": "Parameter [/rosversion]",
            "param": "1.11.21\n"
        }
    },
    "rosparamnames": {
        "port": "11311",
        "type": "xmlrpc",
        "method": "rosparamnames",
        "arg": "",
        "status": "ok",
        "timestamp": 1515546351,
        "response": {
            "status_code": 1,
            "status_message": "Parameter names",
            "paramNames": [
                "/script_server/arm/folded",
                "/script_server/arm/wave",
                "/script_server/arm/home",
                "/script_server/arm/waveright",
                "/script_server/arm/waveleft",
                "/script_server/arm/joint_names",
                "/arm_2_joint_controller_vel/joint",
                "/arm_2_joint_controller_vel/type",
                "/ft45/gravity_cg",
                "/run_id",
                "/arm_5_joint_controller_vel/joint",
                "/arm_5_joint_controller_vel/type",
                "/arm_4_joint_controller_pos/joint",
                "/arm_4_joint_controller_pos/type",
                "/arm_4_joint_controller_vel/joint",
                "/arm_4_joint_controller_vel/type",
                "/warehouse_exec",
                "/mnl/control_mode",
                "/mnl/period",
                "/mnl/sim",
                "/angular_step",
                "/arm_5_joint_controller_pos/joint",
                "/arm_5_joint_controller_pos/type",
                "/robot_description_semantic",
                "/arm_3_joint_controller_pos/joint",
                "/arm_3_joint_controller_pos/type",
                "/warehouse_port",
                "/arm_1_joint_controller_vel/joint",
                "/arm_1_joint_controller_vel/type",
                "/arm_2_joint_controller_pos/joint",
                "/arm_2_joint_controller_pos/type",
                "/arm/links/positions/y",
                "/arm/links/positions/x",
                "/arm/links/positions/z",
                "/arm/links/torques/y",
                "/arm/links/torques/x",
                "/arm/links/torques/z",
                "/arm/links/masses/values",
                "/arm/links/masses/centers/y",
                "/arm/links/masses/centers/x",
                "/arm/links/masses/centers/z",
                "/arm/links/inertias/ixz",
                "/arm/links/inertias/ixx",
                "/arm/links/inertias/ixy",
                "/arm/links/inertias/izz",
                "/arm/links/inertias/iyy",
                "/arm/links/inertias/iyz",
                "/arm/links/forces/y",
                "/arm/links/forces/x",
                "/arm/links/forces/z",
                "/arm/dex_limits",
                "/arm/pid/ki",
                "/arm/pid/kp",
                "/arm/pid/int_max",
                "/arm/pid/int_min",
                "/arm/pid/kd",
                "/arm/max_accelerations",
                "/arm/lev_safe_positions",
                "/arm/hand_offset",
                "/arm/left_tool",
                "/arm/dex_min_positions",
                "/arm/max_positions",
                "/arm/min_positions",
                "/arm/lev_max_positions",
                "/arm/home_positions",
                "/arm/offsets",
                "/arm/rotations",
                "/arm/lev_limits",
                "/arm/left_reference",
                "/arm/lev_positions",
                "/arm/dex_safe_positions",
                "/arm/dex_positions",
                "/arm/sensor_inverted",
                "/arm/joint_names",
                "/arm/max_velocities",
                "/arm/right_tool",
                "/arm/frictions",
                "/arm/links_limits",
                "/arm/right_reference",
                "/arm/dex_max_positions",
                "/arm/inertias",
                "/arm/lev_min_positions",
                "/robot_description_kinematics/manipulator/kinematics_solver_timeout",
                "/robot_description_kinematics/manipulator/kinematics_solver_search_resolution",
                "/robot_description_kinematics/manipulator/kinematics_solver",
                "/robot_description_kinematics/manipulator/kinematics_solver_attempts",
                "/robot_description",
                "/arm_6_joint_controller_vel/joint",
                "/arm_6_joint_controller_vel/type",
                "/arm_3_joint_controller_vel/joint",
                "/arm_3_joint_controller_vel/type",
                "/arm_6_joint_controller_pos/joint",
                "/arm_6_joint_controller_pos/type",
                "/ftm/calibration_mz",
                "/ftm/calibration_mx",
                "/ftm/calibration_my",
                "/ftm/calibration_fz",
                "/ftm/calibration_fy",
                "/ftm/calibration_fx",
                "/move_group/max_range",
                "/move_group/manipulator/projection_evaluator",
                "/move_group/manipulator/longest_valid_segment_fraction",
                "/move_group/manipulator/planner_configs",
                "/move_group/octomap_resolution",
                "/move_group/controller_manager_name",
                "/move_group/allow_trajectory_execution",
                "/move_group/request_adapters",
                "/move_group/plan_execution/record_trajectory_state_frequency",
                "/move_group/plan_execution/max_replan_attempts",
                "/move_group/moveit_manage_controllers",
                "/move_group/max_safe_path_cost",
                "/move_group/start_state_max_bounds_error",
                "/move_group/ompl/minimum_waypoint_count",
                "/move_group/ompl/link_for_exploration_tree",
                "/move_group/ompl/simplify_solutions",
                "/move_group/ompl/maximum_waypoint_distance",
                "/move_group/ompl/display_random_valid_states",
                "/move_group/moveit_controller_manager",
                "/move_group/planning_scene_monitor/publish_transforms_updates",
                "/move_group/planning_scene_monitor/publish_geometry_updates",
                "/move_group/planning_scene_monitor/publish_planning_scene",
                "/move_group/planning_scene_monitor/publish_state_updates",
                "/move_group/planning_scene_monitor/publish_planning_scene_hz",
                "/move_group/controller_list",
                "/move_group/controller_manager_ns",
                "/move_group/use_controller_manager",
                "/move_group/planner_configs/PRMstarkConfigDefault/type",
                "/move_group/planner_configs/LBKPIECEkConfigDefault/border_fraction",
                "/move_group/planner_configs/LBKPIECEkConfigDefault/range",
                "/move_group/planner_configs/LBKPIECEkConfigDefault/min_valid_path_fraction",
                "/move_group/planner_configs/LBKPIECEkConfigDefault/type",
                "/move_group/planner_configs/BKPIECEkConfigDefault/border_fraction",
                "/move_group/planner_configs/BKPIECEkConfigDefault/range",
                "/move_group/planner_configs/BKPIECEkConfigDefault/min_valid_path_fraction",
                "/move_group/planner_configs/BKPIECEkConfigDefault/type",
                "/move_group/planner_configs/BKPIECEkConfigDefault/failed_expansion_score_factor",
                "/move_group/planner_configs/ESTkConfigDefault/range",
                "/move_group/planner_configs/ESTkConfigDefault/type",
                "/move_group/planner_configs/ESTkConfigDefault/goal_bias",
                "/move_group/planner_configs/RRTstarkConfigDefault/range",
                "/move_group/planner_configs/RRTstarkConfigDefault/delay_collision_checking",
                "/move_group/planner_configs/RRTstarkConfigDefault/type",
                "/move_group/planner_configs/RRTstarkConfigDefault/goal_bias",
                "/move_group/planner_configs/SBLkConfigDefault/range",
                "/move_group/planner_configs/SBLkConfigDefault/type",
                "/move_group/planner_configs/RRTkConfigDefault/goal_bias",
                "/move_group/planner_configs/RRTkConfigDefault/type",
                "/move_group/planner_configs/RRTkConfigDefault/range",
                "/move_group/planner_configs/PRMkConfigDefault/max_nearest_neighbors",
                "/move_group/planner_configs/PRMkConfigDefault/type",
                "/move_group/planner_configs/TRRTkConfigDefault/init_temperature",
                "/move_group/planner_configs/TRRTkConfigDefault/temp_change_factor",
                "/move_group/planner_configs/TRRTkConfigDefault/type",
                "/move_group/planner_configs/TRRTkConfigDefault/frountier_threshold",
                "/move_group/planner_configs/TRRTkConfigDefault/range",
                "/move_group/planner_configs/TRRTkConfigDefault/max_states_failed",
                "/move_group/planner_configs/TRRTkConfigDefault/k_constant",
                "/move_group/planner_configs/TRRTkConfigDefault/goal_bias",
                "/move_group/planner_configs/TRRTkConfigDefault/min_temperature",
                "/move_group/planner_configs/TRRTkConfigDefault/frountierNodeRatio",
                "/move_group/planner_configs/KPIECEkConfigDefault/border_fraction",
                "/move_group/planner_configs/KPIECEkConfigDefault/range",
                "/move_group/planner_configs/KPIECEkConfigDefault/failed_expansion_score_factor",
                "/move_group/planner_configs/KPIECEkConfigDefault/goal_bias",
                "/move_group/planner_configs/KPIECEkConfigDefault/min_valid_path_fraction",
                "/move_group/planner_configs/KPIECEkConfigDefault/type",
                "/move_group/planner_configs/RRTConnectkConfigDefault/range",
                "/move_group/planner_configs/RRTConnectkConfigDefault/type",
                "/move_group/planning_plugin",
                "/move_group/trajectory_execution/execution_velocity_scaling",
                "/move_group/trajectory_execution/allowed_execution_duration_scaling",
                "/move_group/trajectory_execution/execution_duration_monitoring",
                "/move_group/trajectory_execution/allowed_start_tolerance",
                "/move_group/trajectory_execution/allowed_goal_duration_margin",
                "/move_group/sense_for_plan/max_cost_sources",
                "/move_group/sense_for_plan/max_look_attempts",
                "/move_group/sense_for_plan/discard_overlapping_cost_sources",
                "/move_group/sense_for_plan/max_safe_path_cost",
                "/move_group/jiggle_fraction",
                "/tool/weight_c_y",
                "/tool/weight_c_x",
                "/tool/weight",
                "/tool/weight_c_z",
                "/linear_step",
                "/warehouse_host",
                "/use_sim_time",
                "/joint_state_controller/type",
                "/joint_state_controller/publish_rate",
                "/arm_controller/action_monitor_rate",
                "/arm_controller/joints",
                "/arm_controller/state_publish_rate",
                "/arm_controller/stop_trajectory_duration",
                "/arm_controller/type",
                "/arm_controller/constraints/goal_time",
                "/roslaunch/uris/host_192_168_96_69__40169",
                "/roslaunch/uris/host_192_168_96_69__40514",
                "/rosversion",
                "/arm_controller_vel/action_monitor_rate",
                "/arm_controller_vel/joints",
                "/arm_controller_vel/state_publish_rate",
                "/arm_controller_vel/stop_trajectory_duration",
                "/arm_controller_vel/constraints/goal_time",
                "/arm_controller_vel/type",
                "/arm_controller_vel/gains/arm_1_joint/i",
                "/arm_controller_vel/gains/arm_1_joint/p",
                "/arm_controller_vel/gains/arm_1_joint/d",
                "/arm_controller_vel/gains/arm_1_joint/i_clamp",
                "/arm_controller_vel/gains/arm_2_joint/i",
                "/arm_controller_vel/gains/arm_2_joint/p",
                "/arm_controller_vel/gains/arm_2_joint/d",
                "/arm_controller_vel/gains/arm_2_joint/i_clamp",
                "/arm_controller_vel/gains/arm_3_joint/i",
                "/arm_controller_vel/gains/arm_3_joint/p",
                "/arm_controller_vel/gains/arm_3_joint/d",
                "/arm_controller_vel/gains/arm_3_joint/i_clamp",
                "/arm_controller_vel/gains/arm_6_joint/i",
                "/arm_controller_vel/gains/arm_6_joint/p",
                "/arm_controller_vel/gains/arm_6_joint/d",
                "/arm_controller_vel/gains/arm_6_joint/i_clamp",
                "/arm_controller_vel/gains/arm_4_joint/i",
                "/arm_controller_vel/gains/arm_4_joint/p",
                "/arm_controller_vel/gains/arm_4_joint/d",
                "/arm_controller_vel/gains/arm_4_joint/i_clamp",
                "/arm_controller_vel/gains/arm_5_joint/i",
                "/arm_controller_vel/gains/arm_5_joint/p",
                "/arm_controller_vel/gains/arm_5_joint/d",
                "/arm_controller_vel/gains/arm_5_joint/i_clamp",
                "/gazebo/gravity_z",
                "/gazebo/cfm",
                "/gazebo/erp",
                "/gazebo/contact_max_correcting_vel",
                "/gazebo/sor_pgs_iters",
                "/gazebo/sor_pgs_precon_iters",
                "/gazebo/auto_disable_bodies",
                "/gazebo/sor_pgs_rms_error_tol",
                "/gazebo/contact_surface_layer",
                "/gazebo/max_update_rate",
                "/gazebo/gravity_x",
                "/gazebo/gravity_y",
                "/gazebo/time_step",
                "/gazebo/max_contacts",
                "/gazebo/sor_pgs_w",
                "/arm_1_joint_controller_pos/joint",
                "/arm_1_joint_controller_pos/type",
                "/robot_description_planning/joint_limits/arm_1_joint/max_velocity",
                "/robot_description_planning/joint_limits/arm_1_joint/has_acceleration_limits",
                "/robot_description_planning/joint_limits/arm_1_joint/has_velocity_limits",
                "/robot_description_planning/joint_limits/arm_1_joint/max_acceleration",
                "/robot_description_planning/joint_limits/arm_2_joint/max_velocity",
                "/robot_description_planning/joint_limits/arm_2_joint/has_acceleration_limits",
                "/robot_description_planning/joint_limits/arm_2_joint/has_velocity_limits",
                "/robot_description_planning/joint_limits/arm_2_joint/max_acceleration",
                "/robot_description_planning/joint_limits/arm_3_joint/max_velocity",
                "/robot_description_planning/joint_limits/arm_3_joint/has_acceleration_limits",
                "/robot_description_planning/joint_limits/arm_3_joint/has_velocity_limits",
                "/robot_description_planning/joint_limits/arm_3_joint/max_acceleration",
                "/robot_description_planning/joint_limits/arm_6_joint/max_velocity",
                "/robot_description_planning/joint_limits/arm_6_joint/has_acceleration_limits",
                "/robot_description_planning/joint_limits/arm_6_joint/has_velocity_limits",
                "/robot_description_planning/joint_limits/arm_6_joint/max_acceleration",
                "/robot_description_planning/joint_limits/arm_4_joint/max_velocity",
                "/robot_description_planning/joint_limits/arm_4_joint/has_acceleration_limits",
                "/robot_description_planning/joint_limits/arm_4_joint/has_velocity_limits",
                "/robot_description_planning/joint_limits/arm_4_joint/max_acceleration",
                "/robot_description_planning/joint_limits/arm_5_joint/max_velocity",
                "/robot_description_planning/joint_limits/arm_5_joint/has_acceleration_limits",
                "/robot_description_planning/joint_limits/arm_5_joint/has_velocity_limits",
                "/robot_description_planning/joint_limits/arm_5_joint/max_acceleration",
                "/mongo_wrapper_ros_administrador_All_Series_17731_890987474976385753/database_path",
                "/mongo_wrapper_ros_administrador_All_Series_17731_890987474976385753/overwrite",
                "/move_relative",
                "/rosdistro",
                "/arm_controller_eff/gains/arm_1_joint/i",
                "/arm_controller_eff/gains/arm_1_joint/p",
                "/arm_controller_eff/gains/arm_1_joint/d",
                "/arm_controller_eff/gains/arm_1_joint/i_clamp",
                "/arm_controller_eff/gains/arm_2_joint/i",
                "/arm_controller_eff/gains/arm_2_joint/p",
                "/arm_controller_eff/gains/arm_2_joint/d",
                "/arm_controller_eff/gains/arm_2_joint/i_clamp",
                "/arm_controller_eff/gains/arm_3_joint/i",
                "/arm_controller_eff/gains/arm_3_joint/p",
                "/arm_controller_eff/gains/arm_3_joint/d",
                "/arm_controller_eff/gains/arm_3_joint/i_clamp",
                "/arm_controller_eff/gains/arm_6_joint/i",
                "/arm_controller_eff/gains/arm_6_joint/p",
                "/arm_controller_eff/gains/arm_6_joint/d",
                "/arm_controller_eff/gains/arm_6_joint/i_clamp",
                "/arm_controller_eff/gains/arm_4_joint/i",
                "/arm_controller_eff/gains/arm_4_joint/p",
                "/arm_controller_eff/gains/arm_4_joint/d",
                "/arm_controller_eff/gains/arm_4_joint/i_clamp",
                "/arm_controller_eff/gains/arm_5_joint/i",
                "/arm_controller_eff/gains/arm_5_joint/p",
                "/arm_controller_eff/gains/arm_5_joint/d",
                "/arm_controller_eff/gains/arm_5_joint/i_clamp",
                "/arm_controller_eff/joints",
                "/arm_controller_eff/state_publish_rate",
                "/arm_controller_eff/stop_trajectory_duration",
                "/arm_controller_eff/action_monitor_rate",
                "/arm_controller_eff/type",
                "/arm_controller_eff/constraints/goal_time"
            ]
        }
    },
    "rostopic": {
        "port": "11311",
        "type": "xmlrpc",
        "method": "rostopic",
        "arg": "/rosversion",
        "status": "ok",
        "timestamp": 1515546354,
        "response": {
            "status_code": 1,
            "status_message": "current system state",
            "system_state": {
                "publishers": {
                    "/fisiorob/arm/mode/status": [
                        "/fsr_controller"
                    ],
                    "/move_group/sense_for_plan/parameter_updates": [
                        "/move_group"
                    ],
                    "/fisiorob/arm_config": [
                        "/fsr_controller"
                    ],
                    "/move_group/planning_scene_monitor/parameter_updates": [
                        "/move_group"
                    ],
                    "/pickup/result": [
                        "/move_group"
                    ],
                    "/place/result": [
                        "/move_group"
                    ],
                    "/tf": [
                        "/robot_state_publisher"
                    ],
                    "/pickup/goal": [
                        "/fsr_controller",
                        "/ftm_simulated"
                    ],
                    "/arm_controller/follow_joint_trajectory/goal": [
                        "/fsr_controller"
                    ],
                    "/move_group/trajectory_execution/parameter_descriptions": [
                        "/move_group"
                    ],
                    "/move_group/display_planned_path": [
                        "/move_group"
                    ],
                    "/execute_trajectory/cancel": [
                        "/fsr_controller",
                        "/ftm_simulated"
                    ],
                    "/move_group/goal": [
                        "/fsr_controller",
                        "/ftm_simulated"
                    ],
                    "/execute_trajectory/goal": [
                        "/fsr_controller",
                        "/ftm_simulated"
                    ],
                    "/arm_controller/follow_joint_trajectory/feedback": [
                        "/gazebo"
                    ],
                    "/move_group/ompl/parameter_updates": [
                        "/move_group"
                    ],
                    "/execute_trajectory/result": [
                        "/move_group"
                    ],
                    "/tf_static": [
                        "/robot_state_publisher"
                    ],
                    "/move_group/monitored_planning_scene": [
                        "/move_group"
                    ],
                    "/move_group/trajectory_execution/parameter_updates": [
                        "/move_group"
                    ],
                    "/gazebo/parameter_descriptions": [
                        "/gazebo"
                    ],
                    "/place/feedback": [
                        "/move_group"
                    ],
                    "/attached_collision_object": [
                        "/fsr_controller",
                        "/ftm_simulated"
                    ],
                    "/pickup/feedback": [
                        "/move_group"
                    ],
                    "/move_group/cancel": [
                        "/fsr_controller",
                        "/ftm_simulated"
                    ],
                    "/pickup/status": [
                        "/move_group"
                    ],
                    "/place/status": [
                        "/move_group"
                    ],
                    "/fsr_controller/manual_mode/state": [
                        "/fsr_controller"
                    ],
                    "/move_group/feedback": [
                        "/move_group"
                    ],
                    "/joint_states": [
                        "/gazebo"
                    ],
                    "/rosout": [
                        "/robot_state_publisher",
                        "/move_group",
                        "/fsr_controller",
                        "/gazebo",
                        "/mongo_wrapper_ros_administrador_All_Series_17731_890987474976385753",
                        "/controller_spawner",
                        "/ftm_simulated",
                        "/FSRViewer"
                    ],
                    "/trajectory_execution_event": [
                        "/fsr_controller",
                        "/ftm_simulated"
                    ],
                    "/move_group/plan_execution/parameter_descriptions": [
                        "/move_group"
                    ],
                    "/execute_trajectory/feedback": [
                        "/move_group"
                    ],
                    "/rosout_agg": [
                        "/rosout"
                    ],
                    "/move_group/result": [
                        "/move_group"
                    ],
                    "/execute_trajectory/status": [
                        "/move_group"
                    ],
                    "/arm_controller/follow_joint_trajectory/status": [
                        "/gazebo"
                    ],
                    "/pickup/cancel": [
                        "/fsr_controller",
                        "/ftm_simulated"
                    ],
                    "/arm_controller/state": [
                        "/gazebo"
                    ],
                    "/move_group/sense_for_plan/parameter_descriptions": [
                        "/move_group"
                    ],
                    "/move_group/plan_execution/parameter_updates": [
                        "/move_group"
                    ],
                    "/move_group/display_contacts": [
                        "/move_group"
                    ],
                    "/gazebo/link_states": [
                        "/gazebo"
                    ],
                    "/move_group/status": [
                        "/move_group"
                    ],
                    "/gazebo/model_states": [
                        "/gazebo"
                    ],
                    "/clock": [
                        "/gazebo"
                    ],
                    "/arm_controller/command_vel": [
                        "/fsr_controller"
                    ],
                    "/place/goal": [
                        "/fsr_controller",
                        "/ftm_simulated"
                    ],
                    "/fisiorob/hand_rehab_pose": [
                        "/fsr_controller"
                    ],
                    "/move_group/planning_scene_monitor/parameter_descriptions": [
                        "/move_group"
                    ],
                    "/arm_controller/follow_joint_trajectory/result": [
                        "/gazebo"
                    ],
                    "/place/cancel": [
                        "/fsr_controller",
                        "/ftm_simulated"
                    ],
                    "/arm_controller/command": [
                        "/fsr_controller"
                    ],
                    "/move_group/ompl/parameter_descriptions": [
                        "/move_group"
                    ],
                    "/gazebo/parameter_updates": [
                        "/gazebo"
                    ]
                },
                "subscribers": {
                    "/collision_object": [
                        "/move_group"
                    ],
                    "/gazebo/set_link_state": [
                        "/gazebo"
                    ],
                    "/place/cancel": [
                        "/move_group"
                    ],
                    "/pickup/result": [
                        "/fsr_controller",
                        "/ftm_simulated"
                    ],
                    "/trajectory_execution_event": [
                        "/move_group"
                    ],
                    "/tf": [
                        "/move_group",
                        "/fsr_controller",
                        "/ftm_simulated"
                    ],
                    "/pickup/goal": [
                        "/move_group"
                    ],
                    "/arm_controller/follow_joint_trajectory/goal": [
                        "/gazebo"
                    ],
                    "/move_group/goal": [
                        "/move_group"
                    ],
                    "/execute_trajectory/cancel": [
                        "/move_group"
                    ],
                    "/planning_scene_world": [
                        "/move_group"
                    ],
                    "/execute_trajectory/goal": [
                        "/move_group"
                    ],
                    "/fisiorob/arm_trajectory": [
                        "/fsr_controller"
                    ],
                    "/execute_trajectory/result": [
                        "/fsr_controller",
                        "/ftm_simulated"
                    ],
                    "/tf_static": [
                        "/move_group",
                        "/fsr_controller",
                        "/ftm_simulated"
                    ],
                    "/place/feedback": [
                        "/fsr_controller",
                        "/ftm_simulated"
                    ],
                    "/pickup/cancel": [
                        "/move_group"
                    ],
                    "/pickup/feedback": [
                        "/fsr_controller",
                        "/ftm_simulated"
                    ],
                    "/move_group/cancel": [
                        "/move_group"
                    ],
                    "/pickup/status": [
                        "/fsr_controller",
                        "/ftm_simulated"
                    ],
                    "/place/status": [
                        "/fsr_controller",
                        "/ftm_simulated"
                    ],
                    "/move_group/feedback": [
                        "/fsr_controller",
                        "/ftm_simulated"
                    ],
                    "/joint_states": [
                        "/robot_state_publisher",
                        "/move_group"
                    ],
                    "/rosout": [
                        "/rosout"
                    ],
                    "/place/result": [
                        "/fsr_controller",
                        "/ftm_simulated"
                    ],
                    "/execute_trajectory/feedback": [
                        "/fsr_controller",
                        "/ftm_simulated"
                    ],
                    "/move_group/result": [
                        "/fsr_controller",
                        "/ftm_simulated"
                    ],
                    "/execute_trajectory/status": [
                        "/fsr_controller",
                        "/ftm_simulated"
                    ],
                    "/attached_collision_object": [
                        "/move_group"
                    ],
                    "/gazebo/set_model_state": [
                        "/gazebo"
                    ],
                    "/arm_controller/follow_joint_trajectory/cancel": [
                        "/gazebo"
                    ],
                    "/move_group/status": [
                        "/fsr_controller",
                        "/ftm_simulated"
                    ],
                    "/clock": [
                        "/rosout",
                        "/robot_state_publisher",
                        "/move_group",
                        "/fsr_controller",
                        "/gazebo",
                        "/mongo_wrapper_ros_administrador_All_Series_17731_890987474976385753",
                        "/controller_spawner",
                        "/ftm_simulated",
                        "/FSRViewer"
                    ],
                    "/planning_scene": [
                        "/move_group"
                    ],
                    "/place/goal": [
                        "/move_group"
                    ],
                    "/arm_controller/command": [
                        "/gazebo"
                    ]
                },
                "services": {
                    "/gazebo/apply_joint_effort": [
                        "/gazebo"
                    ],
                    "/robot_state_publisher/get_loggers": [
                        "/robot_state_publisher"
                    ],
                    "/gazebo/get_physics_properties": [
                        "/gazebo"
                    ],
                    "/gazebo/get_model_state": [
                        "/gazebo"
                    ],
                    "/move_group/plan_execution/set_parameters": [
                        "/move_group"
                    ],
                    "/gazebo/set_joint_properties": [
                        "/gazebo"
                    ],
                    "/gazebo/set_model_configuration": [
                        "/gazebo"
                    ],
                    "/compute_fk": [
                        "/move_group"
                    ],
                    "/fsr_controller/manual_mode/get": [
                        "/fsr_controller"
                    ],
                    "/gazebo/set_logger_level": [
                        "/gazebo"
                    ],
                    "/controller_manager/list_controller_types": [
                        "/gazebo"
                    ],
                    "/arm_controller/make_trajectory": [
                        "/fsr_controller"
                    ],
                    "/gazebo/reset_world": [
                        "/gazebo"
                    ],
                    "/fsr_controller/mode/get": [
                        "/fsr_controller"
                    ],
                    "/fsr_controller/get_loggers": [
                        "/fsr_controller"
                    ],
                    "/gazebo/pause_physics": [
                        "/gazebo"
                    ],
                    "/fsr_controller/mode/set": [
                        "/fsr_controller"
                    ],
                    "/ftm_simulated/set_logger_level": [
                        "/ftm_simulated"
                    ],
                    "/gazebo/set_link_state": [
                        "/gazebo"
                    ],
                    "/robot_state_publisher/set_logger_level": [
                        "/robot_state_publisher"
                    ],
                    "/gazebo/spawn_sdf_model": [
                        "/gazebo"
                    ],
                    "/controller_spawner/get_loggers": [
                        "/controller_spawner"
                    ],
                    "/fisiorob/arm_get_config": [
                        "/fsr_controller"
                    ],
                    "/gazebo/unpause_physics": [
                        "/gazebo"
                    ],
                    "/gazebo/spawn_urdf_model": [
                        "/gazebo"
                    ],
                    "/controller_spawner/set_logger_level": [
                        "/controller_spawner"
                    ],
                    "/controller_manager/load_controller": [
                        "/gazebo"
                    ],
                    "/mongo_wrapper_ros_administrador_All_Series_17731_890987474976385753/get_loggers": [
                        "/mongo_wrapper_ros_administrador_All_Series_17731_890987474976385753"
                    ],
                    "/gazebo/get_loggers": [
                        "/gazebo"
                    ],
                    "/move_group/ompl/set_parameters": [
                        "/move_group"
                    ],
                    "/controller_manager/unload_controller": [
                        "/gazebo"
                    ],
                    "/controller_manager/reload_controller_libraries": [
                        "/gazebo"
                    ],
                    "/apply_planning_scene": [
                        "/move_group"
                    ],
                    "/rosout/set_logger_level": [
                        "/rosout"
                    ],
                    "/gazebo/get_world_properties": [
                        "/gazebo"
                    ],
                    "/arm_controller/set_friction": [
                        "/fsr_controller"
                    ],
                    "/gazebo/clear_body_wrenches": [
                        "/gazebo"
                    ],
                    "/gazebo/spawn_gazebo_model": [
                        "/gazebo"
                    ],
                    "/move_group/planning_scene_monitor/set_parameters": [
                        "/move_group"
                    ],
                    "/check_state_validity": [
                        "/move_group"
                    ],
                    "/move_group/set_logger_level": [
                        "/move_group"
                    ],
                    "/controller_manager/switch_controller": [
                        "/gazebo"
                    ],
                    "/move_group/trajectory_execution/set_parameters": [
                        "/move_group"
                    ],
                    "/arm_controller/query_state": [
                        "/gazebo"
                    ],
                    "/gazebo/set_parameters": [
                        "/gazebo"
                    ],
                    "/gazebo/set_physics_properties": [
                        "/gazebo"
                    ],
                    "/fisiorob/arm_set_config": [
                        "/fsr_controller"
                    ],
                    "/gazebo/set_model_state": [
                        "/gazebo"
                    ],
                    "/get_planning_scene": [
                        "/move_group"
                    ],
                    "/fsr_controller/manual_mode/set": [
                        "/fsr_controller"
                    ],
                    "/gazebo/reset_simulation": [
                        "/gazebo"
                    ],
                    "/gazebo/delete_model": [
                        "/gazebo"
                    ],
                    "/plan_kinematic_path": [
                        "/move_group"
                    ],
                    "/controller_manager/list_controllers": [
                        "/gazebo"
                    ],
                    "/compute_ik": [
                        "/move_group"
                    ],
                    "/mongo_wrapper_ros_administrador_All_Series_17731_890987474976385753/set_logger_level": [
                        "/mongo_wrapper_ros_administrador_All_Series_17731_890987474976385753"
                    ],
                    "/ftm_simulated/get_loggers": [
                        "/ftm_simulated"
                    ],
                    "/query_planner_interface": [
                        "/move_group"
                    ],
                    "/gazebo/set_link_properties": [
                        "/gazebo"
                    ],
                    "/gazebo/get_joint_properties": [
                        "/gazebo"
                    ],
                    "/gazebo/apply_body_wrench": [
                        "/gazebo"
                    ],
                    "/fsr_controller/req_calibration": [
                        "/fsr_controller"
                    ],
                    "/move_group/sense_for_plan/set_parameters": [
                        "/move_group"
                    ],
                    "/gazebo/get_link_state": [
                        "/gazebo"
                    ],
                    "/move_group/get_loggers": [
                        "/move_group"
                    ],
                    "/rosout/get_loggers": [
                        "/rosout"
                    ],
                    "/gazebo/get_link_properties": [
                        "/gazebo"
                    ],
                    "/fsr_controller/set_logger_level": [
                        "/fsr_controller"
                    ],
                    "/move_group/save_map": [
                        "/move_group"
                    ],
                    "/move_group/load_map": [
                        "/move_group"
                    ],
                    "/clear_octomap": [
                        "/move_group"
                    ],
                    "/gazebo/clear_joint_forces": [
                        "/gazebo"
                    ],
                    "/compute_cartesian_path": [
                        "/move_group"
                    ],
                    "/gazebo/get_model_properties": [
                        "/gazebo"
                    ]
                }
            }
        }
    },
    "rosdescription": {
        "port": "11311",
        "type": "xmlrpc",
        "method": "rosdescription",
        "arg": "/robot_description",
        "status": "ok",
        "timestamp": 1515546356,
        "response": {
            "status_code": 1,
            "status_message": "Parameter [/robot_description]",
            "param": "<SEE EXTERNAL_FILE>"
        }
    },
    "query_stats": {
        "param_count": 302,
        "publisher_count": 56,
        "subscriber_count": 36,
        "service_count": 74,
        "term_count": 445,
        "alphaterm_count": 364,
        "topic_count": 143,
        "has_description": true,
        "description_name": "fisiorob",
        "is_ros": true,
        "roscore_version": "1.11",
        "ros_version_name": "indigo",
        "missing_term_data": false,
        "roslaunch_machine_hostnames": [],
        "has_hostname": false
    },
    "search_info": {
        "count_control": 0,
        "count_simulators": 2,
        "count_sensors": 0,
        "count_actuators": 1,
        "count_other": 1,
        "count_robot_types": 0,
        "count_targets": 4,
        "total_query_hits": 8
    },
    "search_stats": {
        "control": {},
        "simulators": {
            "sim_any": {
                "param": "not",
                "hit": true,
                "children": [
                    {
                        "param": "and",
                        "hit": false,
                        "children": [
                            {
                                "param": "not",
                                "hit": false,
                                "children": [
                                    {
                                        "param": "gazebo",
                                        "hit": true,
                                        "count": 33,
                                        "matches": [
                                            "/gazebo/set_logger_level",
                                            "/gazebo/get_world_properties",
                                            "/gazebo/reset_world",
                                            "/gazebo/get_model_state",
                                            "/gazebo/model_states",
                                            "/gazebo/clear_body_wrenches",
                                            "/gazebo/clear_joint_forces",
                                            "/gazebo/set_link_properties",
                                            "/gazebo/get_loggers",
                                            "/gazebo",
                                            "/gazebo/set_model_configuration",
                                            "/gazebo/get_link_state",
                                            "/gazebo/link_states",
                                            "/gazebo/get_joint_properties",
                                            "/gazebo/delete_model",
                                            "/gazebo/spawn_gazebo_model",
                                            "/gazebo/set_parameters",
                                            "/gazebo/set_physics_properties",
                                            "/gazebo/apply_joint_effort",
                                            "/gazebo/unpause_physics",
                                            "/gazebo/parameter_updates",
                                            "/gazebo/spawn_sdf_model",
                                            "/gazebo/set_joint_properties",
                                            "/gazebo/set_model_state",
                                            "/gazebo/set_link_state",
                                            "/gazebo/get_link_properties",
                                            "/gazebo/reset_simulation",
                                            "/gazebo/pause_physics",
                                            "/gazebo/parameter_descriptions",
                                            "/gazebo/get_physics_properties",
                                            "/gazebo/apply_body_wrench",
                                            "/gazebo/get_model_properties",
                                            "/gazebo/spawn_urdf_model"
                                        ]
                                    }
                                ]
                            },
                            {
                                "param": "not",
                                "hit": true,
                                "children": [
                                    {
                                        "param": "stageros",
                                        "hit": false,
                                        "count": 0,
                                        "matches": []
                                    }
                                ]
                            },
                            {
                                "param": "not",
                                "hit": true,
                                "children": [
                                    {
                                        "param": "simulator",
                                        "hit": false,
                                        "count": 0,
                                        "matches": []
                                    }
                                ]
                            },
                            {
                                "param": "not",
                                "hit": true,
                                "children": [
                                    {
                                        "param": "use_sim_time",
                                        "hit": false,
                                        "count": 0,
                                        "matches": []
                                    }
                                ]
                            },
                            {
                                "param": "not",
                                "hit": true,
                                "children": [
                                    {
                                        "param": "torcs_ros",
                                        "hit": false,
                                        "count": 0,
                                        "matches": []
                                    }
                                ]
                            },
                            {
                                "param": "not",
                                "hit": true,
                                "children": [
                                    {
                                        "param": "unity",
                                        "hit": false,
                                        "count": 0,
                                        "matches": []
                                    }
                                ]
                            },
                            {
                                "param": "not",
                                "hit": true,
                                "children": [
                                    {
                                        "param": "turtlesim",
                                        "hit": false,
                                        "count": 0,
                                        "matches": []
                                    }
                                ]
                            },
                            {
                                "param": "not",
                                "hit": true,
                                "children": [
                                    {
                                        "param": "dreamview",
                                        "hit": false,
                                        "count": 0,
                                        "matches": []
                                    }
                                ]
                            },
                            {
                                "param": "not",
                                "hit": true,
                                "children": [
                                    {
                                        "param": "videofile",
                                        "hit": false,
                                        "count": 0,
                                        "matches": []
                                    }
                                ]
                            },
                            {
                                "param": "not",
                                "hit": true,
                                "children": [
                                    {
                                        "param": "uwsim",
                                        "hit": false,
                                        "count": 0,
                                        "matches": []
                                    }
                                ]
                            },
                            {
                                "param": "not",
                                "hit": true,
                                "children": [
                                    {
                                        "param": "file_player",
                                        "hit": false,
                                        "count": 0,
                                        "matches": []
                                    }
                                ]
                            }
                        ]
                    }
                ]
            },
            "sim_gazebo": {
                "param": "gazebo",
                "hit": true,
                "count": 33,
                "matches": [
                    "/gazebo/set_logger_level",
                    "/gazebo/get_world_properties",
                    "/gazebo/reset_world",
                    "/gazebo/get_model_state",
                    "/gazebo/model_states",
                    "/gazebo/clear_body_wrenches",
                    "/gazebo/clear_joint_forces",
                    "/gazebo/set_link_properties",
                    "/gazebo/get_loggers",
                    "/gazebo",
                    "/gazebo/set_model_configuration",
                    "/gazebo/get_link_state",
                    "/gazebo/link_states",
                    "/gazebo/get_joint_properties",
                    "/gazebo/delete_model",
                    "/gazebo/spawn_gazebo_model",
                    "/gazebo/set_parameters",
                    "/gazebo/set_physics_properties",
                    "/gazebo/apply_joint_effort",
                    "/gazebo/unpause_physics",
                    "/gazebo/parameter_updates",
                    "/gazebo/spawn_sdf_model",
                    "/gazebo/set_joint_properties",
                    "/gazebo/set_model_state",
                    "/gazebo/set_link_state",
                    "/gazebo/get_link_properties",
                    "/gazebo/reset_simulation",
                    "/gazebo/pause_physics",
                    "/gazebo/parameter_descriptions",
                    "/gazebo/get_physics_properties",
                    "/gazebo/apply_body_wrench",
                    "/gazebo/get_model_properties",
                    "/gazebo/spawn_urdf_model"
                ]
            }
        },
        "sensors": {},
        "actuators": {
            "arm_topics": {
                "param": "or",
                "hit": true,
                "children": [
                    {
                        "param": "joint_trajectory",
                        "hit": true,
                        "count": 5,
                        "matches": [
                            "/arm_controller/follow_joint_trajectory/feedback",
                            "/arm_controller/follow_joint_trajectory/goal",
                            "/arm_controller/follow_joint_trajectory/status",
                            "/arm_controller/follow_joint_trajectory/cancel",
                            "/arm_controller/follow_joint_trajectory/result"
                        ]
                    },
                    {
                        "param": "schunk_neck",
                        "hit": false,
                        "count": 0,
                        "matches": []
                    },
                    {
                        "param": "pose_action",
                        "hit": false,
                        "count": 0,
                        "matches": []
                    },
                    {
                        "param": "trajectory_controller_joint",
                        "hit": false,
                        "count": 0,
                        "matches": []
                    },
                    {
                        "param": "action_controller_joint",
                        "hit": false,
                        "count": 0,
                        "matches": []
                    }
                ]
            }
        },
        "other": {
            "transform": {
                "param": "or",
                "hit": true,
                "children": [
                    {
                        "param": "tf",
                        "hit": true,
                        "count": 2,
                        "matches": [
                            "/tf",
                            "/tf_static"
                        ]
                    },
                    {
                        "param": "tf_static",
                        "hit": true,
                        "count": 1,
                        "matches": [
                            "/tf_static"
                        ]
                    }
                ]
            }
        },
        "robot_types": {},
        "targets": {
            "planning": {
                "param": "planning",
                "hit": true,
                "count": 8,
                "matches": [
                    "/planning_scene",
                    "/move_group/planning_scene_monitor/parameter_updates",
                    "/move_group/planning_scene_monitor/set_parameters",
                    "/get_planning_scene",
                    "/apply_planning_scene",
                    "/planning_scene_world",
                    "/move_group/monitored_planning_scene",
                    "/move_group/planning_scene_monitor/parameter_descriptions"
                ]
            },
            "collision": {
                "param": "collision",
                "hit": true,
                "count": 2,
                "matches": [
                    "/collision_object",
                    "/attached_collision_object"
                ]
            },
            "map": {
                "param": "map",
                "hit": true,
                "count": 2,
                "matches": [
                    "/move_group/load_map",
                    "/move_group/save_map"
                ]
            },
            "arm": {
                "param": "arm",
                "hit": true,
                "count": 16,
                "matches": [
                    "/arm_controller/follow_joint_trajectory/feedback",
                    "/fisiorob/arm_get_config",
                    "/arm_controller/set_friction",
                    "/arm_controller/query_state",
                    "/arm_controller/follow_joint_trajectory/goal",
                    "/arm_controller/state",
                    "/fisiorob/arm_config",
                    "/arm_controller/command_vel",
                    "/arm_controller/command",
                    "/arm_controller/follow_joint_trajectory/status",
                    "/arm_controller/follow_joint_trajectory/cancel",
                    "/fisiorob/arm_trajectory",
                    "/fisiorob/arm_set_config",
                    "/arm_controller/follow_joint_trajectory/result",
                    "/fisiorob/arm/mode/status",
                    "/arm_controller/make_trajectory"
                ]
            }
        }
    },
    "inferred_results": {
        "identified_robot": false,
        "only_sim": true,
        "likely_empty": false,
        "only_sensors": false,
        "only_actuators": false,
        "only_services": false,
        "needs_more_info": false,
        "confirmed_ros": true,
        "total_hosts": false,
        "is_unconnectable": false,
        "search_hit_sim": true,
        "has_sensor": false,
        "has_actuator": true,
        "has_hostname": false,
        "missing_term_data": false,
        "has_description": true,
        "has_descr_name": true,
        "has_search_hits": true,
        "manually_tagged": false,
        "search_hit_gazebo": true,
        "likely_non_robot": true
    }
}
