{
    "ip": "143.89.47.124",
    "dns.hostname": "eea124.ee.ust.hk",
    "dns.authority": "eesvr4.ee.ust.hk. postmaster.eesvr4.ee.ust.hk. 2014082601 3600 3600 60480 3600",
    "geoip.country": "Hong Kong",
    "geoip.country_code": "HK",
    "geoip.specific_name": null,
    "geoip.specific_name_code": null,
    "geoip.latitude": 22.2833,
    "geoip.longitude": 114.15,
    "geoip.as_number": 3363,
    "geoip.as_organization": "Hong Kong University of Science and Technology",
    "shodan.ports": [
        22
    ],
    "shodan.tags": [],
    "rosversion": {
        "port": "11311",
        "type": "xmlrpc",
        "method": "rosversion",
        "arg": "/rosversion",
        "status": "ok",
        "timestamp": 1515502169,
        "response": {
            "status_code": 1,
            "status_message": "Parameter [/rosversion]",
            "param": "1.12.7\n"
        }
    },
    "rosparamnames": {
        "port": "11311",
        "type": "xmlrpc",
        "method": "rosparamnames",
        "arg": "",
        "status": "ok",
        "timestamp": 1515502172,
        "response": {
            "status_code": 1,
            "status_message": "Parameter names",
            "paramNames": [
                "/roslaunch/uris/host_yychen_pc__42329",
                "/roslaunch/uris/host_yychen_pc__33819",
                "/roslaunch/uris/host_yychen_pc__41583",
                "/husky_joint_publisher/type",
                "/husky_joint_publisher/publish_rate",
                "/husky_velocity_controller/left_wheel",
                "/husky_velocity_controller/twist_covariance_diagonal",
                "/husky_velocity_controller/linear/x/max_velocity",
                "/husky_velocity_controller/linear/x/has_acceleration_limits",
                "/husky_velocity_controller/linear/x/has_velocity_limits",
                "/husky_velocity_controller/linear/x/max_acceleration",
                "/husky_velocity_controller/publish_rate",
                "/husky_velocity_controller/pose_covariance_diagonal",
                "/husky_velocity_controller/enable_odom_tf",
                "/husky_velocity_controller/wheel_radius_multiplier",
                "/husky_velocity_controller/wheel_separation_multiplier",
                "/husky_velocity_controller/right_wheel",
                "/husky_velocity_controller/base_frame_id",
                "/husky_velocity_controller/cmd_vel_timeout",
                "/husky_velocity_controller/estimate_velocity_from_position",
                "/husky_velocity_controller/type",
                "/husky_velocity_controller/angular/z/max_velocity",
                "/husky_velocity_controller/angular/z/has_acceleration_limits",
                "/husky_velocity_controller/angular/z/has_velocity_limits",
                "/husky_velocity_controller/angular/z/max_acceleration",
                "/rosversion",
                "/run_id",
                "/import_relay/tf_prefix",
                "/import_relay/topics",
                "/import_relay/global_frames",
                "/import_relay/from",
                "/import_relay/prefix_operation",
                "/robot_import_relay/parameter_namespace",
                "/tf2_relay/to",
                "/tf2_relay/global_frames",
                "/tf2_relay/tf_prefix",
                "/tf2_relay/throttle_frequency",
                "/tf2_relay/prefix_operation",
                "/gazebo/gravity_z",
                "/gazebo/cfm",
                "/gazebo/erp",
                "/gazebo/contact_max_correcting_vel",
                "/gazebo/sor_pgs_iters",
                "/gazebo/sor_pgs_precon_iters",
                "/gazebo/auto_disable_bodies",
                "/gazebo/sor_pgs_rms_error_tol",
                "/gazebo/contact_surface_layer",
                "/gazebo/max_update_rate",
                "/gazebo/gravity_x",
                "/gazebo/gravity_y",
                "/gazebo/time_step",
                "/gazebo/max_contacts",
                "/gazebo/sor_pgs_w",
                "/mastername",
                "/ekf_localization/odom_frame",
                "/ekf_localization/odom0_queue_size",
                "/ekf_localization/odom0",
                "/ekf_localization/odom0_differential",
                "/ekf_localization/odom0_config",
                "/ekf_localization/base_link_frame",
                "/ekf_localization/imu0",
                "/ekf_localization/two_d_mode",
                "/ekf_localization/frequency",
                "/ekf_localization/imu0_queue_size",
                "/ekf_localization/imu0_differential",
                "/ekf_localization/imu0_remove_gravitational_acceleration",
                "/ekf_localization/imu0_config",
                "/ekf_localization/world_frame",
                "/master_sync/sync_services",
                "/master_sync/sync_topics",
                "/robot_description",
                "/use_sim_time",
                "/robot_export_relay/parameter_namespace",
                "/rosdistro",
                "/joy_node/deadzone",
                "/joy_node/autorepeat_rate",
                "/joy_node/dev",
                "/twist_mux/locks",
                "/twist_mux/topics",
                "/robot_namespace",
                "/export_relay/tf_prefix",
                "/export_relay/topics",
                "/export_relay/global_frames",
                "/export_relay/actions",
                "/export_relay/to",
                "/export_relay/services",
                "/export_relay/prefix_operation",
                "/robot_tf_relay/parameter_namespace"
            ]
        }
    },
    "rostopic": {
        "port": "11311",
        "type": "xmlrpc",
        "method": "rostopic",
        "arg": "/rosversion",
        "status": "ok",
        "timestamp": 1515502174,
        "response": {
            "status_code": 1,
            "status_message": "current system state",
            "system_state": {
                "publishers": {
                    "/laser_points": [
                        "/gazebo"
                    ],
                    "/scan": [
                        "/gazebo"
                    ],
                    "/rosout_agg": [
                        "/rosout"
                    ],
                    "/rosout": [
                        "/gazebo"
                    ]
                },
                "subscribers": {
                    "/clock": [
                        "/gazebo"
                    ],
                    "/rosout": [
                        "/rosout"
                    ]
                },
                "services": {
                    "/gazebo/set_logger_level": [
                        "/gazebo"
                    ],
                    "/rosout/get_loggers": [
                        "/rosout"
                    ],
                    "/controller_manager/load_controller": [
                        "/gazebo"
                    ],
                    "/gazebo/get_loggers": [
                        "/gazebo"
                    ],
                    "/controller_manager/unload_controller": [
                        "/gazebo"
                    ],
                    "/rosout/set_logger_level": [
                        "/rosout"
                    ],
                    "/controller_manager/switch_controller": [
                        "/gazebo"
                    ],
                    "/controller_manager/list_controller_types": [
                        "/gazebo"
                    ],
                    "/controller_manager/list_controllers": [
                        "/gazebo"
                    ],
                    "/controller_manager/reload_controller_libraries": [
                        "/gazebo"
                    ]
                }
            }
        }
    },
    "rosdescription": {
        "port": "11311",
        "type": "xmlrpc",
        "method": "rosdescription",
        "arg": "/robot_description",
        "status": "ok",
        "timestamp": 1515502177,
        "response": {
            "status_code": 1,
            "status_message": "Parameter [/robot_description]",
            "param": "<SEE EXTERNAL_FILE>"
        }
    },
    "query_stats": {
        "param_count": 88,
        "publisher_count": 4,
        "subscriber_count": 2,
        "service_count": 10,
        "term_count": 104,
        "alphaterm_count": 102,
        "topic_count": 16,
        "has_description": true,
        "description_name": "husky",
        "is_ros": true,
        "roscore_version": "1.12",
        "ros_version_name": "kinetic",
        "missing_term_data": false,
        "roslaunch_machine_hostnames": [
            "yychen_pc"
        ],
        "has_hostname": true,
        "machine_hostname": "yychen_pc"
    },
    "search_info": {
        "count_control": 0,
        "count_simulators": 2,
        "count_sensors": 1,
        "count_actuators": 0,
        "count_other": 0,
        "count_robot_types": 0,
        "count_targets": 0,
        "total_query_hits": 3
    },
    "search_stats": {
        "control": {},
        "simulators": {
            "sim_any": {
                "param": "not",
                "hit": true,
                "children": [
                    {
                        "param": "and",
                        "hit": false,
                        "children": [
                            {
                                "param": "not",
                                "hit": false,
                                "children": [
                                    {
                                        "param": "gazebo",
                                        "hit": true,
                                        "count": 3,
                                        "matches": [
                                            "/gazebo",
                                            "/gazebo/set_logger_level",
                                            "/gazebo/get_loggers"
                                        ]
                                    }
                                ]
                            },
                            {
                                "param": "not",
                                "hit": true,
                                "children": [
                                    {
                                        "param": "stageros",
                                        "hit": false,
                                        "count": 0,
                                        "matches": []
                                    }
                                ]
                            },
                            {
                                "param": "not",
                                "hit": true,
                                "children": [
                                    {
                                        "param": "simulator",
                                        "hit": false,
                                        "count": 0,
                                        "matches": []
                                    }
                                ]
                            },
                            {
                                "param": "not",
                                "hit": true,
                                "children": [
                                    {
                                        "param": "use_sim_time",
                                        "hit": false,
                                        "count": 0,
                                        "matches": []
                                    }
                                ]
                            },
                            {
                                "param": "not",
                                "hit": true,
                                "children": [
                                    {
                                        "param": "torcs_ros",
                                        "hit": false,
                                        "count": 0,
                                        "matches": []
                                    }
                                ]
                            },
                            {
                                "param": "not",
                                "hit": true,
                                "children": [
                                    {
                                        "param": "unity",
                                        "hit": false,
                                        "count": 0,
                                        "matches": []
                                    }
                                ]
                            },
                            {
                                "param": "not",
                                "hit": true,
                                "children": [
                                    {
                                        "param": "turtlesim",
                                        "hit": false,
                                        "count": 0,
                                        "matches": []
                                    }
                                ]
                            },
                            {
                                "param": "not",
                                "hit": true,
                                "children": [
                                    {
                                        "param": "dreamview",
                                        "hit": false,
                                        "count": 0,
                                        "matches": []
                                    }
                                ]
                            },
                            {
                                "param": "not",
                                "hit": true,
                                "children": [
                                    {
                                        "param": "videofile",
                                        "hit": false,
                                        "count": 0,
                                        "matches": []
                                    }
                                ]
                            },
                            {
                                "param": "not",
                                "hit": true,
                                "children": [
                                    {
                                        "param": "uwsim",
                                        "hit": false,
                                        "count": 0,
                                        "matches": []
                                    }
                                ]
                            },
                            {
                                "param": "not",
                                "hit": true,
                                "children": [
                                    {
                                        "param": "file_player",
                                        "hit": false,
                                        "count": 0,
                                        "matches": []
                                    }
                                ]
                            }
                        ]
                    }
                ]
            },
            "sim_gazebo": {
                "param": "gazebo",
                "hit": true,
                "count": 3,
                "matches": [
                    "/gazebo",
                    "/gazebo/set_logger_level",
                    "/gazebo/get_loggers"
                ]
            }
        },
        "sensors": {
            "lidar": {
                "param": "or",
                "hit": true,
                "children": [
                    {
                        "param": "lidar",
                        "hit": false,
                        "count": 0,
                        "matches": []
                    },
                    {
                        "param": "hokuyo",
                        "hit": false,
                        "count": 0,
                        "matches": []
                    },
                    {
                        "param": "scan",
                        "hit": true,
                        "count": 1,
                        "matches": [
                            "/scan"
                        ]
                    },
                    {
                        "param": "lms511",
                        "hit": false,
                        "count": 0,
                        "matches": []
                    },
                    {
                        "param": "laser_points_pc2",
                        "hit": false,
                        "count": 0,
                        "matches": []
                    }
                ]
            }
        },
        "actuators": {},
        "other": {},
        "robot_types": {},
        "targets": {}
    },
    "inferred_results": {
        "identified_robot": false,
        "only_sim": true,
        "likely_empty": false,
        "only_sensors": false,
        "only_actuators": false,
        "only_services": false,
        "needs_more_info": false,
        "confirmed_ros": true,
        "total_hosts": false,
        "is_unconnectable": false,
        "search_hit_sim": true,
        "has_sensor": true,
        "has_actuator": false,
        "has_hostname": true,
        "missing_term_data": false,
        "has_description": true,
        "has_descr_name": true,
        "has_search_hits": true,
        "manually_tagged": false,
        "search_hit_gazebo": true,
        "likely_non_robot": true
    }
}
