{
    "ip": "180.76.133.194",
    "dns.hostname": "",
    "dns.authority": "v1.bdydns.cn. sa.dudns.com. 2016092097 300 300 2592000 7200",
    "geoip.country": "China",
    "geoip.country_code": "CN",
    "geoip.specific_name": "Beijing",
    "geoip.specific_name_code": "11",
    "geoip.latitude": 39.9289,
    "geoip.longitude": 116.3883,
    "geoip.as_number": 38365,
    "geoip.as_organization": "Beijing Baidu Netcom Science and Technology Co., Ltd.",
    "shodan.ports": [
        500,
        22,
        123
    ],
    "shodan.tags": [
        "vpn"
    ],
    "rosversion": {
        "port": "11311",
        "type": "xmlrpc",
        "method": "rosversion",
        "arg": "/rosversion",
        "status": "ok",
        "timestamp": 1515022520,
        "response": {
            "status_code": 1,
            "status_message": "Parameter [/rosversion]",
            "param": "1.11.20\n"
        }
    },
    "rosparamnames": {
        "port": "11311",
        "type": "xmlrpc",
        "method": "rosparamnames",
        "arg": "",
        "status": "ok",
        "timestamp": 1515022523,
        "response": {
            "status_code": 1,
            "status_message": "Parameter names",
            "paramNames": [
                "/roslaunch/uris/host_adu_car__46973",
                "/roslaunch/uris/host_adu_car__49857",
                "/roslaunch/uris/host_adu_car__36021",
                "/roslaunch/uris/host_adu_car__54156",
                "/roslaunch/uris/host_adu_car__46275",
                "/roslaunch/uris/host_adu_car__36504",
                "/roslaunch/uris/host_adu_car__56103",
                "/roslaunch/uris/host_adu_car__35743",
                "/roslaunch/uris/host_adu_car__44156",
                "/roslaunch/uris/host_adu_car__40243",
                "/roslaunch/uris/host_adu_car__42041",
                "/roslaunch/uris/host_adu_car__57563",
                "/roslaunch/uris/host_adu_car__55658",
                "/roslaunch/uris/host_adu_car__57567",
                "/roslaunch/uris/host_adu_car__35081",
                "/roslaunch/uris/host_adu_car__36226",
                "/roslaunch/uris/host_adu_car__33125",
                "/roslaunch/uris/host_adu_car__43288",
                "/roslaunch/uris/host_adu_car__48658",
                "/roslaunch/uris/host_adu_car__45758",
                "/roslaunch/uris/host_adu_car__57580",
                "/roslaunch/uris/host_adu_car__37509",
                "/roslaunch/uris/host_adu_car__54127",
                "/roslaunch/uris/host_adu_car__59755",
                "/roslaunch/uris/host_adu_car__58034",
                "/roslaunch/uris/host_adu_car__53299",
                "/roslaunch/uris/host_adu_car__59322",
                "/roslaunch/uris/host_adu_car__33521",
                "/roslaunch/uris/host_adu_car__47806",
                "/roslaunch/uris/host_adu_car__39643",
                "/roslaunch/uris/host_adu_car__43838",
                "/roslaunch/uris/host_adu_car__56268",
                "/roslaunch/uris/host_adu_car__57519",
                "/roslaunch/uris/host_adu_car__57518",
                "/roslaunch/uris/host_adu_car__51123",
                "/roslaunch/uris/host_adu_car__35357",
                "/roslaunch/uris/host_adu_car__49836",
                "/roslaunch/uris/host_adu_car__47269",
                "/roslaunch/uris/host_adu_car__49787",
                "/roslaunch/uris/host_adu_car__57733",
                "/roslaunch/uris/host_adu_car__33183",
                "/roslaunch/uris/host_adu_car__38421",
                "/roslaunch/uris/host_adu_car__41417",
                "/roslaunch/uris/host_adu_car__44297",
                "/roslaunch/uris/host_adu_car__47541",
                "/roslaunch/uris/host_adu_car__36291",
                "/roslaunch/uris/host_adu_car__41493",
                "/roslaunch/uris/host_adu_car__50598",
                "/roslaunch/uris/host_adu_car__46781",
                "/roslaunch/uris/host_adu_car__52550",
                "/roslaunch/uris/host_adu_car__41002",
                "/roslaunch/uris/host_adu_car__34741",
                "/roslaunch/uris/host_adu_car__51502",
                "/roslaunch/uris/host_adu_car__34746",
                "/roslaunch/uris/host_adu_car__34749",
                "/roslaunch/uris/host_adu_car__60077",
                "/roslaunch/uris/host_adu_car__41409",
                "/roslaunch/uris/host_adu_car__42996",
                "/roslaunch/uris/host_adu_car__36930",
                "/roslaunch/uris/host_adu_car__53831",
                "/roslaunch/uris/host_adu_car__58053",
                "/roslaunch/uris/host_adu_car__41569",
                "/roslaunch/uris/host_adu_car__56209",
                "/roslaunch/uris/host_adu_car__33719",
                "/roslaunch/uris/host_adu_car__57933",
                "/roslaunch/uris/host_adu_car__36275",
                "/roslaunch/uris/host_adu_car__48765",
                "/roslaunch/uris/host_adu_car__47323",
                "/roslaunch/uris/host_adu_car__47124",
                "/roslaunch/uris/host_adu_car__37917",
                "/roslaunch/uris/host_adu_car__57409",
                "/roslaunch/uris/host_adu_car__49241",
                "/roslaunch/uris/host_adu_car__35380",
                "/roslaunch/uris/host_adu_car__58978",
                "/roslaunch/uris/host_adu_car__59378",
                "/roslaunch/uris/host_adu_car__54915",
                "/roslaunch/uris/host_adu_car__45356",
                "/roslaunch/uris/host_adu_car__34724",
                "/roslaunch/uris/host_adu_car__37543",
                "/roslaunch/uris/host_adu_car__36716",
                "/roslaunch/uris/host_adu_car__43126",
                "/roslaunch/uris/host_adu_car__50368",
                "/roslaunch/uris/host_adu_car__52576",
                "/roslaunch/uris/host_adu_car__48973",
                "/roslaunch/uris/host_adu_car__47244",
                "/roslaunch/uris/host_adu_car__44100",
                "/roslaunch/uris/host_adu_car__50283",
                "/roslaunch/uris/host_adu_car__34290",
                "/roslaunch/uris/host_adu_car__59400",
                "/roslaunch/uris/host_adu_car__34352",
                "/roslaunch/uris/host_adu_car__45223",
                "/roslaunch/uris/host_adu_car__43247",
                "/roslaunch/uris/host_adu_car__35511",
                "/roslaunch/uris/host_adu_car__36847",
                "/roslaunch/uris/host_adu_car__47874",
                "/roslaunch/uris/host_adu_car__48297",
                "/roslaunch/uris/host_adu_car__36008",
                "/roslaunch/uris/host_adu_car__44438",
                "/roslaunch/uris/host_adu_car__36251",
                "/roslaunch/uris/host_adu_car__54699",
                "/roslaunch/uris/host_adu_car__36527",
                "/roslaunch/uris/host_adu_car__56544",
                "/roslaunch/uris/host_adu_car__56542",
                "/roslaunch/uris/host_adu_car__37153",
                "/roslaunch/uris/host_adu_car__54875",
                "/roslaunch/uris/host_adu_car__33658",
                "/roslaunch/uris/host_adu_car__55883",
                "/roslaunch/uris/host_adu_car__40412",
                "/roslaunch/uris/host_adu_car__47732",
                "/roslaunch/uris/host_adu_car__34335",
                "/roslaunch/uris/host_adu_car__36031",
                "/roslaunch/uris/host_adu_car__36993",
                "/roslaunch/uris/host_adu_car__57078",
                "/roslaunch/uris/host_adu_car__35226",
                "/roslaunch/uris/host_adu_car__49511",
                "/roslaunch/uris/host_adu_car__36979",
                "/roslaunch/uris/host_adu_car__47514",
                "/roslaunch/uris/host_adu_car__55895",
                "/roslaunch/uris/host_adu_car__47626",
                "/roslaunch/uris/host_adu_car__43347",
                "/roslaunch/uris/host_adu_car__33787",
                "/roslaunch/uris/host_adu_car__51098",
                "/roslaunch/uris/host_adu_car__54579",
                "/rosdistro",
                "/rosversion",
                "/run_id"
            ]
        }
    },
    "rostopic": {
        "port": "11311",
        "type": "xmlrpc",
        "method": "rostopic",
        "arg": "/rosversion",
        "status": "ok",
        "timestamp": 1515022526,
        "response": {
            "status_code": 1,
            "status_message": "current system state",
            "system_state": {
                "publishers": {
                    "/rosout": [
                        "/consumer_10346_1479814419196",
                        "/consumer_19629_1480405541167",
                        "/eap_car_debug_659_1481294961011",
                        "/eap_car_debug_4258_1481540299157",
                        "/eap_car_debug_5281_1481596959083",
                        "/eap_car_debug_10467_1481716556614"
                    ],
                    "/rosout_agg": [
                        "/rosout"
                    ]
                },
                "subscribers": {
                    "/start_connection": [
                        "/consumer_10346_1479814419196",
                        "/consumer_19629_1480405541167"
                    ],
                    "/rosout": [
                        "/rosout"
                    ],
                    "/eap/debug/start_connection": [
                        "/eap_car_debug_659_1481294961011",
                        "/eap_car_debug_4258_1481540299157",
                        "/eap_car_debug_5281_1481596959083",
                        "/eap_car_debug_10467_1481716556614"
                    ],
                    "/stop_connection": [
                        "/consumer_10346_1479814419196",
                        "/consumer_19629_1480405541167"
                    ],
                    "/eap/debug/stop_connection": [
                        "/eap_car_debug_659_1481294961011",
                        "/eap_car_debug_4258_1481540299157",
                        "/eap_car_debug_5281_1481596959083",
                        "/eap_car_debug_10467_1481716556614"
                    ],
                    "/planning/proxy/DuDriveChassis": [
                        "/eap_car_debug_659_1481294961011",
                        "/eap_car_debug_4258_1481540299157",
                        "/eap_car_debug_5281_1481596959083",
                        "/eap_car_debug_10467_1481716556614"
                    ]
                },
                "services": {
                    "/eap_car_debug_10467_1481716556614/get_loggers": [
                        "/eap_car_debug_10467_1481716556614"
                    ],
                    "/consumer_19629_1480405541167/set_logger_level": [
                        "/consumer_19629_1480405541167"
                    ],
                    "/consumer_10346_1479814419196/set_logger_level": [
                        "/consumer_10346_1479814419196"
                    ],
                    "/eap_car_debug_659_1481294961011/set_logger_level": [
                        "/eap_car_debug_659_1481294961011"
                    ],
                    "/consumer_19629_1480405541167/get_loggers": [
                        "/consumer_19629_1480405541167"
                    ],
                    "/rosout/set_logger_level": [
                        "/rosout"
                    ],
                    "/eap_car_debug_5281_1481596959083/get_loggers": [
                        "/eap_car_debug_5281_1481596959083"
                    ],
                    "/eap_car_debug_5281_1481596959083/set_logger_level": [
                        "/eap_car_debug_5281_1481596959083"
                    ],
                    "/eap_car_debug_659_1481294961011/get_loggers": [
                        "/eap_car_debug_659_1481294961011"
                    ],
                    "/eap_car_debug_10467_1481716556614/set_logger_level": [
                        "/eap_car_debug_10467_1481716556614"
                    ],
                    "/eap_car_debug_4258_1481540299157/get_loggers": [
                        "/eap_car_debug_4258_1481540299157"
                    ],
                    "/rosout/get_loggers": [
                        "/rosout"
                    ],
                    "/consumer_10346_1479814419196/get_loggers": [
                        "/consumer_10346_1479814419196"
                    ],
                    "/eap_car_debug_4258_1481540299157/set_logger_level": [
                        "/eap_car_debug_4258_1481540299157"
                    ]
                }
            }
        }
    },
    "rosdescription": {
        "port": "11311",
        "type": "xmlrpc",
        "method": "rosdescription",
        "arg": "/robot_description",
        "status": "ok",
        "timestamp": 1515022528,
        "response": {
            "status_code": -1,
            "status_message": "Parameter [/robot_description] is not set",
            "param": 0
        }
    },
    "query_stats": {
        "param_count": 126,
        "publisher_count": 2,
        "subscriber_count": 6,
        "service_count": 14,
        "term_count": 153,
        "alphaterm_count": 19,
        "topic_count": 27,
        "has_description": false,
        "is_ros": true,
        "roscore_version": "1.11",
        "ros_version_name": "indigo",
        "missing_term_data": false,
        "roslaunch_machine_hostnames": [
            "adu_car"
        ],
        "has_hostname": true,
        "machine_hostname": "adu_car"
    },
    "search_info": {
        "count_control": 0,
        "count_simulators": 0,
        "count_sensors": 0,
        "count_actuators": 0,
        "count_other": 0,
        "count_robot_types": 0,
        "count_targets": 2,
        "total_query_hits": 2
    },
    "search_stats": {
        "control": {},
        "simulators": {},
        "sensors": {},
        "actuators": {},
        "other": {},
        "robot_types": {},
        "targets": {
            "car": {
                "param": "car",
                "hit": true,
                "count": 12,
                "matches": [
                    "/eap_car_debug_659_1481294961011/get_loggers",
                    "/eap_car_debug_659_1481294961011",
                    "/eap_car_debug_5281_1481596959083",
                    "/eap_car_debug_5281_1481596959083/get_loggers",
                    "/eap_car_debug_10467_1481716556614",
                    "/eap_car_debug_10467_1481716556614/get_loggers",
                    "/eap_car_debug_659_1481294961011/set_logger_level",
                    "/eap_car_debug_4258_1481540299157/set_logger_level",
                    "/eap_car_debug_4258_1481540299157/get_loggers",
                    "/eap_car_debug_5281_1481596959083/set_logger_level",
                    "/eap_car_debug_4258_1481540299157",
                    "/eap_car_debug_10467_1481716556614/set_logger_level"
                ]
            },
            "planning": {
                "param": "planning",
                "hit": true,
                "count": 1,
                "matches": [
                    "/planning/proxy/DuDriveChassis"
                ]
            }
        }
    },
    "inferred_results": {
        "identified_robot": false,
        "only_sim": false,
        "likely_empty": false,
        "only_sensors": false,
        "only_actuators": false,
        "only_services": false,
        "needs_more_info": true,
        "confirmed_ros": true,
        "total_hosts": false,
        "is_unconnectable": false,
        "search_hit_sim": false,
        "has_sensor": false,
        "has_actuator": false,
        "has_hostname": true,
        "missing_term_data": false,
        "has_description": false,
        "has_descr_name": false,
        "has_search_hits": true,
        "manually_tagged": false,
        "search_hit_gazebo": false,
        "likely_non_robot": false
    }
}
