digraph G {
"left/wam7" -> "left/force_torque"[label="Broadcaster: /state_publisher\nAverage rate: 50.198 Hz\nMost recent transform: 1516732559.318 ( -172.859 sec old)\nBuffer length: 4.841 sec\n"];
"left/force_torque" -> "left/hand_base"[label="Broadcaster: /state_publisher\nAverage rate: 50.198 Hz\nMost recent transform: 1516732559.318 ( -172.859 sec old)\nBuffer length: 4.841 sec\n"];
"left/wam_base" -> "left/wam0"[label="Broadcaster: /state_publisher\nAverage rate: 50.198 Hz\nMost recent transform: 1516732559.318 ( -172.859 sec old)\nBuffer length: 4.841 sec\n"];
"herb_frame" -> "left/wam_base"[label="Broadcaster: /state_publisher\nAverage rate: 50.198 Hz\nMost recent transform: 1516732559.318 ( -172.859 sec old)\nBuffer length: 4.841 sec\n"];
"base_footprint" -> "herb_frame"[label="Broadcaster: /state_publisher\nAverage rate: 50.198 Hz\nMost recent transform: 1516732559.318 ( -172.859 sec old)\nBuffer length: 4.841 sec\n"];
"right/wam7" -> "right/force_torque"[label="Broadcaster: /state_publisher\nAverage rate: 50.198 Hz\nMost recent transform: 1516732559.318 ( -172.859 sec old)\nBuffer length: 4.841 sec\n"];
"right/force_torque" -> "right/hand_base"[label="Broadcaster: /state_publisher\nAverage rate: 50.198 Hz\nMost recent transform: 1516732559.318 ( -172.859 sec old)\nBuffer length: 4.841 sec\n"];
"right/hand_base" -> "right/perception_palm"[label="Broadcaster: /state_publisher\nAverage rate: 50.198 Hz\nMost recent transform: 1516732559.318 ( -172.859 sec old)\nBuffer length: 4.841 sec\n"];
"right/wam_base" -> "right/wam0"[label="Broadcaster: /state_publisher\nAverage rate: 50.198 Hz\nMost recent transform: 1516732559.318 ( -172.859 sec old)\nBuffer length: 4.841 sec\n"];
"herb_frame" -> "right/wam_base"[label="Broadcaster: /state_publisher\nAverage rate: 50.198 Hz\nMost recent transform: 1516732559.318 ( -172.859 sec old)\nBuffer length: 4.841 sec\n"];
"neobotix_base" -> "base_link"[label="Broadcaster: /state_publisher\nAverage rate: 50.198 Hz\nMost recent transform: 1516732559.318 ( -172.859 sec old)\nBuffer length: 4.841 sec\n"];
"herb_frame" -> "neobotix_base"[label="Broadcaster: /state_publisher\nAverage rate: 50.198 Hz\nMost recent transform: 1516732559.318 ( -172.859 sec old)\nBuffer length: 4.841 sec\n"];
"crl_head" -> "head/kinect2_link"[label="Broadcaster: /state_publisher\nAverage rate: 50.198 Hz\nMost recent transform: 1516732559.318 ( -172.859 sec old)\nBuffer length: 4.841 sec\n"];
"neck_tilt" -> "crl_head"[label="Broadcaster: /state_publisher\nAverage rate: 50.198 Hz\nMost recent transform: 1516732559.318 ( -172.859 sec old)\nBuffer length: 4.841 sec\n"];
"crl_head" -> "multisense/head"[label="Broadcaster: /state_publisher\nAverage rate: 50.198 Hz\nMost recent transform: 1516732559.318 ( -172.859 sec old)\nBuffer length: 4.841 sec\n"];
"herb_frame" -> "neck_pan"[label="Broadcaster: /state_publisher\nAverage rate: 50.198 Hz\nMost recent transform: 1516732559.318 ( -172.859 sec old)\nBuffer length: 4.841 sec\n"];
"neck_pan" -> "neck_tilt"[label="Broadcaster: /state_publisher\nAverage rate: 50.198 Hz\nMost recent transform: 1516732559.318 ( -172.859 sec old)\nBuffer length: 4.841 sec\n"];
"map" -> "base_footprint"[label="Broadcaster: /static_transform_publisher_1516731441642873486\nAverage rate: 10.197 Hz\nMost recent transform: 1516732558.911 ( -172.452 sec old)\nBuffer length: 4.805 sec\n"];
"herb_frame" -> "stargazer_lens"[label="Broadcaster: /state_publisher\nAverage rate: 50.198 Hz\nMost recent transform: 1516732559.318 ( -172.859 sec old)\nBuffer length: 4.841 sec\n"];
"multisense/head" -> "multisense/accel"[label="Broadcaster: /multisense_state_publisher\nAverage rate: 20.207 Hz\nMost recent transform: 1516732559.301 ( -172.842 sec old)\nBuffer length: 4.800 sec\n"];
"multisense/head" -> "multisense/center_bottom_led_frame"[label="Broadcaster: /multisense_state_publisher\nAverage rate: 20.207 Hz\nMost recent transform: 1516732559.301 ( -172.842 sec old)\nBuffer length: 4.800 sec\n"];
"multisense/head" -> "multisense/center_top_led_frame"[label="Broadcaster: /multisense_state_publisher\nAverage rate: 20.207 Hz\nMost recent transform: 1516732559.301 ( -172.842 sec old)\nBuffer length: 4.800 sec\n"];
"multisense/head" -> "multisense/gyro"[label="Broadcaster: /multisense_state_publisher\nAverage rate: 20.207 Hz\nMost recent transform: 1516732559.301 ( -172.842 sec old)\nBuffer length: 4.800 sec\n"];
"multisense/hokuyo_link" -> "multisense/head_hokuyo_frame"[label="Broadcaster: /multisense_state_publisher\nAverage rate: 20.207 Hz\nMost recent transform: 1516732559.301 ( -172.842 sec old)\nBuffer length: 4.800 sec\n"];
"multisense/spindle" -> "multisense/hokuyo_link"[label="Broadcaster: /multisense/multisense_driver\nAverage rate: 40.208 Hz\nMost recent transform: 1516732558.780 ( -172.320 sec old)\nBuffer length: 4.825 sec\n"];
"multisense/head" -> "multisense/left_camera_frame"[label="Broadcaster: /multisense_state_publisher\nAverage rate: 20.207 Hz\nMost recent transform: 1516732559.301 ( -172.842 sec old)\nBuffer length: 4.800 sec\n"];
"multisense/left_camera_frame" -> "multisense/left_camera_optical_frame"[label="Broadcaster: /multisense_state_publisher\nAverage rate: 20.207 Hz\nMost recent transform: 1516732559.301 ( -172.842 sec old)\nBuffer length: 4.800 sec\n"];
"multisense/head" -> "multisense/left_led_frame"[label="Broadcaster: /multisense_state_publisher\nAverage rate: 20.207 Hz\nMost recent transform: 1516732559.301 ( -172.842 sec old)\nBuffer length: 4.800 sec\n"];
"multisense/head" -> "multisense/mag"[label="Broadcaster: /multisense_state_publisher\nAverage rate: 20.207 Hz\nMost recent transform: 1516732559.301 ( -172.842 sec old)\nBuffer length: 4.800 sec\n"];
"multisense/head" -> "multisense/right_camera_frame"[label="Broadcaster: /multisense_state_publisher\nAverage rate: 20.207 Hz\nMost recent transform: 1516732559.301 ( -172.842 sec old)\nBuffer length: 4.800 sec\n"];
"multisense/right_camera_frame" -> "multisense/right_camera_optical_frame"[label="Broadcaster: /multisense_state_publisher\nAverage rate: 20.207 Hz\nMost recent transform: 1516732559.301 ( -172.842 sec old)\nBuffer length: 4.800 sec\n"];
"multisense/head" -> "multisense/right_led_frame"[label="Broadcaster: /multisense_state_publisher\nAverage rate: 20.207 Hz\nMost recent transform: 1516732559.301 ( -172.842 sec old)\nBuffer length: 4.800 sec\n"];
"multisense/motor" -> "multisense/spindle"[label="Broadcaster: /multisense_state_publisher\nAverage rate: 16.754 Hz\nMost recent transform: 1516732558.773 ( -172.314 sec old)\nBuffer length: 4.775 sec\n"];
"multisense/left_camera_optical_frame" -> "multisense/motor"[label="Broadcaster: /multisense/multisense_driver\nAverage rate: 40.208 Hz\nMost recent transform: 1516732558.780 ( -172.320 sec old)\nBuffer length: 4.825 sec\n"];
edge [style=invis];
 subgraph cluster_legend { style=bold; color=black; label ="view_frames Result";
"Recorded at time: 1516732386.460"[ shape=plaintext ] ;
 }->"left/wam7";
edge [style=invis];
 subgraph cluster_legend { style=bold; color=black; label ="view_frames Result";
"Recorded at time: 1516732386.460"[ shape=plaintext ] ;
 }->"right/wam7";
edge [style=invis];
 subgraph cluster_legend { style=bold; color=black; label ="view_frames Result";
"Recorded at time: 1516732386.460"[ shape=plaintext ] ;
 }->"map";
}