ip	class	dns.hostname	dns.authority	geoip.country	geoip.country_code	geoip.specific_name	geoip.specific_name_code	geoip.latitude	geoip.longitude	geoip.as_number	geoip.as_organization
202.141.161.30	only_services		ns.ustc.edu.cn. root.ustc.edu.cn. 21 10800 1800 3600000 86400	China	CN	Anhui	34	31.8639	117.2808	4134	No.31,Jin-rong Street
92.169.222.141	is_unconnectable	LFbn-1-4235-141.w92-169.abo.wanadoo.fr	ns.wanadoo.fr. postmaster.wanadoo.fr. 2015111202 86400 7200 604800 172800	France	FR	Essonne	91	48.7269	2.283	3215	Orange
130.237.218.118	is_unconnectable	dyna218-118.csc.kth.se	a.ns.kth.se. hostmaster.kth.se. 2018012601 600 600 604800 600	Sweden	SE	None	None	59.3247	18.056	1653	SUNET SUNET Swedish University Network
52.27.5.38	is_unconnectable	ec2-52-27-5-38.us-west-2.compute.amazonaws.com	dns-external-master.amazon.com. root.amazon.com. 1673 3600 900 604800 900	United States	US	Oregon	OR	45.8696	-119.688	16509	Amazon.com, Inc.
13.57.67.226	is_unconnectable	ec2-13-57-67-226.us-west-1.compute.amazonaws.com	dns-external-master.amazon.com. root.amazon.com. 1128 3600 900 604800 900	United States	US	California	CA	37.3388	-121.8914	16509	Amazon.com, Inc.
211.159.146.165	only_services			China	CN	Beijing	11	39.9289	116.3883	45090	Shenzhen Tencent Computer Systems Company Limited
81.164.130.207	needs_more_info	d51A482CF.access.telenet.be	ns.telenet-ops.be. systemgroup.telenet-ops.be. 2005010701 10800 3600 1209600 86400	Belgium	BE	Flemish Brabant Province	VBR	50.8796	4.7009	6848	Telenet BVBA
54.194.18.127	identified_robot	ec2-54-194-18-127.eu-west-1.compute.amazonaws.com	dns-external-master.amazon.com. root.amazon.com. 903 3600 900 604800 900	Ireland	IE	Leinster	L	53.3389	-6.2595	16509	Amazon.com, Inc.
35.197.160.232	is_unconnectable	232.160.197.35.bc.googleusercontent.com	ns-gce-public1.googledomains.com. cloud-dns-hostmaster.google.com. 1 21600 3600 259200 300	United States	US	California	CA	37.419200000000004	-122.0574	15169	Google LLC
139.78.165.161	only_services	lear.cs.okstate.edu	exns1.okstate.edu. hostmaster.okstate.edu. 2017102477 10800 3600 2419200 900	United States	US	Oklahoma	OK	36.0937	-96.9875	395421	Oklahoma State University
34.213.243.131	only_services	ec2-34-213-243-131.us-west-2.compute.amazonaws.com	dns-external-master.amazon.com. root.amazon.com. 1372 3600 900 604800 900	United States	US	Oregon	OR	45.8696	-119.688	16509	Amazon.com, Inc.
106.14.246.33	only_sim		rdns1.alidns.com. dnsmgr.alibaba-inc.com. 2015011329 1800 600 1814400 300	China	CN	Zhejiang	33	30.2936	120.1614	37963	Hangzhou Alibaba Advertising Co.,Ltd.
130.79.48.19	is_unconnectable	rosnet.u-strasbg.fr	ns1.u-strasbg.fr. hostmaster.u-strasbg.fr. 2018012622 3600 3600 1209600 3600	France	FR	Bas-Rhin	67	48.6004	7.7874	2259	Renater
52.48.112.50	identified_robot	ec2-52-48-112-50.eu-west-1.compute.amazonaws.com	dns-external-master.amazon.com. root.amazon.com. 1509 3600 900 604800 900	Ireland	IE	Leinster	L	53.3389	-6.2595	16509	Amazon.com, Inc.
52.59.111.141	only_sensors	ec2-52-59-111-141.eu-central-1.compute.amazonaws.com	dns-external-master.amazon.com. root.amazon.com. 1436 3600 900 604800 900	Germany	DE	Hesse	HE	50.1167	8.6833	16509	Amazon.com, Inc.
83.217.240.101	is_unconnectable		ns0.ntt.eu. dnsadmin.ntt.eu. 1517136665 16384 2048 1048576 2560	Spain	ES	None	None	40.4172	-3.684	2914	NTT America, Inc.
104.236.78.8	only_services		ns1.digitalocean.com. hostmaster.78.236.104.in-addr.arpa. 1517107863 10800 3600 604800 1800	United States	US	New Jersey	NJ	40.8326	-74.1307	14061	DigitalOcean, LLC
52.26.219.248	only_services	ec2-52-26-219-248.us-west-2.compute.amazonaws.com	dns-external-master.amazon.com. root.amazon.com. 1551 3600 900 604800 900	United States	US	Oregon	OR	45.8696	-119.688	16509	Amazon.com, Inc.
13.57.99.200	only_sensors	ec2-13-57-99-200.us-west-1.compute.amazonaws.com	dns-external-master.amazon.com. root.amazon.com. 1128 3600 900 604800 900	United States	US	California	CA	37.3388	-121.8914	16509	Amazon.com, Inc.
122.116.220.65	identified_robot	122-116-220-65.HINET-IP.hinet.net	vns1.hinet.net. hostmaster.vns1.hinet.net. 201109230 43200 7200 360000 43200	Taiwan	TW	None	None	23.5	121.0	3462	Data Communication Business Group
128.208.5.66	only_sim	walle.cs.washington.edu	june.cs.washington.edu. postmaster.cs.washington.edu. 4579 10800 3600 3600000 86400	United States	US	Washington	WA	47.6854	-122.2872	73	University of Washington
121.88.5.245	is_unconnectable		ns1.withsystems.co.kr. root.withsystems.co.kr. 2012071915 172800 3600 1728000 300	Republic of Korea	KR	None	None	37.5112	126.97409999999999	10036	DLIVE
34.253.221.65	identified_robot	ec2-34-253-221-65.eu-west-1.compute.amazonaws.com	dns-external-master.amazon.com. root.amazon.com. 1410 3600 900 604800 900	Ireland	IE	Leinster	L	53.3389	-6.2595	16509	Amazon.com, Inc.
128.199.108.192	is_unconnectable			Singapore	SG	Central Singapore Community Development Council	01	1.2854999999999999	103.8565	14061	DigitalOcean, LLC
