{
    "ip": "164.125.61.117",
    "dns.hostname": "",
    "dns.authority": "jagalchi.pusan.ac.kr. dns.pusan.ac.kr. 2017071117 10800 1800 604800 10800",
    "geoip.country": "Republic of Korea",
    "geoip.country_code": "KR",
    "geoip.specific_name": "Busan",
    "geoip.specific_name_code": "26",
    "geoip.latitude": 35.1028,
    "geoip.longitude": 129.0403,
    "geoip.as_number": 9274,
    "geoip.as_organization": "Pusan National University",
    "shodan.ports": "",
    "shodan.tags": "",
    "rosversion": {
        "port": "11311",
        "type": "xmlrpc",
        "method": "rosversion",
        "arg": "/rosversion",
        "status": "ok",
        "response": {
            "status_code": 1,
            "status_message": "Parameter [/rosversion]",
            "param": "1.12.7\n"
        }
    },
    "rosparamnames": {
        "port": "11311",
        "type": "xmlrpc",
        "method": "rosparamnames",
        "arg": "",
        "status": "ok",
        "response": {
            "status_code": 1,
            "status_message": "Parameter names",
            "paramNames": [
                "/roslaunch/uris/host_nsslab_hw__36363",
                "/roslaunch/uris/host_nsslab_hw__43521",
                "/roslaunch/uris/host_nsslab_hw__36387",
                "/roslaunch/uris/host_nsslab_hw__41379",
                "/roslaunch/uris/host_nsslab_hw__32927",
                "/roslaunch/uris/host_nsslab_hw__36417",
                "/roslaunch/uris/host_nsslab_hw__46183",
                "/roslaunch/uris/host_nsslab_hw__39681",
                "/roslaunch/uris/host_nsslab_hw__41881",
                "/roslaunch/uris/host_nsslab_hw__34561",
                "/roslaunch/uris/host_nsslab_hw__43345",
                "/roslaunch/uris/host_nsslab_hw__41861",
                "/roslaunch/uris/host_nsslab_hw__40647",
                "/roslaunch/uris/host_nsslab_hw__44897",
                "/roslaunch/uris/host_nsslab_hw__40079",
                "/roslaunch/uris/host_nsslab_hw__41639",
                "/roslaunch/uris/host_nsslab_hw__46817",
                "/roslaunch/uris/host_nsslab_hw__41013",
                "/roslaunch/uris/host_nsslab_hw__40189",
                "/roslaunch/uris/host_nsslab_hw__35847",
                "/roslaunch/uris/host_nsslab_hw__44381",
                "/roslaunch/uris/host_nsslab_hw__45869",
                "/roslaunch/uris/host_nsslab_hw__36229",
                "/roslaunch/uris/host_nsslab_hw__35157",
                "/roslaunch/uris/host_nsslab_hw__38459",
                "/roslaunch/uris/host_nsslab_hw__41343",
                "/roslaunch/uris/host_nsslab_hw__38321",
                "/roslaunch/uris/host_nsslab_hw__37677",
                "/roslaunch/uris/host_nsslab_hw__45595",
                "/roslaunch/uris/host_nsslab_hw__41587",
                "/roslaunch/uris/host_nsslab_hw__43107",
                "/roslaunch/uris/host_nsslab_hw__43779",
                "/roslaunch/uris/host_nsslab_hw__44839",
                "/roslaunch/uris/host_nsslab_hw__45881",
                "/roslaunch/uris/host_nsslab_hw__34125",
                "/roslaunch/uris/host_nsslab_hw__44641",
                "/roslaunch/uris/host_nsslab_hw__32779",
                "/roslaunch/uris/host_nsslab_hw__42855",
                "/roslaunch/uris/host_nsslab_hw__36069",
                "/roslaunch/uris/host_nsslab_hw__32771",
                "/roslaunch/uris/host_nsslab_hw__33377",
                "/roslaunch/uris/host_nsslab_hw__43429",
                "/roslaunch/uris/host_nsslab_hw__35429",
                "/roslaunch/uris/host_nsslab_hw__41719",
                "/roslaunch/uris/host_nsslab_hw__46679",
                "/roslaunch/uris/host_nsslab_hw__44391",
                "/local_costmap/costmap/footprint_padding",
                "/local_costmap/costmap/robot_base_frame",
                "/local_costmap/costmap/inflation_radius",
                "/local_costmap/costmap/static_map/enabled",
                "/local_costmap/costmap/obstacle_range",
                "/local_costmap/costmap/global_frame",
                "/local_costmap/costmap/inflater/inflate_unknown",
                "/local_costmap/costmap/inflater/cost_scaling_factor",
                "/local_costmap/costmap/inflater/inflation_radius",
                "/local_costmap/costmap/inflater/enabled",
                "/local_costmap/costmap/raytrace_range",
                "/local_costmap/costmap/height",
                "/local_costmap/costmap/rolling_window",
                "/local_costmap/costmap/width",
                "/local_costmap/costmap/obstacle_layer/enabled",
                "/local_costmap/costmap/obstacle_layer/base_scan/marking",
                "/local_costmap/costmap/obstacle_layer/base_scan/data_type",
                "/local_costmap/costmap/obstacle_layer/base_scan/clearing",
                "/local_costmap/costmap/obstacle_layer/base_scan/topic",
                "/local_costmap/costmap/obstacle_layer/base_scan/sensor_frame",
                "/local_costmap/costmap/obstacle_layer/base_scan/observation_persistance",
                "/local_costmap/costmap/obstacle_layer/combination_method",
                "/local_costmap/costmap/obstacle_layer/footprint_clearing_enabled",
                "/local_costmap/costmap/obstacle_layer/observation_sources",
                "/local_costmap/costmap/obstacle_layer/max_obstacle_height",
                "/local_costmap/costmap/obstacle_layer/track_unkown_space",
                "/local_costmap/costmap/update_frequency",
                "/local_costmap/costmap/origin_y",
                "/local_costmap/costmap/plugins",
                "/local_costmap/costmap/footprint",
                "/local_costmap/costmap/transform_tolerance",
                "/local_costmap/costmap/resolution",
                "/local_costmap/costmap/robot_radius",
                "/local_costmap/costmap/origin_x",
                "/local_costmap/costmap/publish_frequency",
                "/rosversion",
                "/run_id",
                "/robot_description",
                "/rosdistro",
                "/rplidarNode/frame_id"
            ]
        }
    },
    "rostopic": {
        "port": "11311",
        "type": "xmlrpc",
        "method": "rostopic",
        "arg": "/rosversion",
        "status": "ok",
        "response": {
            "status_code": 1,
            "status_message": "current system state",
            "system_state": {
                "publishers": {
                    "/rosout_agg": [
                        "/rosout"
                    ]
                },
                "subscribers": {
                    "/rosout": [
                        "/rosout"
                    ]
                },
                "services": {
                    "/rosout/set_logger_level": [
                        "/rosout"
                    ],
                    "/rosout/get_loggers": [
                        "/rosout"
                    ]
                }
            }
        }
    },
    "rosdescription": {
        "port": "11311",
        "type": "xmlrpc",
        "method": "rosdescription",
        "arg": "/robot_description",
        "status": "ok",
        "response": {
            "status_code": 1,
            "status_message": "Parameter [/robot_description]",
            "param": "<SEE EXTERNAL_FILE>"
        }
    },
    "query_stats": {
        "param_count": 86,
        "publisher_count": 1,
        "subscriber_count": 1,
        "service_count": 2,
        "term_count": 90,
        "alphaterm_count": 45,
        "topic_count": 4,
        "has_description": true,
        "description_name": "kobuki_standalone",
        "is_ros": true,
        "roscore_version": "1.12",
        "ros_version_name": "kinetic",
        "missing_term_data": false,
        "roslaunch_machine_hostnames": [
            "nsslab_hw"
        ],
        "has_hostname": true,
        "machine_hostname": "nsslab_hw"
    },
    "search_info": {
        "count_control": 0,
        "count_simulators": 0,
        "count_sensors": 0,
        "count_actuators": 0,
        "count_other": 0,
        "count_robot_types": 0,
        "count_targets": 0,
        "total_query_hits": 0
    },
    "search_stats": {
        "control": {},
        "simulators": {},
        "sensors": {},
        "actuators": {},
        "other": {},
        "robot_types": {},
        "targets": {}
    },
    "inferred_results": {
        "identified_robot": false,
        "only_sim": false,
        "likely_empty": true,
        "only_sensors": false,
        "only_actuators": false,
        "only_services": false,
        "needs_more_info": false,
        "confirmed_ros": true,
        "total_hosts": false,
        "is_unconnectable": false,
        "search_hit_sim": false,
        "has_sensor": false,
        "has_actuator": false,
        "has_hostname": true,
        "missing_term_data": false,
        "has_description": true,
        "has_descr_name": true,
        "has_search_hits": false,
        "manually_tagged": false,
        "search_hit_gazebo": false,
        "likely_non_robot": false
    }
}
