{
    "ip": "111.186.100.21",
    "dns.hostname": "",
    "dns.authority": "NS2.NET.EDU.CN. HOSTMASTER.NET.EDU.CN. 2016120900 28800 7200 604800 86400",
    "geoip.country": "China",
    "geoip.country_code": "CN",
    "geoip.specific_name": "Shanghai",
    "geoip.specific_name_code": "31",
    "geoip.latitude": 31.0456,
    "geoip.longitude": 121.3997,
    "geoip.as_number": 4538,
    "geoip.as_organization": "China Education and Research Network Center",
    "shodan.ports": [
        500
    ],
    "shodan.tags": [
        "vpn"
    ],
    "rosversion": {
        "port": "11311",
        "type": "xmlrpc",
        "method": "rosversion",
        "arg": "/rosversion",
        "status": "socket_error",
        "error": {
            "code": -1,
            "errno": 110,
            "msg": "Connection timed out"
        }
    },
    "rosparamnames": "",
    "rostopic": "",
    "rosdescription": "",
    "query_stats": {
        "param_count": 0,
        "publisher_count": 0,
        "subscriber_count": 0,
        "service_count": 0,
        "term_count": 0,
        "alphaterm_count": 0,
        "topic_count": 0,
        "has_description": false,
        "is_ros": false,
        "missing_term_data": true,
        "has_hostname": false,
        "roslaunch_machine_hostnames": []
    },
    "search_info": "",
    "search_stats": "",
    "inferred_results": {
        "identified_robot": false,
        "only_sim": false,
        "likely_empty": false,
        "only_sensors": false,
        "only_actuators": false,
        "only_services": false,
        "needs_more_info": false,
        "confirmed_ros": false,
        "total_hosts": false,
        "is_unconnectable": true,
        "search_hit_sim": false,
        "has_sensor": false,
        "has_actuator": false,
        "has_hostname": false,
        "missing_term_data": true,
        "has_description": false,
        "has_descr_name": false,
        "has_search_hits": false,
        "manually_tagged": false,
        "search_hit_gazebo": false,
        "likely_non_robot": false
    }
}
