{
    "ip": "140.112.28.112",
    "dns.hostname": "esl.csie.ntu.edu.tw",
    "dns.authority": "csman.csie.ntu.edu.tw. ta221.csie.ntu.edu.tw. 2017112600 3600 3600 604800 86400",
    "geoip.country": "Taiwan",
    "geoip.country_code": "TW",
    "geoip.specific_name": "Taipei City",
    "geoip.specific_name_code": "TPE",
    "geoip.latitude": 25.0418,
    "geoip.longitude": 121.4966,
    "geoip.as_number": 17716,
    "geoip.as_organization": "National Taiwan University",
    "shodan.ports": [
        80,
        1883,
        902,
        22
    ],
    "shodan.tags": [],
    "rosversion": {
        "port": "11311",
        "type": "xmlrpc",
        "method": "rosversion",
        "arg": "/rosversion",
        "status": "ok",
        "response": {
            "status_code": 1,
            "status_message": "Parameter [/rosversion]",
            "param": "1.12.7\n"
        }
    },
    "rosparamnames": {
        "port": "11311",
        "type": "xmlrpc",
        "method": "rosparamnames",
        "arg": "",
        "status": "ok",
        "response": {
            "status_code": 1,
            "status_message": "Parameter names",
            "paramNames": [
                "/roslaunch/uris/host_newslab_system_product_name__46689",
                "/roslaunch/uris/host_newslab_system_product_name__39999",
                "/roslaunch/uris/host_newslab_system_product_name__45379",
                "/roslaunch/uris/host_newslab_system_product_name__43299",
                "/roslaunch/uris/host_newslab_system_product_name__41171",
                "/roslaunch/uris/host_newslab_system_product_name__40175",
                "/roslaunch/uris/host_newslab_system_product_name__38923",
                "/roslaunch/uris/host_newslab_system_product_name__36177",
                "/roslaunch/uris/host_newslab_system_product_name__36631",
                "/roslaunch/uris/host_newslab_system_product_name__33359",
                "/roslaunch/uris/host_newslab_system_product_name__39905",
                "/roslaunch/uris/host_newslab_system_product_name__38107",
                "/roslaunch/uris/host_newslab_system_product_name__45067",
                "/roslaunch/uris/host_newslab_system_product_name__36541",
                "/roslaunch/uris/host_newslab_system_product_name__35665",
                "/roslaunch/uris/host_newslab_system_product_name__44387",
                "/roslaunch/uris/host_newslab_system_product_name__42121",
                "/roslaunch/uris/host_newslab_system_product_name__34767",
                "/rosversion",
                "/run_id",
                "/use_sim_time",
                "/can_node/channel_3_match_1",
                "/can_node/channel_3_match_0",
                "/can_node/channel_3_mask_3",
                "/can_node/channel_3_mask_2",
                "/can_node/channel_3_mask_1",
                "/can_node/channel_3_mask_0",
                "/can_node/channel_3_match_3",
                "/can_node/bitrate_3",
                "/can_node/bitrate_2",
                "/can_node/bitrate_1",
                "/can_node/channel_3_match_2",
                "/can_node/bitrate_4",
                "/vehicle/twist_controller/pub_steering",
                "/vehicle/twist_controller/accel_kp",
                "/vehicle/twist_controller/steer_kp",
                "/vehicle/twist_controller/vehicle_mass",
                "/vehicle/twist_controller/pub_pedals",
                "/vehicle/twist_controller/speed_kp",
                "/vehicle/twist_controller/accel_max",
                "/vehicle/twist_controller/wheel_radius",
                "/vehicle/twist_controller/steering_ratio",
                "/vehicle/twist_controller/ackermann_wheelbase",
                "/vehicle/twist_controller/fuel_capacity",
                "/vehicle/twist_controller/max_lat_accel",
                "/vehicle/twist_controller/accel_ki",
                "/vehicle/twist_controller/ackermann_track",
                "/vehicle/twist_controller/accel_tau",
                "/vehicle/twist_controller/decel_max",
                "/vehicle/twist_controller/brake_deadband",
                "/vehicle/robot_state_publisher/publish_frequency",
                "/vehicle/dbw_node/ackermann_wheelbase",
                "/vehicle/dbw_node/boo_thresh_lo",
                "/vehicle/dbw_node/boo_thresh_hi",
                "/vehicle/dbw_node/steering_ratio",
                "/vehicle/dbw_node/buttons",
                "/vehicle/dbw_node/frame_id",
                "/vehicle/dbw_node/ackermann_track",
                "/vehicle/dbw_node/boo_control",
                "/vehicle/robot_description",
                "/rosdistro"
            ]
        }
    },
    "rostopic": {
        "port": "11311",
        "type": "xmlrpc",
        "method": "rostopic",
        "arg": "/rosversion",
        "status": "ok",
        "response": {
            "status_code": 1,
            "status_message": "current system state",
            "system_state": {
                "publishers": {
                    "/rosout_agg": [
                        "/rosout"
                    ],
                    "/move_base_simple/goal": [
                        "/rviz_dbw"
                    ],
                    "/rosout": [
                        "/static_transform_publisher_1511755169373242881",
                        "/rviz_dbw"
                    ],
                    "/initialpose": [
                        "/rviz_dbw"
                    ],
                    "/tf": [
                        "/static_transform_publisher_1511755169373242881"
                    ],
                    "/clicked_point": [
                        "/rviz_dbw"
                    ]
                },
                "subscribers": {
                    "/rosout": [
                        "/rosout"
                    ],
                    "/tf": [
                        "/rviz_dbw"
                    ],
                    "/vehicle/sonar_cloud": [
                        "/rviz_dbw"
                    ],
                    "/tf_static": [
                        "/rviz_dbw"
                    ],
                    "/clock": [
                        "/rosout",
                        "/static_transform_publisher_1511755169373242881",
                        "/rviz_dbw"
                    ]
                },
                "services": {
                    "/static_transform_publisher_1511755169373242881/set_logger_level": [
                        "/static_transform_publisher_1511755169373242881"
                    ],
                    "/rviz_dbw/reload_shaders": [
                        "/rviz_dbw"
                    ],
                    "/rviz_dbw/get_loggers": [
                        "/rviz_dbw"
                    ],
                    "/static_transform_publisher_1511755169373242881/get_loggers": [
                        "/static_transform_publisher_1511755169373242881"
                    ],
                    "/rosout/get_loggers": [
                        "/rosout"
                    ],
                    "/rviz_dbw/set_logger_level": [
                        "/rviz_dbw"
                    ],
                    "/rosout/set_logger_level": [
                        "/rosout"
                    ]
                }
            }
        }
    },
    "rosdescription": {
        "port": "11311",
        "type": "xmlrpc",
        "method": "rosdescription",
        "arg": "/robot_description",
        "status": "ok",
        "response": {
            "status_code": -1,
            "status_message": "Parameter [/robot_description] is not set",
            "param": 0
        }
    },
    "query_stats": {
        "param_count": 61,
        "publisher_count": 6,
        "subscriber_count": 5,
        "service_count": 7,
        "term_count": 79,
        "alphaterm_count": 53,
        "topic_count": 18,
        "has_description": false,
        "is_ros": true,
        "roscore_version": "1.12",
        "ros_version_name": "kinetic",
        "missing_term_data": false,
        "roslaunch_machine_hostnames": [
            "newslab_system_product_name"
        ],
        "has_hostname": true,
        "machine_hostname": "newslab_system_product_name"
    },
    "search_info": {
        "count_control": 0,
        "count_simulators": 0,
        "count_sensors": 0,
        "count_actuators": 0,
        "count_other": 2,
        "count_robot_types": 0,
        "count_targets": 1,
        "total_query_hits": 3
    },
    "search_stats": {
        "control": {},
        "simulators": {},
        "sensors": {},
        "actuators": {},
        "other": {
            "rviz": {
                "param": "rviz",
                "hit": true,
                "count": 4,
                "matches": [
                    "/rviz_dbw",
                    "/rviz_dbw/reload_shaders",
                    "/rviz_dbw/get_loggers",
                    "/rviz_dbw/set_logger_level"
                ]
            },
            "transform": {
                "param": "or",
                "hit": true,
                "children": [
                    {
                        "param": "tf",
                        "hit": true,
                        "count": 2,
                        "matches": [
                            "/tf_static",
                            "/tf"
                        ]
                    },
                    {
                        "param": "tf_static",
                        "hit": true,
                        "count": 1,
                        "matches": [
                            "/tf_static"
                        ]
                    }
                ]
            }
        },
        "robot_types": {},
        "targets": {
            "vehicle": {
                "param": "vehicle",
                "hit": true,
                "count": 1,
                "matches": [
                    "/vehicle/sonar_cloud"
                ]
            }
        }
    },
    "inferred_results": {
        "identified_robot": false,
        "only_sim": false,
        "likely_empty": false,
        "only_sensors": false,
        "only_actuators": false,
        "only_services": true,
        "needs_more_info": false,
        "confirmed_ros": true,
        "total_hosts": false,
        "is_unconnectable": false,
        "search_hit_sim": false,
        "has_sensor": false,
        "has_actuator": false,
        "has_hostname": true,
        "missing_term_data": false,
        "has_description": false,
        "has_descr_name": false,
        "has_search_hits": true,
        "manually_tagged": false,
        "search_hit_gazebo": false,
        "likely_non_robot": false
    }
}
