{
    "ip": "130.237.218.114",
    "dns.hostname": "dyna218-114.csc.kth.se",
    "dns.authority": "a.ns.kth.se. hostmaster.kth.se. 2017121401 600 600 604800 600",
    "geoip.country": "Sweden",
    "geoip.country_code": "SE",
    "geoip.specific_name": null,
    "geoip.specific_name_code": null,
    "geoip.latitude": 59.3247,
    "geoip.longitude": 18.056,
    "geoip.as_number": 1653,
    "geoip.as_organization": "SUNET SUNET Swedish University Network",
    "shodan.ports": [
        22
    ],
    "shodan.tags": [],
    "rosversion": {
        "port": "11311",
        "type": "xmlrpc",
        "method": "rosversion",
        "arg": "/rosversion",
        "status": "ok",
        "response": {
            "status_code": 1,
            "status_message": "Parameter [/rosversion]",
            "param": "1.12.7\n"
        }
    },
    "rosparamnames": {
        "port": "11311",
        "type": "xmlrpc",
        "method": "rosparamnames",
        "arg": "",
        "status": "ok",
        "response": {
            "status_code": 1,
            "status_message": "Parameter names",
            "paramNames": [
                "/roslaunch/uris/host_reinforce__32924",
                "/roslaunch/uris/host_reinforce__35951",
                "/depthimage_to_laserscan/output_frame_id",
                "/depthimage_to_laserscan/scan_height",
                "/depthimage_to_laserscan/scan_time",
                "/depthimage_to_laserscan/range_max",
                "/depthimage_to_laserscan/range_min",
                "/cmd_vel_mux/yaml_cfg_file",
                "/cmd_vel_mux/yaml_cfg_data",
                "/rosversion",
                "/run_id",
                "/camera/rgb/image_raw/compressedDepth/depth_max",
                "/camera/rgb/image_raw/compressedDepth/png_level",
                "/camera/rgb/image_raw/compressedDepth/depth_quantization",
                "/camera/rgb/image_raw/compressed/png_level",
                "/camera/rgb/image_raw/compressed/jpeg_quality",
                "/camera/rgb/image_raw/compressed/format",
                "/camera/rgb/image_raw/theora/optimize_for",
                "/camera/rgb/image_raw/theora/target_bitrate",
                "/camera/rgb/image_raw/theora/quality",
                "/camera/rgb/image_raw/theora/keyframe_frequency",
                "/camera/imager_rate",
                "/robot_state_publisher/publish_frequency",
                "/turtlebot_teleop_keyboard/scale_linear",
                "/turtlebot_teleop_keyboard/scale_angular",
                "/bumper2pointcloud/pointcloud_radius",
                "/robot_description",
                "/use_sim_time",
                "/rosdistro",
                "/gazebo/gravity_z",
                "/gazebo/cfm",
                "/gazebo/erp",
                "/gazebo/contact_max_correcting_vel",
                "/gazebo/sor_pgs_iters",
                "/gazebo/sor_pgs_precon_iters",
                "/gazebo/auto_disable_bodies",
                "/gazebo/sor_pgs_rms_error_tol",
                "/gazebo/contact_surface_layer",
                "/gazebo/max_update_rate",
                "/gazebo/gravity_x",
                "/gazebo/gravity_y",
                "/gazebo/time_step",
                "/gazebo/max_contacts",
                "/gazebo/sor_pgs_w"
            ]
        }
    },
    "rostopic": {
        "port": "11311",
        "type": "xmlrpc",
        "method": "rostopic",
        "arg": "/rosversion",
        "status": "ok",
        "response": {
            "status_code": 1,
            "status_message": "current system state",
            "system_state": {
                "publishers": {
                    "/camera/rgb/image_raw/compressedDepth/parameter_updates": [
                        "/gazebo"
                    ],
                    "/camera/rgb/image_raw": [
                        "/gazebo"
                    ],
                    "/cmd_vel_mux/parameter_descriptions": [
                        "/mobile_base_nodelet_manager"
                    ],
                    "/tf": [
                        "/robot_state_publisher",
                        "/gazebo"
                    ],
                    "/odom": [
                        "/gazebo"
                    ],
                    "/scan": [
                        "/laserscan_nodelet_manager"
                    ],
                    "/camera/rgb/image_raw/compressed": [
                        "/gazebo"
                    ],
                    "/cmd_vel_mux/parameter_updates": [
                        "/mobile_base_nodelet_manager"
                    ],
                    "/camera/depth/camera_info": [
                        "/gazebo"
                    ],
                    "/camera/rgb/camera_info": [
                        "/gazebo"
                    ],
                    "/mobile_base/sensors/bumper_pointcloud": [
                        "/mobile_base_nodelet_manager"
                    ],
                    "/mobile_base/sensors/imu_data": [
                        "/gazebo"
                    ],
                    "/camera/rgb/image_raw/compressed/parameter_updates": [
                        "/gazebo"
                    ],
                    "/mobile_base/commands/velocity": [
                        "/mobile_base_nodelet_manager"
                    ],
                    "/tf_static": [
                        "/robot_state_publisher"
                    ],
                    "/gazebo/parameter_descriptions": [
                        "/gazebo"
                    ],
                    "/camera/parameter_descriptions": [
                        "/gazebo"
                    ],
                    "/cmd_vel_mux/active": [
                        "/mobile_base_nodelet_manager"
                    ],
                    "/camera/rgb/image_raw/compressed/parameter_descriptions": [
                        "/gazebo"
                    ],
                    "/laserscan_nodelet_manager/bond": [
                        "/laserscan_nodelet_manager",
                        "/depthimage_to_laserscan"
                    ],
                    "/depthimage_to_laserscan/parameter_updates": [
                        "/laserscan_nodelet_manager"
                    ],
                    "/joint_states": [
                        "/gazebo"
                    ],
                    "/rosout": [
                        "/cmd_vel_mux",
                        "/bumper2pointcloud",
                        "/mobile_base_nodelet_manager",
                        "/robot_state_publisher",
                        "/depthimage_to_laserscan",
                        "/laserscan_nodelet_manager",
                        "/gazebo"
                    ],
                    "/camera/depth/image_raw": [
                        "/gazebo"
                    ],
                    "/rosout_agg": [
                        "/rosout"
                    ],
                    "/mobile_base/events/bumper": [
                        "/gazebo"
                    ],
                    "/camera/parameter_updates": [
                        "/gazebo"
                    ],
                    "/camera/depth/points": [
                        "/gazebo"
                    ],
                    "/camera/rgb/image_raw/compressedDepth": [
                        "/gazebo"
                    ],
                    "/camera/rgb/image_raw/compressedDepth/parameter_descriptions": [
                        "/gazebo"
                    ],
                    "/mobile_base/events/cliff": [
                        "/gazebo"
                    ],
                    "/camera/rgb/image_raw/theora": [
                        "/gazebo"
                    ],
                    "/gazebo/link_states": [
                        "/gazebo"
                    ],
                    "/camera/rgb/image_raw/theora/parameter_updates": [
                        "/gazebo"
                    ],
                    "/gazebo/model_states": [
                        "/gazebo"
                    ],
                    "/clock": [
                        "/gazebo"
                    ],
                    "/mobile_base_nodelet_manager/bond": [
                        "/mobile_base_nodelet_manager",
                        "/bumper2pointcloud",
                        "/cmd_vel_mux"
                    ],
                    "/depthimage_to_laserscan/parameter_descriptions": [
                        "/laserscan_nodelet_manager"
                    ],
                    "/camera/rgb/image_raw/theora/parameter_descriptions": [
                        "/gazebo"
                    ],
                    "/gazebo/parameter_updates": [
                        "/gazebo"
                    ]
                },
                "subscribers": {
                    "/gazebo/set_model_state": [
                        "/gazebo"
                    ],
                    "/mobile_base/commands/motor_power": [
                        "/gazebo"
                    ],
                    "/gazebo/set_link_state": [
                        "/gazebo"
                    ],
                    "/laserscan_nodelet_manager/bond": [
                        "/laserscan_nodelet_manager",
                        "/depthimage_to_laserscan"
                    ],
                    "/mobile_base/commands/reset_odometry": [
                        "/gazebo"
                    ],
                    "/joint_states": [
                        "/robot_state_publisher"
                    ],
                    "/rosout": [
                        "/rosout"
                    ],
                    "/cmd_vel_mux/input/switch": [
                        "/mobile_base_nodelet_manager"
                    ],
                    "/clock": [
                        "/rosout",
                        "/cmd_vel_mux",
                        "/bumper2pointcloud",
                        "/mobile_base_nodelet_manager",
                        "/robot_state_publisher",
                        "/depthimage_to_laserscan",
                        "/laserscan_nodelet_manager",
                        "/gazebo"
                    ],
                    "/cmd_vel_mux/input/safety_controller": [
                        "/mobile_base_nodelet_manager"
                    ],
                    "/mobile_base/sensors/core": [
                        "/mobile_base_nodelet_manager"
                    ],
                    "/cmd_vel_mux/input/navi": [
                        "/mobile_base_nodelet_manager"
                    ],
                    "/cmd_vel_mux/input/teleop": [
                        "/mobile_base_nodelet_manager"
                    ],
                    "/mobile_base/commands/velocity": [
                        "/gazebo"
                    ],
                    "/mobile_base_nodelet_manager/bond": [
                        "/mobile_base_nodelet_manager",
                        "/bumper2pointcloud",
                        "/cmd_vel_mux"
                    ]
                },
                "services": {
                    "/cmd_vel_mux/set_logger_level": [
                        "/cmd_vel_mux"
                    ],
                    "/gazebo/apply_joint_effort": [
                        "/gazebo"
                    ],
                    "/robot_state_publisher/get_loggers": [
                        "/robot_state_publisher"
                    ],
                    "/gazebo/get_physics_properties": [
                        "/gazebo"
                    ],
                    "/cmd_vel_mux/get_loggers": [
                        "/cmd_vel_mux"
                    ],
                    "/gazebo/set_link_state": [
                        "/gazebo"
                    ],
                    "/bumper2pointcloud/get_loggers": [
                        "/bumper2pointcloud"
                    ],
                    "/gazebo/set_joint_properties": [
                        "/gazebo"
                    ],
                    "/gazebo/get_world_properties": [
                        "/gazebo"
                    ],
                    "/gazebo/set_logger_level": [
                        "/gazebo"
                    ],
                    "/gazebo/reset_world": [
                        "/gazebo"
                    ],
                    "/camera/rgb/image_raw/compressed/set_parameters": [
                        "/gazebo"
                    ],
                    "/camera/rgb/image_raw/compressedDepth/set_parameters": [
                        "/gazebo"
                    ],
                    "/gazebo/set_model_configuration": [
                        "/gazebo"
                    ],
                    "/bumper2pointcloud/set_logger_level": [
                        "/bumper2pointcloud"
                    ],
                    "/gazebo/delete_light": [
                        "/gazebo"
                    ],
                    "/camera/set_parameters": [
                        "/gazebo"
                    ],
                    "/robot_state_publisher/set_logger_level": [
                        "/robot_state_publisher"
                    ],
                    "/gazebo/spawn_sdf_model": [
                        "/gazebo"
                    ],
                    "/gazebo/unpause_physics": [
                        "/gazebo"
                    ],
                    "/gazebo/spawn_urdf_model": [
                        "/gazebo"
                    ],
                    "/laserscan_nodelet_manager/get_loggers": [
                        "/laserscan_nodelet_manager"
                    ],
                    "/depthimage_to_laserscan/set_parameters": [
                        "/laserscan_nodelet_manager"
                    ],
                    "/gazebo/get_loggers": [
                        "/gazebo"
                    ],
                    "/depthimage_to_laserscan/get_loggers": [
                        "/depthimage_to_laserscan"
                    ],
                    "/gazebo/get_joint_properties": [
                        "/gazebo"
                    ],
                    "/rosout/set_logger_level": [
                        "/rosout"
                    ],
                    "/laserscan_nodelet_manager/set_logger_level": [
                        "/laserscan_nodelet_manager"
                    ],
                    "/mobile_base_nodelet_manager/set_logger_level": [
                        "/mobile_base_nodelet_manager"
                    ],
                    "/mobile_base_nodelet_manager/get_loggers": [
                        "/mobile_base_nodelet_manager"
                    ],
                    "/gazebo/pause_physics": [
                        "/gazebo"
                    ],
                    "/camera/rgb/image_raw/theora/set_parameters": [
                        "/gazebo"
                    ],
                    "/cmd_vel_mux/set_parameters": [
                        "/mobile_base_nodelet_manager"
                    ],
                    "/gazebo/set_parameters": [
                        "/gazebo"
                    ],
                    "/gazebo/set_physics_properties": [
                        "/gazebo"
                    ],
                    "/gazebo/set_light_properties": [
                        "/gazebo"
                    ],
                    "/gazebo/set_model_state": [
                        "/gazebo"
                    ],
                    "/gazebo/reset_simulation": [
                        "/gazebo"
                    ],
                    "/gazebo/delete_model": [
                        "/gazebo"
                    ],
                    "/mobile_base_nodelet_manager/load_nodelet": [
                        "/mobile_base_nodelet_manager"
                    ],
                    "/laserscan_nodelet_manager/load_nodelet": [
                        "/laserscan_nodelet_manager"
                    ],
                    "/mobile_base_nodelet_manager/list": [
                        "/mobile_base_nodelet_manager"
                    ],
                    "/gazebo/set_link_properties": [
                        "/gazebo"
                    ],
                    "/laserscan_nodelet_manager/list": [
                        "/laserscan_nodelet_manager"
                    ],
                    "/gazebo/apply_body_wrench": [
                        "/gazebo"
                    ],
                    "/gazebo/get_link_state": [
                        "/gazebo"
                    ],
                    "/gazebo/get_light_properties": [
                        "/gazebo"
                    ],
                    "/gazebo/clear_body_wrenches": [
                        "/gazebo"
                    ],
                    "/camera/set_camera_info": [
                        "/gazebo"
                    ],
                    "/depthimage_to_laserscan/set_logger_level": [
                        "/depthimage_to_laserscan"
                    ],
                    "/rosout/get_loggers": [
                        "/rosout"
                    ],
                    "/gazebo/get_link_properties": [
                        "/gazebo"
                    ],
                    "/gazebo/get_model_state": [
                        "/gazebo"
                    ],
                    "/mobile_base_nodelet_manager/unload_nodelet": [
                        "/mobile_base_nodelet_manager"
                    ],
                    "/laserscan_nodelet_manager/unload_nodelet": [
                        "/laserscan_nodelet_manager"
                    ],
                    "/gazebo/clear_joint_forces": [
                        "/gazebo"
                    ],
                    "/gazebo/get_model_properties": [
                        "/gazebo"
                    ]
                }
            }
        }
    },
    "rosdescription": {
        "port": "11311",
        "type": "xmlrpc",
        "method": "rosdescription",
        "arg": "/robot_description",
        "status": "ok",
        "response": {
            "status_code": 1,
            "status_message": "Parameter [/robot_description]",
            "param": "<SEE EXTERNAL_FILE>"
        }
    },
    "query_stats": {
        "param_count": 44,
        "publisher_count": 40,
        "subscriber_count": 15,
        "service_count": 57,
        "term_count": 155,
        "alphaterm_count": 154,
        "topic_count": 111,
        "has_description": true,
        "description_name": "turtlebot",
        "is_ros": true,
        "roscore_version": "1.12",
        "ros_version_name": "kinetic",
        "missing_term_data": false,
        "roslaunch_machine_hostnames": [
            "reinforce"
        ],
        "has_hostname": true,
        "machine_hostname": "reinforce"
    },
    "search_info": {
        "count_control": 0,
        "count_simulators": 2,
        "count_sensors": 7,
        "count_actuators": 2,
        "count_other": 1,
        "count_robot_types": 0,
        "count_targets": 0,
        "total_query_hits": 12
    },
    "search_stats": {
        "control": {},
        "simulators": {
            "sim_any": {
                "param": "not",
                "hit": true,
                "children": [
                    {
                        "param": "and",
                        "hit": false,
                        "children": [
                            {
                                "param": "not",
                                "hit": false,
                                "children": [
                                    {
                                        "param": "gazebo",
                                        "hit": true,
                                        "count": 35,
                                        "matches": [
                                            "/gazebo/set_logger_level",
                                            "/gazebo/get_world_properties",
                                            "/gazebo/reset_world",
                                            "/gazebo/get_model_state",
                                            "/gazebo/model_states",
                                            "/gazebo/clear_body_wrenches",
                                            "/gazebo/set_light_properties",
                                            "/gazebo/clear_joint_forces",
                                            "/gazebo/set_link_properties",
                                            "/gazebo/get_loggers",
                                            "/gazebo",
                                            "/gazebo/set_model_configuration",
                                            "/gazebo/get_link_state",
                                            "/gazebo/link_states",
                                            "/gazebo/get_joint_properties",
                                            "/gazebo/delete_model",
                                            "/gazebo/set_parameters",
                                            "/gazebo/set_physics_properties",
                                            "/gazebo/apply_joint_effort",
                                            "/gazebo/unpause_physics",
                                            "/gazebo/parameter_updates",
                                            "/gazebo/pause_physics",
                                            "/gazebo/get_link_properties",
                                            "/gazebo/set_joint_properties",
                                            "/gazebo/set_model_state",
                                            "/gazebo/delete_light",
                                            "/gazebo/set_link_state",
                                            "/gazebo/get_light_properties",
                                            "/gazebo/reset_simulation",
                                            "/gazebo/parameter_descriptions",
                                            "/gazebo/get_physics_properties",
                                            "/gazebo/apply_body_wrench",
                                            "/gazebo/get_model_properties",
                                            "/gazebo/spawn_urdf_model",
                                            "/gazebo/spawn_sdf_model"
                                        ]
                                    }
                                ]
                            },
                            {
                                "param": "not",
                                "hit": true,
                                "children": [
                                    {
                                        "param": "stageros",
                                        "hit": false,
                                        "count": 0,
                                        "matches": []
                                    }
                                ]
                            },
                            {
                                "param": "not",
                                "hit": true,
                                "children": [
                                    {
                                        "param": "simulator",
                                        "hit": false,
                                        "count": 0,
                                        "matches": []
                                    }
                                ]
                            },
                            {
                                "param": "not",
                                "hit": true,
                                "children": [
                                    {
                                        "param": "use_sim_time",
                                        "hit": false,
                                        "count": 0,
                                        "matches": []
                                    }
                                ]
                            },
                            {
                                "param": "not",
                                "hit": true,
                                "children": [
                                    {
                                        "param": "torcs_ros",
                                        "hit": false,
                                        "count": 0,
                                        "matches": []
                                    }
                                ]
                            },
                            {
                                "param": "not",
                                "hit": true,
                                "children": [
                                    {
                                        "param": "unity",
                                        "hit": false,
                                        "count": 0,
                                        "matches": []
                                    }
                                ]
                            },
                            {
                                "param": "not",
                                "hit": true,
                                "children": [
                                    {
                                        "param": "turtlesim",
                                        "hit": false,
                                        "count": 0,
                                        "matches": []
                                    }
                                ]
                            },
                            {
                                "param": "not",
                                "hit": true,
                                "children": [
                                    {
                                        "param": "dreamview",
                                        "hit": false,
                                        "count": 0,
                                        "matches": []
                                    }
                                ]
                            },
                            {
                                "param": "not",
                                "hit": true,
                                "children": [
                                    {
                                        "param": "videofile",
                                        "hit": false,
                                        "count": 0,
                                        "matches": []
                                    }
                                ]
                            },
                            {
                                "param": "not",
                                "hit": true,
                                "children": [
                                    {
                                        "param": "uwsim",
                                        "hit": false,
                                        "count": 0,
                                        "matches": []
                                    }
                                ]
                            },
                            {
                                "param": "not",
                                "hit": true,
                                "children": [
                                    {
                                        "param": "file_player",
                                        "hit": false,
                                        "count": 0,
                                        "matches": []
                                    }
                                ]
                            }
                        ]
                    }
                ]
            },
            "sim_gazebo": {
                "param": "gazebo",
                "hit": true,
                "count": 35,
                "matches": [
                    "/gazebo/set_logger_level",
                    "/gazebo/get_world_properties",
                    "/gazebo/reset_world",
                    "/gazebo/get_model_state",
                    "/gazebo/model_states",
                    "/gazebo/clear_body_wrenches",
                    "/gazebo/set_light_properties",
                    "/gazebo/clear_joint_forces",
                    "/gazebo/set_link_properties",
                    "/gazebo/get_loggers",
                    "/gazebo",
                    "/gazebo/set_model_configuration",
                    "/gazebo/get_link_state",
                    "/gazebo/link_states",
                    "/gazebo/get_joint_properties",
                    "/gazebo/delete_model",
                    "/gazebo/set_parameters",
                    "/gazebo/set_physics_properties",
                    "/gazebo/apply_joint_effort",
                    "/gazebo/unpause_physics",
                    "/gazebo/parameter_updates",
                    "/gazebo/pause_physics",
                    "/gazebo/get_link_properties",
                    "/gazebo/set_joint_properties",
                    "/gazebo/set_model_state",
                    "/gazebo/delete_light",
                    "/gazebo/set_link_state",
                    "/gazebo/get_light_properties",
                    "/gazebo/reset_simulation",
                    "/gazebo/parameter_descriptions",
                    "/gazebo/get_physics_properties",
                    "/gazebo/apply_body_wrench",
                    "/gazebo/get_model_properties",
                    "/gazebo/spawn_urdf_model",
                    "/gazebo/spawn_sdf_model"
                ]
            }
        },
        "sensors": {
            "camera_nofake": {
                "param": "or",
                "hit": true,
                "children": [
                    {
                        "param": "camera_!fake",
                        "hit": true,
                        "count": 21,
                        "matches": [
                            "/camera/rgb/image_raw/theora/parameter_updates",
                            "/camera/rgb/image_raw/compressed",
                            "/camera/rgb/image_raw/compressedDepth/set_parameters",
                            "/camera/parameter_descriptions",
                            "/camera/rgb/image_raw/compressed/parameter_updates",
                            "/camera/rgb/camera_info",
                            "/camera/depth/image_raw",
                            "/camera/depth/points",
                            "/camera/rgb/image_raw/theora",
                            "/camera/parameter_updates",
                            "/camera/rgb/image_raw/compressedDepth/parameter_updates",
                            "/camera/rgb/image_raw/compressed/parameter_descriptions",
                            "/camera/set_camera_info",
                            "/camera/rgb/image_raw/compressed/set_parameters",
                            "/camera/rgb/image_raw/compressedDepth/parameter_descriptions",
                            "/camera/depth/camera_info",
                            "/camera/rgb/image_raw",
                            "/camera/set_parameters",
                            "/camera/rgb/image_raw/compressedDepth",
                            "/camera/rgb/image_raw/theora/parameter_descriptions",
                            "/camera/rgb/image_raw/theora/set_parameters"
                        ]
                    },
                    {
                        "param": "image_!fake",
                        "hit": true,
                        "count": 14,
                        "matches": [
                            "/camera/rgb/image_raw/theora/parameter_updates",
                            "/camera/rgb/image_raw/compressed",
                            "/camera/rgb/image_raw/compressedDepth/set_parameters",
                            "/camera/rgb/image_raw/compressed/parameter_updates",
                            "/camera/depth/image_raw",
                            "/camera/rgb/image_raw/theora",
                            "/camera/rgb/image_raw/compressedDepth/parameter_updates",
                            "/camera/rgb/image_raw/compressed/parameter_descriptions",
                            "/camera/rgb/image_raw/compressed/set_parameters",
                            "/camera/rgb/image_raw/compressedDepth/parameter_descriptions",
                            "/camera/rgb/image_raw",
                            "/camera/rgb/image_raw/compressedDepth",
                            "/camera/rgb/image_raw/theora/parameter_descriptions",
                            "/camera/rgb/image_raw/theora/set_parameters"
                        ]
                    },
                    {
                        "param": "pointgrey_!fake",
                        "hit": false,
                        "count": 0,
                        "matches": []
                    },
                    {
                        "param": "usb_cam_!fake",
                        "hit": false,
                        "count": 0,
                        "matches": []
                    }
                ]
            },
            "camera_depth": {
                "param": "or",
                "hit": true,
                "children": [
                    {
                        "param": "camera_depth_!fake",
                        "hit": true,
                        "count": 3,
                        "matches": [
                            "/camera/depth/image_raw",
                            "/camera/depth/points",
                            "/camera/depth/camera_info"
                        ]
                    },
                    {
                        "param": "compressedDepth",
                        "hit": true,
                        "count": 4,
                        "matches": [
                            "/camera/rgb/image_raw/compressedDepth/set_parameters",
                            "/camera/rgb/image_raw/compressedDepth/parameter_updates",
                            "/camera/rgb/image_raw/compressedDepth/parameter_descriptions",
                            "/camera/rgb/image_raw/compressedDepth"
                        ]
                    },
                    {
                        "param": "registered_points",
                        "hit": false,
                        "count": 0,
                        "matches": []
                    }
                ]
            },
            "camera_rgb": {
                "param": "or",
                "hit": true,
                "children": [
                    {
                        "param": "camera_rgb_!fake",
                        "hit": true,
                        "count": 14,
                        "matches": [
                            "/camera/rgb/image_raw/theora/parameter_updates",
                            "/camera/rgb/image_raw/compressed",
                            "/camera/rgb/image_raw/compressedDepth/set_parameters",
                            "/camera/rgb/image_raw/compressed/parameter_updates",
                            "/camera/rgb/camera_info",
                            "/camera/rgb/image_raw/theora",
                            "/camera/rgb/image_raw/compressedDepth/parameter_updates",
                            "/camera/rgb/image_raw/compressed/parameter_descriptions",
                            "/camera/rgb/image_raw/compressed/set_parameters",
                            "/camera/rgb/image_raw/compressedDepth/parameter_descriptions",
                            "/camera/rgb/image_raw",
                            "/camera/rgb/image_raw/compressedDepth",
                            "/camera/rgb/image_raw/theora/parameter_descriptions",
                            "/camera/rgb/image_raw/theora/set_parameters"
                        ]
                    },
                    {
                        "param": "kinect2",
                        "hit": false,
                        "count": 0,
                        "matches": []
                    }
                ]
            },
            "imu": {
                "param": "imu",
                "hit": true,
                "count": 1,
                "matches": [
                    "/mobile_base/sensors/imu_data"
                ]
            },
            "lidar": {
                "param": "or",
                "hit": true,
                "children": [
                    {
                        "param": "lidar",
                        "hit": false,
                        "count": 0,
                        "matches": []
                    },
                    {
                        "param": "hokuyo",
                        "hit": false,
                        "count": 0,
                        "matches": []
                    },
                    {
                        "param": "scan",
                        "hit": true,
                        "count": 1,
                        "matches": [
                            "/scan"
                        ]
                    },
                    {
                        "param": "lms511",
                        "hit": false,
                        "count": 0,
                        "matches": []
                    },
                    {
                        "param": "laser_points_pc2",
                        "hit": false,
                        "count": 0,
                        "matches": []
                    }
                ]
            },
            "odometry": {
                "param": "odom",
                "hit": true,
                "count": 1,
                "matches": [
                    "/odom"
                ]
            },
            "bumper": {
                "param": "or",
                "hit": true,
                "children": [
                    {
                        "param": "bumper",
                        "hit": true,
                        "count": 5,
                        "matches": [
                            "/bumper2pointcloud",
                            "/bumper2pointcloud/get_loggers",
                            "/mobile_base/events/bumper",
                            "/bumper2pointcloud/set_logger_level",
                            "/mobile_base/sensors/bumper_pointcloud"
                        ]
                    },
                    {
                        "param": "contact",
                        "hit": false,
                        "count": 0,
                        "matches": []
                    }
                ]
            }
        },
        "actuators": {
            "cmd_vel": {
                "param": "cmd_vel",
                "hit": true,
                "count": 11,
                "matches": [
                    "/cmd_vel_mux/parameter_updates",
                    "/cmd_vel_mux/input/safety_controller",
                    "/cmd_vel_mux/input/teleop",
                    "/cmd_vel_mux/set_logger_level",
                    "/cmd_vel_mux",
                    "/cmd_vel_mux/parameter_descriptions",
                    "/cmd_vel_mux/active",
                    "/cmd_vel_mux/input/switch",
                    "/cmd_vel_mux/set_parameters",
                    "/cmd_vel_mux/get_loggers",
                    "/cmd_vel_mux/input/navi"
                ]
            },
            "lights": {
                "param": "or",
                "hit": true,
                "children": [
                    {
                        "param": "set_light",
                        "hit": true,
                        "count": 1,
                        "matches": [
                            "/gazebo/set_light_properties"
                        ]
                    },
                    {
                        "param": "set_lights",
                        "hit": false,
                        "count": 0,
                        "matches": []
                    },
                    {
                        "param": "set_red_level",
                        "hit": false,
                        "count": 0,
                        "matches": []
                    }
                ]
            }
        },
        "other": {
            "transform": {
                "param": "or",
                "hit": true,
                "children": [
                    {
                        "param": "tf",
                        "hit": true,
                        "count": 2,
                        "matches": [
                            "/tf",
                            "/tf_static"
                        ]
                    },
                    {
                        "param": "tf_static",
                        "hit": true,
                        "count": 1,
                        "matches": [
                            "/tf_static"
                        ]
                    }
                ]
            }
        },
        "robot_types": {},
        "targets": {}
    },
    "inferred_results": {
        "identified_robot": false,
        "only_sim": true,
        "likely_empty": false,
        "only_sensors": false,
        "only_actuators": false,
        "only_services": false,
        "needs_more_info": false,
        "confirmed_ros": true,
        "total_hosts": false,
        "is_unconnectable": false,
        "search_hit_sim": true,
        "has_sensor": true,
        "has_actuator": true,
        "has_hostname": true,
        "missing_term_data": false,
        "has_description": true,
        "has_descr_name": true,
        "has_search_hits": true,
        "manually_tagged": false,
        "search_hit_gazebo": true,
        "likely_non_robot": true
    }
}
