{
    "ip": "147.46.247.236",
    "dns.hostname": "",
    "dns.authority": "ercc.snu.ac.kr. ercc_net.snu.ac.kr. 2010036257 7200 3600 2592000 900",
    "geoip.country": "Republic of Korea",
    "geoip.country_code": "KR",
    "geoip.specific_name": "Seoul",
    "geoip.specific_name_code": "11",
    "geoip.latitude": 37.5111,
    "geoip.longitude": 126.9743,
    "geoip.as_number": 9488,
    "geoip.as_organization": "Seoul National University",
    "shodan.ports": "",
    "shodan.tags": "",
    "rosversion": {
        "port": "11311",
        "type": "xmlrpc",
        "method": "rosversion",
        "arg": "/rosversion",
        "status": "ok",
        "response": {
            "status_code": 1,
            "status_message": "Parameter [/rosversion]",
            "param": "1.11.21\n"
        }
    },
    "rosparamnames": {
        "port": "11311",
        "type": "xmlrpc",
        "method": "rosparamnames",
        "arg": "",
        "status": "ok",
        "response": {
            "status_code": 1,
            "status_message": "Parameter names",
            "paramNames": [
                "/roslaunch/uris/host_xzxzmmnn_desktop__39686",
                "/roslaunch/uris/host_xzxzmmnn_desktop__44892",
                "/roslaunch/uris/host_xzxzmmnn_desktop__41962",
                "/roslaunch/uris/host_xzxzmmnn_desktop__38969",
                "/roslaunch/uris/host_xzxzmmnn_desktop__44468",
                "/roslaunch/uris/host_xzxzmmnn_desktop__36572",
                "/roslaunch/uris/host_xzxzmmnn_desktop__44794",
                "/roslaunch/uris/host_xzxzmmnn_desktop__33590",
                "/roslaunch/uris/host_xzxzmmnn_desktop__37361",
                "/roslaunch/uris/host_xzxzmmnn_desktop__35226",
                "/rosversion",
                "/run_id",
                "/rviz_1512455711706856654/compressed/mode",
                "/camera/Blackfly/16472689_repub/compressedDepth/depth_max",
                "/camera/Blackfly/16472689_repub/compressedDepth/png_level",
                "/camera/Blackfly/16472689_repub/compressedDepth/depth_quantization",
                "/camera/Blackfly/16472689_repub/compressed/png_level",
                "/camera/Blackfly/16472689_repub/compressed/jpeg_quality",
                "/camera/Blackfly/16472689_repub/compressed/format",
                "/camera/Blackfly/16472689_repub/theora/optimize_for",
                "/camera/Blackfly/16472689_repub/theora/target_bitrate",
                "/camera/Blackfly/16472689_repub/theora/quality",
                "/camera/Blackfly/16472689_repub/theora/keyframe_frequency",
                "/rosdistro",
                "/rviz_1512631693505941623/compressed/mode"
            ]
        }
    },
    "rostopic": {
        "port": "11311",
        "type": "xmlrpc",
        "method": "rostopic",
        "arg": "/rosversion",
        "status": "ok",
        "response": {
            "status_code": 1,
            "status_message": "current system state",
            "system_state": {
                "publishers": {
                    "/rviz_1512631693505941623/compressed/parameter_updates": [
                        "/rviz_1512631693505941623"
                    ],
                    "/rosout": [
                        "/rviz_1512455392992900430",
                        "/play_1512455453613538960",
                        "/velodyne_parser",
                        "/play_1512457636466044241",
                        "/rviz_1512631693505941623",
                        "/play_1512647096268204191",
                        "/clustering_node",
                        "/pcd_publishing"
                    ],
                    "/lidar/velodyne16ch/packet": [
                        "/play_1512457636466044241",
                        "/play_1512647096268204191"
                    ],
                    "/rosout_agg": [
                        "/rosout"
                    ],
                    "/clicked_point": [
                        "/rviz_1512455392992900430",
                        "/rviz_1512631693505941623"
                    ],
                    "/initialpose": [
                        "/rviz_1512455392992900430",
                        "/rviz_1512631693505941623"
                    ],
                    "/lidar/vlp16/pointCloud2": [
                        "/velodyne_parser"
                    ],
                    "/move_base_simple/goal": [
                        "/rviz_1512455392992900430",
                        "/rviz_1512631693505941623"
                    ],
                    "/imu/rt3002/packet": [
                        "/play_1512457636466044241",
                        "/play_1512647096268204191"
                    ],
                    "/rviz_1512631693505941623/compressed/parameter_descriptions": [
                        "/rviz_1512631693505941623"
                    ],
                    "/clock": [
                        "/play_1512455453613538960",
                        "/play_1512457636466044241",
                        "/play_1512647096268204191"
                    ],
                    "/camera/Blackfly/16472689/compressed": [
                        "/play_1512457636466044241",
                        "/play_1512647096268204191"
                    ],
                    "/lidar/vlp16/pointTimes": [
                        "/velodyne_parser"
                    ]
                },
                "subscribers": {
                    "/imu/rt3002/packet": [
                        "/velodyne_parser"
                    ],
                    "/seg_color": [
                        "/rviz_1512631693505941623"
                    ],
                    "/rosout": [
                        "/rosout"
                    ],
                    "/lidar/velodyne16ch/packet": [
                        "/velodyne_parser"
                    ],
                    "/tf": [
                        "/rviz_1512455392992900430",
                        "/rviz_1512631693505941623"
                    ],
                    "/tf_static": [
                        "/rviz_1512455392992900430",
                        "/rviz_1512631693505941623"
                    ],
                    "/imu/xsens/packet": [
                        "/velodyne_parser"
                    ],
                    "/lidar/vlp16/pointCloud2": [
                        "/rviz_1512631693505941623"
                    ],
                    "/camera/Blackfly/16472689/compressed": [
                        "/rviz_1512631693505941623"
                    ]
                },
                "services": {
                    "/rviz_1512455392992900430/get_loggers": [
                        "/rviz_1512455392992900430"
                    ],
                    "/play_1512455453613538960/set_logger_level": [
                        "/play_1512455453613538960"
                    ],
                    "/velodyne_parser/set_logger_level": [
                        "/velodyne_parser"
                    ],
                    "/rviz_1512455392992900430/reload_shaders": [
                        "/rviz_1512455392992900430"
                    ],
                    "/play_1512457636466044241/get_loggers": [
                        "/play_1512457636466044241"
                    ],
                    "/rviz_1512631693505941623/set_logger_level": [
                        "/rviz_1512631693505941623"
                    ],
                    "/play_1512455453613538960/get_loggers": [
                        "/play_1512455453613538960"
                    ],
                    "/rviz_1512631693505941623/compressed/set_parameters": [
                        "/rviz_1512631693505941623"
                    ],
                    "/rviz_1512631693505941623/reload_shaders": [
                        "/rviz_1512631693505941623"
                    ],
                    "/clustering_node/set_logger_level": [
                        "/clustering_node"
                    ],
                    "/rosout/set_logger_level": [
                        "/rosout"
                    ],
                    "/rviz_1512631693505941623/get_loggers": [
                        "/rviz_1512631693505941623"
                    ],
                    "/rviz_1512455392992900430/set_logger_level": [
                        "/rviz_1512455392992900430"
                    ],
                    "/clustering_node/get_loggers": [
                        "/clustering_node"
                    ],
                    "/pcd_publishing/get_loggers": [
                        "/pcd_publishing"
                    ],
                    "/play_1512457636466044241/set_logger_level": [
                        "/play_1512457636466044241"
                    ],
                    "/pcd_publishing/set_logger_level": [
                        "/pcd_publishing"
                    ],
                    "/rosout/get_loggers": [
                        "/rosout"
                    ],
                    "/play_1512647096268204191/set_logger_level": [
                        "/play_1512647096268204191"
                    ],
                    "/play_1512647096268204191/get_loggers": [
                        "/play_1512647096268204191"
                    ],
                    "/velodyne_parser/get_loggers": [
                        "/velodyne_parser"
                    ]
                }
            }
        }
    },
    "rosdescription": {
        "port": "11311",
        "type": "xmlrpc",
        "method": "rosdescription",
        "arg": "/robot_description",
        "status": "ok",
        "response": {
            "status_code": -1,
            "status_message": "Parameter [/robot_description] is not set",
            "param": 0
        }
    },
    "query_stats": {
        "param_count": 25,
        "publisher_count": 13,
        "subscriber_count": 9,
        "service_count": 21,
        "term_count": 71,
        "alphaterm_count": 51,
        "topic_count": 46,
        "has_description": false,
        "is_ros": true,
        "roscore_version": "1.11",
        "ros_version_name": "indigo",
        "missing_term_data": false,
        "roslaunch_machine_hostnames": [
            "xzxzmmnn_desktop"
        ],
        "has_hostname": true,
        "machine_hostname": "xzxzmmnn_desktop"
    },
    "search_info": {
        "count_control": 0,
        "count_simulators": 0,
        "count_sensors": 4,
        "count_actuators": 0,
        "count_other": 2,
        "count_robot_types": 0,
        "count_targets": 0,
        "total_query_hits": 6
    },
    "search_stats": {
        "control": {},
        "simulators": {},
        "sensors": {
            "camera_nofake": {
                "param": "or",
                "hit": true,
                "children": [
                    {
                        "param": "camera_!fake",
                        "hit": true,
                        "count": 1,
                        "matches": [
                            "/camera/Blackfly/16472689/compressed"
                        ]
                    },
                    {
                        "param": "image_!fake",
                        "hit": false,
                        "count": 0,
                        "matches": []
                    },
                    {
                        "param": "pointgrey_!fake",
                        "hit": false,
                        "count": 0,
                        "matches": []
                    },
                    {
                        "param": "usb_cam_!fake",
                        "hit": false,
                        "count": 0,
                        "matches": []
                    }
                ]
            },
            "imu": {
                "param": "imu",
                "hit": true,
                "count": 2,
                "matches": [
                    "/imu/xsens/packet",
                    "/imu/rt3002/packet"
                ]
            },
            "lidar": {
                "param": "or",
                "hit": true,
                "children": [
                    {
                        "param": "lidar",
                        "hit": true,
                        "count": 3,
                        "matches": [
                            "/lidar/vlp16/pointCloud2",
                            "/lidar/vlp16/pointTimes",
                            "/lidar/velodyne16ch/packet"
                        ]
                    },
                    {
                        "param": "hokuyo",
                        "hit": false,
                        "count": 0,
                        "matches": []
                    },
                    {
                        "param": "scan",
                        "hit": false,
                        "count": 0,
                        "matches": []
                    },
                    {
                        "param": "lms511",
                        "hit": false,
                        "count": 0,
                        "matches": []
                    },
                    {
                        "param": "laser_points_pc2",
                        "hit": false,
                        "count": 0,
                        "matches": []
                    }
                ]
            },
            "velodyne": {
                "param": "or",
                "hit": true,
                "children": [
                    {
                        "param": "velodyne",
                        "hit": true,
                        "count": 4,
                        "matches": [
                            "/velodyne_parser/set_logger_level",
                            "/velodyne_parser",
                            "/velodyne_parser/get_loggers",
                            "/lidar/velodyne16ch/packet"
                        ]
                    },
                    {
                        "param": "velodyne64",
                        "hit": false,
                        "count": 0,
                        "matches": []
                    }
                ]
            }
        },
        "actuators": {},
        "other": {
            "rviz": {
                "param": "rviz",
                "hit": true,
                "count": 11,
                "matches": [
                    "/rviz_1512631693505941623/set_logger_level",
                    "/rviz_1512631693505941623/compressed/parameter_descriptions",
                    "/rviz_1512631693505941623/compressed/parameter_updates",
                    "/rviz_1512631693505941623/reload_shaders",
                    "/rviz_1512631693505941623/compressed/set_parameters",
                    "/rviz_1512631693505941623",
                    "/rviz_1512455392992900430",
                    "/rviz_1512631693505941623/get_loggers",
                    "/rviz_1512455392992900430/reload_shaders",
                    "/rviz_1512455392992900430/set_logger_level",
                    "/rviz_1512455392992900430/get_loggers"
                ]
            },
            "transform": {
                "param": "or",
                "hit": true,
                "children": [
                    {
                        "param": "tf",
                        "hit": true,
                        "count": 2,
                        "matches": [
                            "/tf_static",
                            "/tf"
                        ]
                    },
                    {
                        "param": "tf_static",
                        "hit": true,
                        "count": 1,
                        "matches": [
                            "/tf_static"
                        ]
                    }
                ]
            }
        },
        "robot_types": {},
        "targets": {}
    },
    "inferred_results": {
        "identified_robot": false,
        "only_sim": false,
        "likely_empty": false,
        "only_sensors": true,
        "only_actuators": false,
        "only_services": false,
        "needs_more_info": false,
        "confirmed_ros": true,
        "total_hosts": false,
        "is_unconnectable": false,
        "search_hit_sim": false,
        "has_sensor": true,
        "has_actuator": false,
        "has_hostname": true,
        "missing_term_data": false,
        "has_description": false,
        "has_descr_name": false,
        "has_search_hits": true,
        "manually_tagged": false,
        "search_hit_gazebo": false,
        "likely_non_robot": false
    }
}
