{
    "ip": "147.46.132.215",
    "dns.hostname": "",
    "dns.authority": "ercc.snu.ac.kr. ercc_net.snu.ac.kr. 2010036257 7200 3600 2592000 900",
    "geoip.country": "Republic of Korea",
    "geoip.country_code": "KR",
    "geoip.specific_name": "Seoul",
    "geoip.specific_name_code": "11",
    "geoip.latitude": 37.5111,
    "geoip.longitude": 126.9743,
    "geoip.as_number": 9488,
    "geoip.as_organization": "Seoul National University",
    "shodan.ports": "",
    "shodan.tags": "",
    "rosversion": {
        "port": "11311",
        "type": "xmlrpc",
        "method": "rosversion",
        "arg": "/rosversion",
        "status": "ok",
        "response": {
            "status_code": 1,
            "status_message": "Parameter [/rosversion]",
            "param": "1.11.21\n"
        }
    },
    "rosparamnames": {
        "port": "11311",
        "type": "xmlrpc",
        "method": "rosparamnames",
        "arg": "",
        "status": "ok",
        "response": {
            "status_code": 1,
            "status_message": "Parameter names",
            "paramNames": [
                "/roslaunch/uris/host_vil__33709",
                "/roslaunch/uris/host_vil__44653",
                "/roslaunch/uris/host_vil__36865",
                "/roslaunch/uris/host_vil__36944",
                "/roslaunch/uris/host_vil__40919",
                "/roslaunch/uris/host_vil__46259",
                "/roslaunch/uris/host_vil__34246",
                "/roslaunch/uris/host_vil__32977",
                "/roslaunch/uris/host_vil__35031",
                "/roslaunch/uris/host_vil__37540",
                "/roslaunch/uris/host_vil__35468",
                "/roslaunch/uris/host_vil__43259",
                "/roslaunch/uris/host_vil__41079",
                "/roslaunch/uris/host_vil__43336",
                "/roslaunch/uris/host_vil__40236",
                "/roslaunch/uris/host_vil__39727",
                "/roslaunch/uris/host_vil__41304",
                "/roslaunch/uris/host_vil__38589",
                "/roslaunch/uris/host_vil__40114",
                "/roslaunch/uris/host_vil__36371",
                "/roslaunch/uris/host_vil__44608",
                "/roslaunch/uris/host_vil__34545",
                "/roslaunch/uris/host_vil__45181",
                "/roslaunch/uris/host_vil__38933",
                "/roslaunch/uris/host_vil__46454",
                "/roslaunch/uris/host_vil__34689",
                "/roslaunch/uris/host_vil__34787",
                "/roslaunch/uris/host_vil__36178",
                "/roslaunch/uris/host_vil__45178",
                "/roslaunch/uris/host_vil__41426",
                "/roslaunch/uris/host_vil__46431",
                "/roslaunch/uris/host_vil__34379",
                "/roslaunch/uris/host_vil__33773",
                "/roslaunch/uris/host_vil__34471",
                "/roslaunch/uris/host_vil__34234",
                "/roslaunch/uris/host_vil__43381",
                "/roslaunch/uris/host_vil__34005",
                "/roslaunch/uris/host_vil__46159",
                "/roslaunch/uris/host_vil__46746",
                "/roslaunch/uris/host_vil__37608",
                "/roslaunch/uris/host_vil__39751",
                "/roslaunch/uris/host_vil__42622",
                "/roslaunch/uris/host_vil__33785",
                "/roslaunch/uris/host_vil__38088",
                "/roslaunch/uris/host_vil__37660",
                "/rosdistro",
                "/rosversion",
                "/run_id"
            ]
        }
    },
    "rostopic": {
        "port": "11311",
        "type": "xmlrpc",
        "method": "rostopic",
        "arg": "/rosversion",
        "status": "ok",
        "response": {
            "status_code": 1,
            "status_message": "current system state",
            "system_state": {
                "publishers": {
                    "/rosout_agg": [
                        "/rosout"
                    ],
                    "/clicked_point": [
                        "/rviz_1512476525452548008"
                    ],
                    "/ground_cloud": [
                        "/point_clustering"
                    ],
                    "/move_base_simple/goal": [
                        "/rviz_1512476525452548008"
                    ],
                    "/imu/rt3002/packet": [
                        "/play_1512627942487373553"
                    ],
                    "/localization_result": [
                        "/localization"
                    ],
                    "/lidar/Alive": [
                        "/velodyne_parser"
                    ],
                    "/seg_color": [
                        "/point_clustering"
                    ],
                    "/map_result": [
                        "/localization"
                    ],
                    "/points2_Loc": [
                        "/localization"
                    ],
                    "/rosout": [
                        "/rviz_1512476525452548008",
                        "/velodyne_parser",
                        "/point_clustering",
                        "/tracking_module",
                        "/localization",
                        "/play_1512627942487373553",
                        "/drivable_space"
                    ],
                    "/lidar/velodyne16ch/packet": [
                        "/play_1512627942487373553"
                    ],
                    "/JH_tracking_cloud": [
                        "/drivable_space"
                    ],
                    "/initialpose": [
                        "/rviz_1512476525452548008"
                    ],
                    "/tracking_local": [
                        "/tracking_module"
                    ],
                    "/lidar/vlp16/pointCloud2": [
                        "/velodyne_parser"
                    ],
                    "/status/seg": [
                        "/point_clustering"
                    ],
                    "/occ_grid_marker": [
                        "/drivable_space"
                    ],
                    "/tracking_cloud": [
                        "/tracking_module"
                    ],
                    "/tracking_result": [
                        "/tracking_module"
                    ],
                    "/clock": [
                        "/play_1512627942487373553"
                    ],
                    "/status/tracking": [
                        "/tracking_module"
                    ],
                    "/seg_result": [
                        "/point_clustering"
                    ]
                },
                "subscribers": {
                    "/tf_static": [
                        "/rviz_1512476525452548008"
                    ],
                    "/occ_grid_marker": [
                        "/rviz_1512476525452548008"
                    ],
                    "/imu/rt3002/packet": [
                        "/velodyne_parser",
                        "/tracking_module",
                        "/localization"
                    ],
                    "/localization_result": [
                        "/tracking_module",
                        "/drivable_space"
                    ],
                    "/tracking_cloud": [
                        "/drivable_space"
                    ],
                    "/rt": [
                        "/drivable_space"
                    ],
                    "/rosout": [
                        "/rosout"
                    ],
                    "/lidar/velodyne16ch/packet": [
                        "/velodyne_parser"
                    ],
                    "/tf": [
                        "/rviz_1512476525452548008"
                    ],
                    "/JH_tracking_cloud": [
                        "/rviz_1512476525452548008"
                    ],
                    "/tracking_result": [
                        "/drivable_space"
                    ],
                    "/imu/xsens/packet": [
                        "/tracking_module",
                        "/localization"
                    ],
                    "/lidar/vlp16/pointCloud2": [
                        "/point_clustering",
                        "/localization"
                    ],
                    "/seg_result": [
                        "/tracking_module"
                    ]
                },
                "services": {
                    "/rviz_1512476525452548008/reload_shaders": [
                        "/rviz_1512476525452548008"
                    ],
                    "/localization/get_loggers": [
                        "/localization"
                    ],
                    "/velodyne_parser/set_logger_level": [
                        "/velodyne_parser"
                    ],
                    "/rviz_1512476525452548008/set_logger_level": [
                        "/rviz_1512476525452548008"
                    ],
                    "/point_clustering/get_loggers": [
                        "/point_clustering"
                    ],
                    "/point_clustering/set_logger_level": [
                        "/point_clustering"
                    ],
                    "/play_1512627942487373553/set_logger_level": [
                        "/play_1512627942487373553"
                    ],
                    "/drivable_space/get_loggers": [
                        "/drivable_space"
                    ],
                    "/tracking_module/set_logger_level": [
                        "/tracking_module"
                    ],
                    "/drivable_space/set_logger_level": [
                        "/drivable_space"
                    ],
                    "/rosout/set_logger_level": [
                        "/rosout"
                    ],
                    "/play_1512627942487373553/get_loggers": [
                        "/play_1512627942487373553"
                    ],
                    "/tracking_module/get_loggers": [
                        "/tracking_module"
                    ],
                    "/localization/set_logger_level": [
                        "/localization"
                    ],
                    "/rosout/get_loggers": [
                        "/rosout"
                    ],
                    "/velodyne_parser/get_loggers": [
                        "/velodyne_parser"
                    ],
                    "/rviz_1512476525452548008/get_loggers": [
                        "/rviz_1512476525452548008"
                    ]
                }
            }
        }
    },
    "rosdescription": {
        "port": "11311",
        "type": "xmlrpc",
        "method": "rosdescription",
        "arg": "/robot_description",
        "status": "ok",
        "response": {
            "status_code": -1,
            "status_message": "Parameter [/robot_description] is not set",
            "param": 0
        }
    },
    "query_stats": {
        "param_count": 48,
        "publisher_count": 23,
        "subscriber_count": 14,
        "service_count": 17,
        "term_count": 99,
        "alphaterm_count": 55,
        "topic_count": 51,
        "has_description": false,
        "is_ros": true,
        "roscore_version": "1.11",
        "ros_version_name": "indigo",
        "missing_term_data": false,
        "roslaunch_machine_hostnames": [
            "vil"
        ],
        "has_hostname": true,
        "machine_hostname": "vil"
    },
    "search_info": {
        "count_control": 0,
        "count_simulators": 0,
        "count_sensors": 3,
        "count_actuators": 0,
        "count_other": 2,
        "count_robot_types": 0,
        "count_targets": 1,
        "total_query_hits": 6
    },
    "search_stats": {
        "control": {},
        "simulators": {},
        "sensors": {
            "imu": {
                "param": "imu",
                "hit": true,
                "count": 2,
                "matches": [
                    "/imu/xsens/packet",
                    "/imu/rt3002/packet"
                ]
            },
            "lidar": {
                "param": "or",
                "hit": true,
                "children": [
                    {
                        "param": "lidar",
                        "hit": true,
                        "count": 3,
                        "matches": [
                            "/lidar/vlp16/pointCloud2",
                            "/lidar/Alive",
                            "/lidar/velodyne16ch/packet"
                        ]
                    },
                    {
                        "param": "hokuyo",
                        "hit": false,
                        "count": 0,
                        "matches": []
                    },
                    {
                        "param": "scan",
                        "hit": false,
                        "count": 0,
                        "matches": []
                    },
                    {
                        "param": "lms511",
                        "hit": false,
                        "count": 0,
                        "matches": []
                    },
                    {
                        "param": "laser_points_pc2",
                        "hit": false,
                        "count": 0,
                        "matches": []
                    }
                ]
            },
            "velodyne": {
                "param": "or",
                "hit": true,
                "children": [
                    {
                        "param": "velodyne",
                        "hit": true,
                        "count": 4,
                        "matches": [
                            "/velodyne_parser/set_logger_level",
                            "/velodyne_parser",
                            "/velodyne_parser/get_loggers",
                            "/lidar/velodyne16ch/packet"
                        ]
                    },
                    {
                        "param": "velodyne64",
                        "hit": false,
                        "count": 0,
                        "matches": []
                    }
                ]
            }
        },
        "actuators": {},
        "other": {
            "rviz": {
                "param": "rviz",
                "hit": true,
                "count": 4,
                "matches": [
                    "/rviz_1512476525452548008",
                    "/rviz_1512476525452548008/set_logger_level",
                    "/rviz_1512476525452548008/reload_shaders",
                    "/rviz_1512476525452548008/get_loggers"
                ]
            },
            "transform": {
                "param": "or",
                "hit": true,
                "children": [
                    {
                        "param": "tf",
                        "hit": true,
                        "count": 2,
                        "matches": [
                            "/tf_static",
                            "/tf"
                        ]
                    },
                    {
                        "param": "tf_static",
                        "hit": true,
                        "count": 1,
                        "matches": [
                            "/tf_static"
                        ]
                    }
                ]
            }
        },
        "robot_types": {},
        "targets": {
            "map": {
                "param": "map",
                "hit": true,
                "count": 1,
                "matches": [
                    "/map_result"
                ]
            }
        }
    },
    "inferred_results": {
        "identified_robot": false,
        "only_sim": true,
        "likely_empty": false,
        "only_sensors": false,
        "only_actuators": false,
        "only_services": false,
        "needs_more_info": false,
        "confirmed_ros": true,
        "total_hosts": false,
        "is_unconnectable": false,
        "search_hit_sim": false,
        "has_sensor": true,
        "has_actuator": false,
        "has_hostname": true,
        "missing_term_data": false,
        "has_description": false,
        "has_descr_name": false,
        "has_search_hits": true,
        "manually_tagged": true,
        "search_hit_gazebo": false,
        "likely_non_robot": false
    }
}
