{
    "ip": "131.215.25.163",
    "dns.hostname": "dhcp-25-163.caltech.edu",
    "dns.authority": "mercutio.caltech.edu. hostmaster.caltech.edu. 2014090267 10800 3600 2592000 900",
    "geoip.country": "United States",
    "geoip.country_code": "US",
    "geoip.specific_name": "California",
    "geoip.specific_name_code": "CA",
    "geoip.latitude": 33.7866,
    "geoip.longitude": -118.2987,
    "geoip.as_number": 31,
    "geoip.as_organization": "California Institute of Technology",
    "shodan.ports": "",
    "shodan.tags": "",
    "rosversion": {
        "port": "11311",
        "type": "xmlrpc",
        "method": "rosversion",
        "arg": "/rosversion",
        "status": "ok",
        "response": {
            "status_code": 1,
            "status_message": "Parameter [/rosversion]",
            "param": "1.12.7\n"
        }
    },
    "rosparamnames": {
        "port": "11311",
        "type": "xmlrpc",
        "method": "rosparamnames",
        "arg": "",
        "status": "ok",
        "response": {
            "status_code": 1,
            "status_message": "Parameter names",
            "paramNames": [
                "/roslaunch/uris/host_fponce_optiplex_7040__35973",
                "/roslaunch/uris/host_fponce_optiplex_7040__43491",
                "/roslaunch/uris/host_fponce_optiplex_7040__45337",
                "/roslaunch/uris/host_fponce_optiplex_7040__43063",
                "/roslaunch/uris/host_fponce_optiplex_7040__33667",
                "/roslaunch/uris/host_fponce_optiplex_7040__45187",
                "/roslaunch/uris/host_fponce_optiplex_7040__35151",
                "/roslaunch/uris/host_fponce_optiplex_7040__40479",
                "/roslaunch/uris/host_fponce_optiplex_7040__41559",
                "/roslaunch/uris/host_fponce_optiplex_7040__36985",
                "/roslaunch/uris/host_fponce_optiplex_7040__33595",
                "/roslaunch/uris/host_fponce_optiplex_7040__45819",
                "/roslaunch/uris/host_fponce_optiplex_7040__43971",
                "/roslaunch/uris/host_fponce_optiplex_7040__39947",
                "/roslaunch/uris/host_fponce_optiplex_7040__37823",
                "/roslaunch/uris/host_fponce_optiplex_7040__38281",
                "/roslaunch/uris/host_fponce_optiplex_7040__39225",
                "/roslaunch/uris/host_fponce_optiplex_7040__37837",
                "/roslaunch/uris/host_fponce_optiplex_7040__33175",
                "/roslaunch/uris/host_fponce_optiplex_7040__32987",
                "/roslaunch/uris/host_fponce_optiplex_7040__46005",
                "/roslaunch/uris/host_fponce_optiplex_7040__34565",
                "/roslaunch/uris/host_fponce_optiplex_7040__46647",
                "/roslaunch/uris/host_fponce_optiplex_7040__46187",
                "/roslaunch/uris/host_fponce_optiplex_7040__42079",
                "/rosversion",
                "/multi_tracker/1/data_association/kalman_parameters_py_file",
                "/multi_tracker/1/data_association/max_tracked_objects",
                "/multi_tracker/1/data_association/n_covariances_to_reject_data",
                "/multi_tracker/1/experiment_basename",
                "/multi_tracker/1/delta_video/camera_encoding",
                "/multi_tracker/1/delta_video/roi_l",
                "/multi_tracker/1/delta_video/max_change_in_frame",
                "/multi_tracker/1/delta_video/roi_b",
                "/multi_tracker/1/delta_video/image_topic",
                "/multi_tracker/1/delta_video/threshold",
                "/multi_tracker/1/delta_video/roi_t",
                "/multi_tracker/1/delta_video/roi_r",
                "/multi_tracker/1/liveviewer/camera_encoding",
                "/multi_tracker/1/liveviewer/roi_l",
                "/multi_tracker/1/liveviewer/max_frames_to_draw",
                "/multi_tracker/1/liveviewer/roi_b",
                "/multi_tracker/1/liveviewer/image_topic",
                "/multi_tracker/1/liveviewer/roi_t",
                "/multi_tracker/1/liveviewer/roi_r",
                "/multi_tracker/1/liveviewer/min_persistence_to_draw",
                "/multi_tracker/1/tracker/camera_encoding",
                "/multi_tracker/1/tracker/max_change_in_frame",
                "/multi_tracker/1/tracker/medianbgupdateinterval",
                "/multi_tracker/1/tracker/max_expected_area",
                "/multi_tracker/1/tracker/threshold",
                "/multi_tracker/1/tracker/roi_l",
                "/multi_tracker/1/tracker/dilate",
                "/multi_tracker/1/tracker/roi_b",
                "/multi_tracker/1/tracker/image_processing_module",
                "/multi_tracker/1/tracker/circular_mask_x",
                "/multi_tracker/1/tracker/circular_mask_y",
                "/multi_tracker/1/tracker/backgroundupdate",
                "/multi_tracker/1/tracker/roi_t",
                "/multi_tracker/1/tracker/roi_r",
                "/multi_tracker/1/tracker/min_persistence_to_draw",
                "/multi_tracker/1/tracker/erode",
                "/multi_tracker/1/tracker/min_size",
                "/multi_tracker/1/tracker/max_size",
                "/multi_tracker/1/tracker/image_topic",
                "/multi_tracker/1/tracker/image_processor",
                "/multi_tracker/1/tracker/max_frames_to_draw",
                "/multi_tracker/1/tracker/circular_mask_r",
                "/multi_tracker/1/tracker/std_dev_update",
                "/multi_tracker/1/data_directory",
                "/multi_tracker/1/home_directory",
                "/run_id",
                "/camera/softwaretriggerrate",
                "/camera/frame_id",
                "/camera/AcquisitionMode",
                "/camera/FocusPos",
                "/camera/Acquire",
                "/camera/TriggerSource",
                "/camera/mtu",
                "/camera/GainAuto",
                "/camera/TriggerMode",
                "/camera/Gain",
                "/camera/AcquisitionFrameRate",
                "/camera/image_raw/compressedDepth/depth_max",
                "/camera/image_raw/compressedDepth/png_level",
                "/camera/image_raw/compressedDepth/depth_quantization",
                "/camera/image_raw/compressed/png_level",
                "/camera/image_raw/compressed/jpeg_quality",
                "/camera/image_raw/compressed/format",
                "/camera/image_raw/theora/optimize_for",
                "/camera/image_raw/theora/target_bitrate",
                "/camera/image_raw/theora/quality",
                "/camera/image_raw/theora/keyframe_frequency",
                "/camera/ExposureTimeAbs",
                "/camera/ExposureAuto",
                "/rosdistro"
            ]
        }
    },
    "rostopic": {
        "port": "11311",
        "type": "xmlrpc",
        "method": "rostopic",
        "arg": "/rosversion",
        "status": "ok",
        "response": {
            "status_code": 1,
            "status_message": "current system state",
            "system_state": {
                "publishers": {
                    "/rosout_agg": [
                        "/rosout"
                    ]
                },
                "subscribers": {
                    "/rosout": [
                        "/rosout"
                    ]
                },
                "services": {
                    "/rosout/set_logger_level": [
                        "/rosout"
                    ],
                    "/rosout/get_loggers": [
                        "/rosout"
                    ]
                }
            }
        }
    },
    "rosdescription": {
        "port": "11311",
        "type": "xmlrpc",
        "method": "rosdescription",
        "arg": "/robot_description",
        "status": "ok",
        "response": {
            "status_code": -1,
            "status_message": "Parameter [/robot_description] is not set",
            "param": 0
        }
    },
    "query_stats": {
        "param_count": 96,
        "publisher_count": 1,
        "subscriber_count": 1,
        "service_count": 2,
        "term_count": 100,
        "alphaterm_count": 76,
        "topic_count": 4,
        "has_description": false,
        "is_ros": true,
        "roscore_version": "1.12",
        "ros_version_name": "kinetic",
        "missing_term_data": false,
        "roslaunch_machine_hostnames": [
            "fponce_optiplex_7040"
        ],
        "has_hostname": true,
        "machine_hostname": "fponce_optiplex_7040"
    },
    "search_info": {
        "count_control": 0,
        "count_simulators": 0,
        "count_sensors": 0,
        "count_actuators": 0,
        "count_other": 0,
        "count_robot_types": 0,
        "count_targets": 0,
        "total_query_hits": 0
    },
    "search_stats": {
        "control": {},
        "simulators": {},
        "sensors": {},
        "actuators": {},
        "other": {},
        "robot_types": {},
        "targets": {}
    },
    "inferred_results": {
        "identified_robot": false,
        "only_sim": false,
        "likely_empty": true,
        "only_sensors": false,
        "only_actuators": false,
        "only_services": false,
        "needs_more_info": false,
        "confirmed_ros": true,
        "total_hosts": false,
        "is_unconnectable": false,
        "search_hit_sim": false,
        "has_sensor": false,
        "has_actuator": false,
        "has_hostname": true,
        "missing_term_data": false,
        "has_description": false,
        "has_descr_name": false,
        "has_search_hits": false,
        "manually_tagged": false,
        "search_hit_gazebo": false,
        "likely_non_robot": false
    }
}
