{
    "ip": "143.248.137.245",
    "dns.hostname": "",
    "dns.authority": "ns.kaist.ac.kr. root.ns.kaist.ac.kr. 2017101101 3600 900 604800 7200",
    "geoip.country": "Republic of Korea",
    "geoip.country_code": "KR",
    "geoip.specific_name": "Daejeon",
    "geoip.specific_name_code": "30",
    "geoip.latitude": 36.3214,
    "geoip.longitude": 127.4197,
    "geoip.as_number": 1781,
    "geoip.as_organization": "Korea Advanced Institute of Science and Technology",
    "shodan.ports": "",
    "shodan.tags": "",
    "rosversion": {
        "port": "11311",
        "type": "xmlrpc",
        "method": "rosversion",
        "arg": "/rosversion",
        "status": "ok",
        "response": {
            "status_code": 1,
            "status_message": "Parameter [/rosversion]",
            "param": "1.11.21\n"
        }
    },
    "rosparamnames": {
        "port": "11311",
        "type": "xmlrpc",
        "method": "rosparamnames",
        "arg": "",
        "status": "ok",
        "response": {
            "status_code": 1,
            "status_message": "Parameter names",
            "paramNames": [
                "/roslaunch/uris/host_143_248_137_245__42757",
                "/roslaunch/uris/host_143_248_137_245__37001",
                "/roslaunch/uris/host_143_248_137_245__38818",
                "/roslaunch/uris/host_143_248_137_245__39522",
                "/roslaunch/uris/host_143_248_137_245__39687",
                "/roslaunch/uris/host_143_248_137_245__39440",
                "/roslaunch/uris/host_143_248_137_245__40361",
                "/roslaunch/uris/host_143_248_137_245__38727",
                "/roslaunch/uris/host_143_248_137_245__40919",
                "/roslaunch/uris/host_143_248_137_245__38709",
                "/roslaunch/uris/host_143_248_137_245__40993",
                "/roslaunch/uris/host_143_248_137_245__42190",
                "/roslaunch/uris/host_143_248_137_245__41873",
                "/roslaunch/uris/host_143_248_137_245__46564",
                "/roslaunch/uris/host_143_248_137_245__41700",
                "/roslaunch/uris/host_143_248_137_245__35527",
                "/roslaunch/uris/host_143_248_137_245__41253",
                "/roslaunch/uris/host_143_248_137_245__37547",
                "/roslaunch/uris/host_143_248_137_245__39690",
                "/roslaunch/uris/host_143_248_137_245__38230",
                "/roslaunch/uris/host_143_248_137_245__41983",
                "/roslaunch/uris/host_143_248_137_245__38621",
                "/roslaunch/uris/host_143_248_137_245__37158",
                "/roslaunch/uris/host_143_248_137_245__46284",
                "/roslaunch/uris/host_143_248_137_245__44380",
                "/roslaunch/uris/host_143_248_137_245__46602",
                "/roslaunch/uris/host_143_248_137_245__45091",
                "/roslaunch/uris/host_143_248_137_245__38732",
                "/roslaunch/uris/host_143_248_137_245__42581",
                "/roslaunch/uris/host_143_248_137_245__42188",
                "/roslaunch/uris/host_143_248_137_245__42584",
                "/roslaunch/uris/host_143_248_137_245__45392",
                "/roslaunch/uris/host_143_248_137_245__39799",
                "/roslaunch/uris/host_143_248_137_245__46721",
                "/roslaunch/uris/host_143_248_137_245__42028",
                "/roslaunch/uris/host_143_248_137_245__38908",
                "/roslaunch/uris/host_143_248_137_245__35694",
                "/roslaunch/uris/host_143_248_137_245__41403",
                "/roslaunch/uris/host_143_248_137_245__39192",
                "/roslaunch/uris/host_143_248_137_245__38221",
                "/roslaunch/uris/host_143_248_137_245__35612",
                "/roslaunch/uris/host_143_248_137_245__43940",
                "/roslaunch/uris/host_143_248_137_245__36808",
                "/roslaunch/uris/host_143_248_137_245__36809",
                "/roslaunch/uris/host_143_248_137_245__38135",
                "/roslaunch/uris/host_143_248_137_245__36394",
                "/roslaunch/uris/host_143_248_137_245__46759",
                "/roslaunch/uris/host_143_248_137_245__39594",
                "/roslaunch/uris/host_143_248_137_245__41793",
                "/roslaunch/uris/host_143_248_137_245__33049",
                "/roslaunch/uris/host_143_248_137_245__40723",
                "/roslaunch/uris/host_143_248_137_245__35952",
                "/roslaunch/uris/host_143_248_137_245__36488",
                "/roslaunch/uris/host_143_248_137_245__34756",
                "/roslaunch/uris/host_143_248_137_245__37444",
                "/roslaunch/uris/host_143_248_137_245__45131",
                "/roslaunch/uris/host_143_248_137_245__34111",
                "/roslaunch/uris/host_143_248_137_245__33659",
                "/roslaunch/uris/host_143_248_137_245__42241",
                "/roslaunch/uris/host_143_248_137_245__42799",
                "/roslaunch/uris/host_143_248_137_245__44513",
                "/roslaunch/uris/host_143_248_137_245__46338",
                "/roslaunch/uris/host_143_248_137_245__41833",
                "/roslaunch/uris/host_143_248_137_245__33055",
                "/roslaunch/uris/host_143_248_137_245__42468",
                "/roslaunch/uris/host_143_248_137_245__38773",
                "/roslaunch/uris/host_143_248_137_245__42159",
                "/roslaunch/uris/host_143_248_137_245__42157",
                "/roslaunch/uris/host_143_248_137_245__34473",
                "/roslaunch/uris/host_143_248_137_245__41731",
                "/roslaunch/uris/host_143_248_137_245__43627",
                "/roslaunch/uris/host_143_248_137_245__40713",
                "/roslaunch/uris/host_143_248_137_245__36735",
                "/roslaunch/uris/host_143_248_137_245__46863",
                "/roslaunch/uris/host_143_248_137_245__43547",
                "/roslaunch/uris/host_143_248_137_245__45741",
                "/roslaunch/uris/host_143_248_137_245__46064",
                "/roslaunch/uris/host_143_248_137_245__35401",
                "/roslaunch/uris/host_143_248_137_245__41451",
                "/roslaunch/uris/host_143_248_137_245__45541",
                "/roslaunch/uris/host_143_248_137_245__41827",
                "/roslaunch/uris/host_143_248_137_245__35150",
                "/roslaunch/uris/host_143_248_137_245__34309",
                "/roslaunch/uris/host_143_248_137_245__40340",
                "/roslaunch/uris/host_143_248_137_245__39554",
                "/roslaunch/uris/host_143_248_137_245__38666",
                "/roslaunch/uris/host_143_248_137_245__45214",
                "/roslaunch/uris/host_143_248_137_245__36461",
                "/roslaunch/uris/host_143_248_137_245__32965",
                "/roslaunch/uris/host_143_248_137_245__37215",
                "/roslaunch/uris/host_143_248_137_245__33961",
                "/roslaunch/uris/host_143_248_137_245__42565",
                "/roslaunch/uris/host_143_248_137_245__40170",
                "/roslaunch/uris/host_143_248_137_245__41040",
                "/roslaunch/uris/host_143_248_137_245__36258",
                "/roslaunch/uris/host_143_248_137_245__34497",
                "/roslaunch/uris/host_143_248_137_245__41046",
                "/roslaunch/uris/host_143_248_137_245__46845",
                "/roslaunch/uris/host_143_248_137_245__40698",
                "/roslaunch/uris/host_143_248_137_245__36435",
                "/roslaunch/uris/host_143_248_137_245__35318",
                "/roslaunch/uris/host_143_248_137_245__40266",
                "/roslaunch/uris/host_143_248_137_245__45412",
                "/roslaunch/uris/host_143_248_137_245__40064",
                "/roslaunch/uris/host_143_248_137_245__40589",
                "/roslaunch/uris/host_143_248_137_245__46394",
                "/roslaunch/uris/host_143_248_137_245__36694",
                "/roslaunch/uris/host_143_248_137_245__40677",
                "/roslaunch/uris/host_143_248_137_245__40679",
                "/roslaunch/uris/host_143_248_137_245__46055",
                "/roslaunch/uris/host_143_248_137_245__46883",
                "/roslaunch/uris/host_143_248_137_245__42160",
                "/roslaunch/uris/host_143_248_137_245__43456",
                "/roslaunch/uris/host_143_248_137_245__42905",
                "/roslaunch/uris/host_143_248_137_245__42200",
                "/roslaunch/uris/host_143_248_137_245__39049",
                "/roslaunch/uris/host_143_248_137_245__46267",
                "/roslaunch/uris/host_143_248_137_245__45375",
                "/roslaunch/uris/host_143_248_137_245__46664",
                "/roslaunch/uris/host_143_248_137_245__45525",
                "/firefly/tf_prefix",
                "/firefly/robot_description",
                "/firefly/vi_sensor/camera_depth/camera/image_raw/compressedDepth/depth_max",
                "/firefly/vi_sensor/camera_depth/camera/image_raw/compressedDepth/png_level",
                "/firefly/vi_sensor/camera_depth/camera/image_raw/compressedDepth/depth_quantization",
                "/firefly/vi_sensor/camera_depth/camera/image_raw/compressed/png_level",
                "/firefly/vi_sensor/camera_depth/camera/image_raw/compressed/jpeg_quality",
                "/firefly/vi_sensor/camera_depth/camera/image_raw/compressed/format",
                "/firefly/vi_sensor/camera_depth/camera/image_raw/theora/optimize_for",
                "/firefly/vi_sensor/camera_depth/camera/image_raw/theora/target_bitrate",
                "/firefly/vi_sensor/camera_depth/camera/image_raw/theora/quality",
                "/firefly/vi_sensor/camera_depth/camera/image_raw/theora/keyframe_frequency",
                "/firefly/vi_sensor/camera_depth/imager_rate",
                "/firefly/vi_sensor/right/image_raw/compressedDepth/depth_max",
                "/firefly/vi_sensor/right/image_raw/compressedDepth/png_level",
                "/firefly/vi_sensor/right/image_raw/compressedDepth/depth_quantization",
                "/firefly/vi_sensor/right/image_raw/compressed/png_level",
                "/firefly/vi_sensor/right/image_raw/compressed/jpeg_quality",
                "/firefly/vi_sensor/right/image_raw/compressed/format",
                "/firefly/vi_sensor/right/image_raw/theora/optimize_for",
                "/firefly/vi_sensor/right/image_raw/theora/target_bitrate",
                "/firefly/vi_sensor/right/image_raw/theora/quality",
                "/firefly/vi_sensor/right/image_raw/theora/keyframe_frequency",
                "/firefly/vi_sensor/right/imager_rate",
                "/firefly/vi_sensor/left/image_raw/compressedDepth/depth_max",
                "/firefly/vi_sensor/left/image_raw/compressedDepth/png_level",
                "/firefly/vi_sensor/left/image_raw/compressedDepth/depth_quantization",
                "/firefly/vi_sensor/left/image_raw/compressed/png_level",
                "/firefly/vi_sensor/left/image_raw/compressed/jpeg_quality",
                "/firefly/vi_sensor/left/image_raw/compressed/format",
                "/firefly/vi_sensor/left/image_raw/theora/optimize_for",
                "/firefly/vi_sensor/left/image_raw/theora/target_bitrate",
                "/firefly/vi_sensor/left/image_raw/theora/quality",
                "/firefly/vi_sensor/left/image_raw/theora/keyframe_frequency",
                "/firefly/vi_sensor/left/imager_rate",
                "/firefly/nbvPlanner/pcl_throttle",
                "/firefly/nbvPlanner/stl_file_path",
                "/firefly/nbvPlanner/inspection_throttle",
                "/firefly/nbvPlanner/visualize_max_z",
                "/firefly/nbvPlanner/mesh_resolution",
                "/firefly/nbvPlanner/system/v_max",
                "/firefly/nbvPlanner/system/dyaw_max",
                "/firefly/nbvPlanner/system/camera/horizontal",
                "/firefly/nbvPlanner/system/camera/vertical",
                "/firefly/nbvPlanner/system/camera/pitch",
                "/firefly/nbvPlanner/system/bbx/y",
                "/firefly/nbvPlanner/system/bbx/x",
                "/firefly/nbvPlanner/system/bbx/overshoot",
                "/firefly/nbvPlanner/system/bbx/z",
                "/firefly/nbvPlanner/tf_frame",
                "/firefly/nbvPlanner/bbx/maxZ",
                "/firefly/nbvPlanner/bbx/maxX",
                "/firefly/nbvPlanner/bbx/maxY",
                "/firefly/nbvPlanner/bbx/softBounds",
                "/firefly/nbvPlanner/bbx/minX",
                "/firefly/nbvPlanner/bbx/minY",
                "/firefly/nbvPlanner/bbx/minZ",
                "/firefly/nbvPlanner/map_publish_frequency",
                "/firefly/nbvPlanner/sensor_max_range",
                "/firefly/nbvPlanner/resolution",
                "/firefly/nbvPlanner/nbvp/dt",
                "/firefly/nbvPlanner/nbvp/tree/cuttoff_iterations",
                "/firefly/nbvPlanner/nbvp/tree/initial_iterations",
                "/firefly/nbvPlanner/nbvp/tree/exact_root",
                "/firefly/nbvPlanner/nbvp/tree/extension_range",
                "/firefly/nbvPlanner/nbvp/gain/area",
                "/firefly/nbvPlanner/nbvp/gain/occupied",
                "/firefly/nbvPlanner/nbvp/gain/range",
                "/firefly/nbvPlanner/nbvp/gain/free",
                "/firefly/nbvPlanner/nbvp/gain/zero",
                "/firefly/nbvPlanner/nbvp/gain/degressive_coeff",
                "/firefly/nbvPlanner/nbvp/gain/unmapped",
                "/firefly/nbvPlanner/nbvp/gain/probabilistic",
                "/firefly/nbvPlanner/nbvp/log/on",
                "/firefly/nbvPlanner/nbvp/log/throttle",
                "/firefly/lee_position_controller_node/velocity_gain/y",
                "/firefly/lee_position_controller_node/velocity_gain/x",
                "/firefly/lee_position_controller_node/velocity_gain/z",
                "/firefly/lee_position_controller_node/rotor_configuration/1/rotor_moment_constant",
                "/firefly/lee_position_controller_node/rotor_configuration/1/direction",
                "/firefly/lee_position_controller_node/rotor_configuration/1/rotor_force_constant",
                "/firefly/lee_position_controller_node/rotor_configuration/1/angle",
                "/firefly/lee_position_controller_node/rotor_configuration/1/arm_length",
                "/firefly/lee_position_controller_node/rotor_configuration/0/angle",
                "/firefly/lee_position_controller_node/rotor_configuration/0/direction",
                "/firefly/lee_position_controller_node/rotor_configuration/0/rotor_force_constant",
                "/firefly/lee_position_controller_node/rotor_configuration/0/rotor_moment_constant",
                "/firefly/lee_position_controller_node/rotor_configuration/0/arm_length",
                "/firefly/lee_position_controller_node/rotor_configuration/3/rotor_force_constant",
                "/firefly/lee_position_controller_node/rotor_configuration/3/rotor_moment_constant",
                "/firefly/lee_position_controller_node/rotor_configuration/3/angle",
                "/firefly/lee_position_controller_node/rotor_configuration/3/direction",
                "/firefly/lee_position_controller_node/rotor_configuration/3/arm_length",
                "/firefly/lee_position_controller_node/rotor_configuration/2/rotor_moment_constant",
                "/firefly/lee_position_controller_node/rotor_configuration/2/direction",
                "/firefly/lee_position_controller_node/rotor_configuration/2/rotor_force_constant",
                "/firefly/lee_position_controller_node/rotor_configuration/2/angle",
                "/firefly/lee_position_controller_node/rotor_configuration/2/arm_length",
                "/firefly/lee_position_controller_node/rotor_configuration/5/angle",
                "/firefly/lee_position_controller_node/rotor_configuration/5/direction",
                "/firefly/lee_position_controller_node/rotor_configuration/5/rotor_force_constant",
                "/firefly/lee_position_controller_node/rotor_configuration/5/rotor_moment_constant",
                "/firefly/lee_position_controller_node/rotor_configuration/5/arm_length",
                "/firefly/lee_position_controller_node/rotor_configuration/4/direction",
                "/firefly/lee_position_controller_node/rotor_configuration/4/rotor_moment_constant",
                "/firefly/lee_position_controller_node/rotor_configuration/4/angle",
                "/firefly/lee_position_controller_node/rotor_configuration/4/rotor_force_constant",
                "/firefly/lee_position_controller_node/rotor_configuration/4/arm_length",
                "/firefly/lee_position_controller_node/angular_rate_gain/y",
                "/firefly/lee_position_controller_node/angular_rate_gain/x",
                "/firefly/lee_position_controller_node/angular_rate_gain/z",
                "/firefly/lee_position_controller_node/position_gain/y",
                "/firefly/lee_position_controller_node/position_gain/x",
                "/firefly/lee_position_controller_node/position_gain/z",
                "/firefly/lee_position_controller_node/mass",
                "/firefly/lee_position_controller_node/attitude_gain/y",
                "/firefly/lee_position_controller_node/attitude_gain/x",
                "/firefly/lee_position_controller_node/attitude_gain/z",
                "/firefly/lee_position_controller_node/inertia/yy",
                "/firefly/lee_position_controller_node/inertia/yz",
                "/firefly/lee_position_controller_node/inertia/xz",
                "/firefly/lee_position_controller_node/inertia/xx",
                "/firefly/lee_position_controller_node/inertia/xy",
                "/firefly/lee_position_controller_node/inertia/zz",
                "/firefly/exploration/inspection_throttle",
                "/firefly/exploration/pcl_throttle",
                "/firefly/exploration/system/v_max",
                "/firefly/exploration/system/dyaw_max",
                "/firefly/exploration/system/camera/horizontal",
                "/firefly/exploration/system/camera/vertical",
                "/firefly/exploration/system/camera/pitch",
                "/firefly/exploration/system/bbx/y",
                "/firefly/exploration/system/bbx/x",
                "/firefly/exploration/system/bbx/overshoot",
                "/firefly/exploration/system/bbx/z",
                "/firefly/exploration/nbvp/dt",
                "/firefly/exploration/nbvp/tree/cuttoff_iterations",
                "/firefly/exploration/nbvp/tree/initial_iterations",
                "/firefly/exploration/nbvp/tree/extension_range",
                "/firefly/exploration/nbvp/tree/exact_root",
                "/firefly/exploration/nbvp/gain/area",
                "/firefly/exploration/nbvp/gain/probabilistic",
                "/firefly/exploration/nbvp/gain/range",
                "/firefly/exploration/nbvp/gain/free",
                "/firefly/exploration/nbvp/gain/zero",
                "/firefly/exploration/nbvp/gain/degressive_coeff",
                "/firefly/exploration/nbvp/gain/unmapped",
                "/firefly/exploration/nbvp/gain/occupied",
                "/firefly/exploration/nbvp/log/on",
                "/firefly/exploration/nbvp/log/throttle",
                "/firefly/exploration/bbx/maxZ",
                "/firefly/exploration/bbx/maxX",
                "/firefly/exploration/bbx/maxY",
                "/firefly/exploration/bbx/softBounds",
                "/firefly/exploration/bbx/minX",
                "/firefly/exploration/bbx/minY",
                "/firefly/exploration/bbx/minZ",
                "/firefly/wp_x",
                "/firefly/wp_y",
                "/firefly/wp_z",
                "/rosversion",
                "/run_id",
                "/use_sim_time",
                "/rosdistro",
                "/gazebo/gravity_z",
                "/gazebo/cfm",
                "/gazebo/erp",
                "/gazebo/contact_max_correcting_vel",
                "/gazebo/sor_pgs_iters",
                "/gazebo/sor_pgs_precon_iters",
                "/gazebo/auto_disable_bodies",
                "/gazebo/sor_pgs_rms_error_tol",
                "/gazebo/contact_surface_layer",
                "/gazebo/max_update_rate",
                "/gazebo/gravity_x",
                "/gazebo/gravity_y",
                "/gazebo/time_step",
                "/gazebo/max_contacts",
                "/gazebo/sor_pgs_w"
            ]
        }
    },
    "rostopic": {
        "port": "11311",
        "type": "xmlrpc",
        "method": "rostopic",
        "arg": "/rosversion",
        "status": "ok",
        "response": {
            "status_code": 1,
            "status_message": "current system state",
            "system_state": {
                "publishers": {
                    "/firefly/boxinfo": [
                        "/firefly/nbvPlanner"
                    ],
                    "/firefly/vi_sensor/camera_depth/camera/image_raw/compressedDepth/parameter_descriptions": [
                        "/gazebo"
                    ],
                    "/firefly/nbvPlanner/nearest_obstacle": [
                        "/firefly/nbvPlanner"
                    ],
                    "/firefly/vi_sensor/camera_depth/camera/image_raw/theora/parameter_descriptions": [
                        "/gazebo"
                    ],
                    "/firefly/vi_sensor/ground_truth/pose": [
                        "/gazebo"
                    ],
                    "/firefly/vi_sensor/right/image_raw/compressedDepth": [
                        "/gazebo"
                    ],
                    "/firefly/vi_sensor/camera_depth/camera/image_raw/compressedDepth": [
                        "/gazebo"
                    ],
                    "/ssd/width_height": [
                        "/nbvplanner"
                    ],
                    "/firefly/vi_sensor/left/image_raw/compressedDepth/parameter_descriptions": [
                        "/gazebo"
                    ],
                    "/firefly/odometry_sensor1/transform": [
                        "/gazebo"
                    ],
                    "/firefly/ground_truth/transform": [
                        "/gazebo"
                    ],
                    "/firefly/sector": [
                        "/firefly/nbvPlanner"
                    ],
                    "/firefly/vi_sensor/ground_truth/odometry": [
                        "/gazebo"
                    ],
                    "/firefly/nbvPlanner/octomap_pcl": [
                        "/firefly/nbvPlanner"
                    ],
                    "/gazebo/model_states": [
                        "/gazebo"
                    ],
                    "/firefly/vi_sensor/ground_truth/position": [
                        "/gazebo"
                    ],
                    "/firefly/vi_sensor/right/image_raw/compressedDepth/parameter_descriptions": [
                        "/gazebo"
                    ],
                    "/firefly/vi_sensor/camera_depth/camera/image_raw/compressedDepth/parameter_updates": [
                        "/gazebo"
                    ],
                    "/firefly/vi_sensor/camera_depth/depth/points": [
                        "/gazebo"
                    ],
                    "/clicked_point": [
                        "/rviz_1512029212059436226"
                    ],
                    "/firefly/motor_speed/3": [
                        "/gazebo"
                    ],
                    "/firefly/motor_speed/2": [
                        "/gazebo"
                    ],
                    "/firefly/motor_speed/1": [
                        "/gazebo"
                    ],
                    "/firefly/motor_speed/0": [
                        "/gazebo"
                    ],
                    "/firefly/motor_speed/5": [
                        "/gazebo"
                    ],
                    "/firefly/motor_speed/4": [
                        "/gazebo"
                    ],
                    "/firefly/vi_sensor/right/image_raw": [
                        "/gazebo"
                    ],
                    "/firefly/ground_truth/position": [
                        "/gazebo"
                    ],
                    "/firefly/vi_sensor/right/image_raw/theora/parameter_descriptions": [
                        "/gazebo"
                    ],
                    "/firefly/inspectionPath": [
                        "/firefly/nbvPlanner"
                    ],
                    "/firefly/odometry_sensor1/position": [
                        "/gazebo"
                    ],
                    "/gazebo/parameter_descriptions": [
                        "/gazebo"
                    ],
                    "/firefly/nbvPlanner/octomap_full": [
                        "/firefly/nbvPlanner"
                    ],
                    "/firefly/vi_sensor/left/parameter_descriptions": [
                        "/gazebo"
                    ],
                    "/firefly/joint_states": [
                        "/gazebo"
                    ],
                    "/firefly/vi_sensor/camera_depth/depth/camera_info": [
                        "/gazebo"
                    ],
                    "/firefly/vi_sensor/camera_depth/camera/image_raw/compressed/parameter_updates": [
                        "/gazebo"
                    ],
                    "/firefly/vi_sensor/camera_depth/camera/image_raw/compressed": [
                        "/gazebo"
                    ],
                    "/firefly/ground_truth/odometry": [
                        "/gazebo"
                    ],
                    "/firefly/vi_sensor/camera_depth/camera/image_raw/compressed/parameter_descriptions": [
                        "/gazebo"
                    ],
                    "/evasionSegment": [
                        "/firefly/nbvPlanner"
                    ],
                    "/firefly/ground_truth/pose": [
                        "/gazebo"
                    ],
                    "/firefly/vi_sensor/left/parameter_updates": [
                        "/gazebo"
                    ],
                    "/firefly/vi_sensor/left/image_raw/compressed/parameter_updates": [
                        "/gazebo"
                    ],
                    "/firefly/vi_sensor/camera_depth/camera/image_raw/theora": [
                        "/gazebo"
                    ],
                    "/firefly/odometry_sensor1/pose_with_covariance": [
                        "/gazebo"
                    ],
                    "/firefly/pointcloud": [
                        "/firefly/nbvPlanner"
                    ],
                    "/tf": [
                        "/tf_53",
                        "/tf_1",
                        "/tf_2",
                        "/tf_3",
                        "/tf_4",
                        "/gazebo"
                    ],
                    "/firefly/gazebo/command/motor_speed": [
                        "/gazebo"
                    ],
                    "/firefly/vi_sensor/right/image_raw/compressed": [
                        "/gazebo"
                    ],
                    "/firefly/vi_sensor/right/parameter_descriptions": [
                        "/gazebo"
                    ],
                    "/firefly/obtained_pcloud": [
                        "/firefly/nbvPlanner"
                    ],
                    "/firefly/command/trajectory": [
                        "/firefly/exploration"
                    ],
                    "/firefly/imu": [
                        "/gazebo"
                    ],
                    "/firefly/vi_sensor/camera_depth/parameter_descriptions": [
                        "/gazebo"
                    ],
                    "/firefly/nbvPlanner/octomap_free": [
                        "/firefly/nbvPlanner"
                    ],
                    "/firefly/vi_sensor/right/camera_info": [
                        "/gazebo"
                    ],
                    "/firefly/vi_sensor/right/image_raw/compressed/parameter_updates": [
                        "/gazebo"
                    ],
                    "/firefly/odometry_sensor1/odometry": [
                        "/gazebo"
                    ],
                    "/firefly/ground_truth/imu": [
                        "/gazebo"
                    ],
                    "/firefly/vi_sensor/right/image_raw/theora/parameter_updates": [
                        "/gazebo"
                    ],
                    "/rosout": [
                        "/rviz_1512029212059436226",
                        "/nbvplanner",
                        "/tf_53",
                        "/tf_1",
                        "/tf_2",
                        "/tf_3",
                        "/tf_4",
                        "/firefly/exploration",
                        "/firefly/nbvPlanner",
                        "/gazebo",
                        "/firefly/lee_position_controller_node"
                    ],
                    "/firefly/vi_sensor/camera_depth/camera/camera_info": [
                        "/gazebo"
                    ],
                    "/firefly/vi_sensor/camera_depth/depth/disparity": [
                        "/gazebo"
                    ],
                    "/firefly/vi_sensor/imu": [
                        "/gazebo"
                    ],
                    "/firefly/vi_sensor/left/image_raw/compressed": [
                        "/gazebo"
                    ],
                    "/firefly/vi_sensor/left/image_raw/theora/parameter_descriptions": [
                        "/gazebo"
                    ],
                    "/firefly/vi_sensor/camera_depth/parameter_updates": [
                        "/gazebo"
                    ],
                    "/firefly/vi_sensor/left/image_raw/theora": [
                        "/gazebo"
                    ],
                    "/firefly/vi_sensor/right/image_raw/compressedDepth/parameter_updates": [
                        "/gazebo"
                    ],
                    "/firefly/globalpath": [
                        "/firefly/nbvPlanner"
                    ],
                    "/gazebo/parameter_updates": [
                        "/gazebo"
                    ],
                    "/firefly/vi_sensor/left/image_raw/compressedDepth": [
                        "/gazebo"
                    ],
                    "/firefly/nbvPlanner/octomap_binary": [
                        "/firefly/nbvPlanner"
                    ],
                    "/firefly/vi_sensor/left/image_raw": [
                        "/gazebo"
                    ],
                    "/firefly/vi_sensor/left/image_raw/theora/parameter_updates": [
                        "/gazebo"
                    ],
                    "/rosout_agg": [
                        "/rosout"
                    ],
                    "/firefly/vi_sensor/right/image_raw/theora": [
                        "/gazebo"
                    ],
                    "/firefly/pointmin": [
                        "/firefly/nbvPlanner"
                    ],
                    "/firefly/odometry_sensor1/pose": [
                        "/gazebo"
                    ],
                    "/move_base_simple/goal": [
                        "/rviz_1512029212059436226"
                    ],
                    "/firefly/vi_sensor/left/image_raw/compressedDepth/parameter_updates": [
                        "/gazebo"
                    ],
                    "/firefly/vi_sensor/camera_depth/camera/image_raw/theora/parameter_updates": [
                        "/gazebo"
                    ],
                    "/firefly/vi_sensor/right/parameter_updates": [
                        "/gazebo"
                    ],
                    "/firefly/objloc": [
                        "/firefly/nbvPlanner"
                    ],
                    "/firefly/vi_sensor/ground_truth/transform": [
                        "/gazebo"
                    ],
                    "/firefly/vi_sensor/ground_truth/pose_with_covariance": [
                        "/gazebo"
                    ],
                    "/firefly/totalpath": [
                        "/firefly/nbvPlanner"
                    ],
                    "/firefly/command/motor_speed": [
                        "/firefly/lee_position_controller_node"
                    ],
                    "/firefly/motor_speed": [
                        "/gazebo"
                    ],
                    "/initialpose": [
                        "/rviz_1512029212059436226"
                    ],
                    "/firefly/vi_sensor/left/camera_info": [
                        "/gazebo"
                    ],
                    "/firefly/ground_truth/pose_with_covariance": [
                        "/gazebo"
                    ],
                    "/gazebo/link_states": [
                        "/gazebo"
                    ],
                    "/firefly/vi_sensor/right/image_raw/compressed/parameter_descriptions": [
                        "/gazebo"
                    ],
                    "/clock": [
                        "/gazebo"
                    ],
                    "/firefly/nbvPlanner/octomap_occupied": [
                        "/firefly/nbvPlanner"
                    ],
                    "/firefly/vi_sensor/camera_depth/camera/image_raw": [
                        "/gazebo"
                    ],
                    "/firefly/vi_sensor/left/image_raw/compressed/parameter_descriptions": [
                        "/gazebo"
                    ]
                },
                "subscribers": {
                    "/firefly/boxinfo": [
                        "/rviz_1512029212059436226"
                    ],
                    "/firefly/vi_sensor/camera_depth/depth/points": [
                        "/firefly/nbvPlanner"
                    ],
                    "/gazebo/set_link_state": [
                        "/gazebo"
                    ],
                    "/firefly/vi_sensor/left/image_raw": [
                        "/rviz_1512029212059436226"
                    ],
                    "/firefly/pointcloud_throttled_down": [
                        "/firefly/nbvPlanner"
                    ],
                    "/firefly/pointcloud": [
                        "/firefly/nbvPlanner"
                    ],
                    "/tf": [
                        "/rviz_1512029212059436226",
                        "/firefly/nbvPlanner"
                    ],
                    "/firefly/gazebo/command/motor_speed": [
                        "/gazebo"
                    ],
                    "/firefly/totalpath_array": [
                        "/rviz_1512029212059436226"
                    ],
                    "/firefly/command/pose": [
                        "/firefly/lee_position_controller_node"
                    ],
                    "/firefly/command/trajectory": [
                        "/firefly/lee_position_controller_node"
                    ],
                    "/firefly/peer_pose_2": [
                        "/firefly/nbvPlanner"
                    ],
                    "/firefly/peer_pose_3": [
                        "/firefly/nbvPlanner"
                    ],
                    "/visualization_marker_array": [
                        "/rviz_1512029212059436226"
                    ],
                    "/firefly/odometry": [
                        "/firefly/nbvPlanner"
                    ],
                    "/firefly/inspectionPath": [
                        "/rviz_1512029212059436226"
                    ],
                    "/tf_static": [
                        "/rviz_1512029212059436226",
                        "/firefly/nbvPlanner"
                    ],
                    "/firefly/vi_sensor/ground_truth/pose": [
                        "/rviz_1512029212059436226"
                    ],
                    "/firefly/disparity": [
                        "/firefly/nbvPlanner"
                    ],
                    "/firefly/vi_sensor/right/camera_info": [
                        "/firefly/nbvPlanner"
                    ],
                    "/firefly/input_octomap": [
                        "/firefly/nbvPlanner"
                    ],
                    "/firefly/odometry_sensor1/odometry": [
                        "/firefly/lee_position_controller_node"
                    ],
                    "/firefly/pointcloud_throttled_up": [
                        "/firefly/nbvPlanner"
                    ],
                    "/firefly/totalpath": [
                        "/rviz_1512029212059436226"
                    ],
                    "/firefly/command/motor_speed": [
                        "/gazebo"
                    ],
                    "/rosout": [
                        "/rosout"
                    ],
                    "/ssd/width_height": [
                        "/firefly/nbvPlanner"
                    ],
                    "/firefly/vi_sensor/left/camera_info": [
                        "/firefly/nbvPlanner"
                    ],
                    "/firefly/ground_truth/pose_with_covariance": [
                        "/firefly/nbvPlanner"
                    ],
                    "/gazebo/set_model_state": [
                        "/gazebo"
                    ],
                    "/firefly/peer_pose_1": [
                        "/firefly/nbvPlanner"
                    ],
                    "/evasionSegment": [
                        "/firefly/nbvPlanner"
                    ],
                    "/firefly/globalpath": [
                        "/rviz_1512029212059436226"
                    ],
                    "/clock": [
                        "/nbvplanner",
                        "/tf_53",
                        "/tf_1",
                        "/tf_2",
                        "/tf_3",
                        "/tf_4",
                        "/firefly/exploration",
                        "/firefly/nbvPlanner",
                        "/gazebo",
                        "/firefly/lee_position_controller_node"
                    ],
                    "/firefly/nbvPlanner/octomap_occupied": [
                        "/rviz_1512029212059436226"
                    ],
                    "/firefly/vi_sensor/camera_depth/camera/image_raw": [
                        "/nbvplanner"
                    ],
                    "/firefly/gazebo/wind_speed": [
                        "/gazebo"
                    ],
                    "/firefly/inspectionPath_array": [
                        "/rviz_1512029212059436226"
                    ]
                },
                "services": {
                    "/gazebo/apply_joint_effort": [
                        "/gazebo"
                    ],
                    "/tf_3/set_logger_level": [
                        "/tf_3"
                    ],
                    "/firefly/exploration/set_logger_level": [
                        "/firefly/exploration"
                    ],
                    "/firefly/nbvPlanner/set_logger_level": [
                        "/firefly/nbvPlanner"
                    ],
                    "/gazebo/set_link_state": [
                        "/gazebo"
                    ],
                    "/gazebo/unpause_physics": [
                        "/gazebo"
                    ],
                    "/firefly/nbvPlanner/reset_map": [
                        "/firefly/nbvPlanner"
                    ],
                    "/rviz_1512029212059436226/get_loggers": [
                        "/rviz_1512029212059436226"
                    ],
                    "/firefly/vi_sensor/right/set_parameters": [
                        "/gazebo"
                    ],
                    "/gazebo/set_logger_level": [
                        "/gazebo"
                    ],
                    "/tf_4/get_loggers": [
                        "/tf_4"
                    ],
                    "/firefly/vi_sensor/right/image_raw/compressedDepth/set_parameters": [
                        "/gazebo"
                    ],
                    "/rviz_1512029212059436226/reload_shaders": [
                        "/rviz_1512029212059436226"
                    ],
                    "/tf_1/set_logger_level": [
                        "/tf_1"
                    ],
                    "/tf_53/get_loggers": [
                        "/tf_53"
                    ],
                    "/tf_2/get_loggers": [
                        "/tf_2"
                    ],
                    "/gazebo/get_physics_properties": [
                        "/gazebo"
                    ],
                    "/gazebo/reset_world": [
                        "/gazebo"
                    ],
                    "/firefly/nbvPlanner/save_point_cloud": [
                        "/firefly/nbvPlanner"
                    ],
                    "/firefly/vi_sensor/camera_depth/camera/image_raw/theora/set_parameters": [
                        "/gazebo"
                    ],
                    "/gazebo/set_model_configuration": [
                        "/gazebo"
                    ],
                    "/gazebo/get_world_properties": [
                        "/gazebo"
                    ],
                    "/gazebo/set_parameters": [
                        "/gazebo"
                    ],
                    "/firefly/nbvPlanner/get_map": [
                        "/firefly/nbvPlanner"
                    ],
                    "/firefly/vi_sensor/right/image_raw/compressed/set_parameters": [
                        "/gazebo"
                    ],
                    "/firefly/vi_sensor/camera_depth/set_camera_info": [
                        "/gazebo"
                    ],
                    "/gazebo/spawn_sdf_model": [
                        "/gazebo"
                    ],
                    "/firefly/exploration/get_loggers": [
                        "/firefly/exploration"
                    ],
                    "/firefly/lee_position_controller_node/set_logger_level": [
                        "/firefly/lee_position_controller_node"
                    ],
                    "/firefly/nbvPlanner/set_box_occupancy": [
                        "/firefly/nbvPlanner"
                    ],
                    "/firefly/vi_sensor/right/set_camera_info": [
                        "/gazebo"
                    ],
                    "/nbvplanner/set_logger_level": [
                        "/nbvplanner"
                    ],
                    "/gazebo/get_loggers": [
                        "/gazebo"
                    ],
                    "/tf_1/get_loggers": [
                        "/tf_1"
                    ],
                    "/firefly/nbvplanner": [
                        "/firefly/nbvPlanner"
                    ],
                    "/firefly/nbvPlanner/publish_all": [
                        "/firefly/nbvPlanner"
                    ],
                    "/rosout/set_logger_level": [
                        "/rosout"
                    ],
                    "/firefly/vi_sensor/left/image_raw/compressedDepth/set_parameters": [
                        "/gazebo"
                    ],
                    "/tf_4/set_logger_level": [
                        "/tf_4"
                    ],
                    "/gazebo/spawn_gazebo_model": [
                        "/gazebo"
                    ],
                    "/gazebo/pause_physics": [
                        "/gazebo"
                    ],
                    "/gazebo/clear_joint_forces": [
                        "/gazebo"
                    ],
                    "/gazebo/set_physics_properties": [
                        "/gazebo"
                    ],
                    "/firefly/lee_position_controller_node/get_loggers": [
                        "/firefly/lee_position_controller_node"
                    ],
                    "/firefly/vi_sensor/camera_depth/set_parameters": [
                        "/gazebo"
                    ],
                    "/gazebo/set_model_state": [
                        "/gazebo"
                    ],
                    "/gazebo/apply_body_wrench": [
                        "/gazebo"
                    ],
                    "/firefly/vi_sensor/left/image_raw/compressed/set_parameters": [
                        "/gazebo"
                    ],
                    "/gazebo/reset_simulation": [
                        "/gazebo"
                    ],
                    "/gazebo/delete_model": [
                        "/gazebo"
                    ],
                    "/gazebo/get_link_properties": [
                        "/gazebo"
                    ],
                    "/nbvplanner/get_loggers": [
                        "/nbvplanner"
                    ],
                    "/firefly/vi_sensor/left/set_camera_info": [
                        "/gazebo"
                    ],
                    "/gazebo/set_joint_properties": [
                        "/gazebo"
                    ],
                    "/gazebo/spawn_urdf_model": [
                        "/gazebo"
                    ],
                    "/firefly/vi_sensor/camera_depth/camera/image_raw/compressedDepth/set_parameters": [
                        "/gazebo"
                    ],
                    "/firefly/vi_sensor/left/image_raw/theora/set_parameters": [
                        "/gazebo"
                    ],
                    "/tf_3/get_loggers": [
                        "/tf_3"
                    ],
                    "/gazebo/set_link_properties": [
                        "/gazebo"
                    ],
                    "/gazebo/get_joint_properties": [
                        "/gazebo"
                    ],
                    "/tf_53/set_logger_level": [
                        "/tf_53"
                    ],
                    "/firefly/nbvPlanner/set_display_bounds": [
                        "/firefly/nbvPlanner"
                    ],
                    "/firefly/vi_sensor/left/set_parameters": [
                        "/gazebo"
                    ],
                    "/gazebo/get_link_state": [
                        "/gazebo"
                    ],
                    "/gazebo/clear_body_wrenches": [
                        "/gazebo"
                    ],
                    "/firefly/nbvPlanner/load_map": [
                        "/firefly/nbvPlanner"
                    ],
                    "/rosout/get_loggers": [
                        "/rosout"
                    ],
                    "/gazebo/get_model_properties": [
                        "/gazebo"
                    ],
                    "/firefly/nbvPlanner/save_map": [
                        "/firefly/nbvPlanner"
                    ],
                    "/gazebo/get_model_state": [
                        "/gazebo"
                    ],
                    "/firefly/vi_sensor/right/image_raw/theora/set_parameters": [
                        "/gazebo"
                    ],
                    "/firefly/vi_sensor/camera_depth/camera/image_raw/compressed/set_parameters": [
                        "/gazebo"
                    ],
                    "/firefly/nbvPlanner/get_loggers": [
                        "/firefly/nbvPlanner"
                    ],
                    "/rviz_1512029212059436226/set_logger_level": [
                        "/rviz_1512029212059436226"
                    ],
                    "/tf_2/set_logger_level": [
                        "/tf_2"
                    ]
                }
            }
        }
    },
    "rosdescription": {
        "port": "11311",
        "type": "xmlrpc",
        "method": "rosdescription",
        "arg": "/robot_description",
        "status": "ok",
        "response": {
            "status_code": -1,
            "status_message": "Parameter [/robot_description] is not set",
            "param": 0
        }
    },
    "query_stats": {
        "param_count": 299,
        "publisher_count": 99,
        "subscriber_count": 38,
        "service_count": 75,
        "term_count": 498,
        "alphaterm_count": 335,
        "topic_count": 199,
        "has_description": false,
        "is_ros": true,
        "roscore_version": "1.11",
        "ros_version_name": "indigo",
        "missing_term_data": false,
        "roslaunch_machine_hostnames": [
            "143_248_137_245"
        ],
        "has_hostname": true,
        "machine_hostname": "143_248_137_245"
    },
    "search_info": {
        "count_control": 0,
        "count_simulators": 2,
        "count_sensors": 4,
        "count_actuators": 0,
        "count_other": 2,
        "count_robot_types": 0,
        "count_targets": 1,
        "total_query_hits": 9
    },
    "search_stats": {
        "control": {},
        "simulators": {
            "sim_any": {
                "param": "not",
                "hit": true,
                "children": [
                    {
                        "param": "and",
                        "hit": false,
                        "children": [
                            {
                                "param": "not",
                                "hit": false,
                                "children": [
                                    {
                                        "param": "gazebo",
                                        "hit": true,
                                        "count": 35,
                                        "matches": [
                                            "/gazebo/set_logger_level",
                                            "/gazebo/reset_world",
                                            "/gazebo/model_states",
                                            "/gazebo/clear_body_wrenches",
                                            "/gazebo/clear_joint_forces",
                                            "/gazebo/set_link_properties",
                                            "/gazebo/get_loggers",
                                            "/gazebo",
                                            "/gazebo/set_model_configuration",
                                            "/gazebo/get_link_state",
                                            "/gazebo/link_states",
                                            "/gazebo/get_joint_properties",
                                            "/gazebo/apply_joint_effort",
                                            "/firefly/gazebo/wind_speed",
                                            "/gazebo/set_model_state",
                                            "/gazebo/parameter_descriptions",
                                            "/gazebo/get_physics_properties",
                                            "/gazebo/spawn_urdf_model",
                                            "/gazebo/spawn_sdf_model",
                                            "/gazebo/get_world_properties",
                                            "/gazebo/get_model_state",
                                            "/gazebo/delete_model",
                                            "/gazebo/set_parameters",
                                            "/gazebo/spawn_gazebo_model",
                                            "/gazebo/set_physics_properties",
                                            "/firefly/gazebo/command/motor_speed",
                                            "/gazebo/unpause_physics",
                                            "/gazebo/parameter_updates",
                                            "/gazebo/pause_physics",
                                            "/gazebo/set_joint_properties",
                                            "/gazebo/set_link_state",
                                            "/gazebo/get_link_properties",
                                            "/gazebo/reset_simulation",
                                            "/gazebo/apply_body_wrench",
                                            "/gazebo/get_model_properties"
                                        ]
                                    }
                                ]
                            },
                            {
                                "param": "not",
                                "hit": true,
                                "children": [
                                    {
                                        "param": "stageros",
                                        "hit": false,
                                        "count": 0,
                                        "matches": []
                                    }
                                ]
                            },
                            {
                                "param": "not",
                                "hit": true,
                                "children": [
                                    {
                                        "param": "simulator",
                                        "hit": false,
                                        "count": 0,
                                        "matches": []
                                    }
                                ]
                            },
                            {
                                "param": "not",
                                "hit": true,
                                "children": [
                                    {
                                        "param": "use_sim_time",
                                        "hit": false,
                                        "count": 0,
                                        "matches": []
                                    }
                                ]
                            },
                            {
                                "param": "not",
                                "hit": true,
                                "children": [
                                    {
                                        "param": "torcs_ros",
                                        "hit": false,
                                        "count": 0,
                                        "matches": []
                                    }
                                ]
                            },
                            {
                                "param": "not",
                                "hit": true,
                                "children": [
                                    {
                                        "param": "unity",
                                        "hit": false,
                                        "count": 0,
                                        "matches": []
                                    }
                                ]
                            },
                            {
                                "param": "not",
                                "hit": true,
                                "children": [
                                    {
                                        "param": "turtlesim",
                                        "hit": false,
                                        "count": 0,
                                        "matches": []
                                    }
                                ]
                            },
                            {
                                "param": "not",
                                "hit": true,
                                "children": [
                                    {
                                        "param": "dreamview",
                                        "hit": false,
                                        "count": 0,
                                        "matches": []
                                    }
                                ]
                            },
                            {
                                "param": "not",
                                "hit": true,
                                "children": [
                                    {
                                        "param": "videofile",
                                        "hit": false,
                                        "count": 0,
                                        "matches": []
                                    }
                                ]
                            },
                            {
                                "param": "not",
                                "hit": true,
                                "children": [
                                    {
                                        "param": "uwsim",
                                        "hit": false,
                                        "count": 0,
                                        "matches": []
                                    }
                                ]
                            },
                            {
                                "param": "not",
                                "hit": true,
                                "children": [
                                    {
                                        "param": "file_player",
                                        "hit": false,
                                        "count": 0,
                                        "matches": []
                                    }
                                ]
                            }
                        ]
                    }
                ]
            },
            "sim_gazebo": {
                "param": "gazebo",
                "hit": true,
                "count": 35,
                "matches": [
                    "/gazebo/set_logger_level",
                    "/gazebo/reset_world",
                    "/gazebo/model_states",
                    "/gazebo/clear_body_wrenches",
                    "/gazebo/clear_joint_forces",
                    "/gazebo/set_link_properties",
                    "/gazebo/get_loggers",
                    "/gazebo",
                    "/gazebo/set_model_configuration",
                    "/gazebo/get_link_state",
                    "/gazebo/link_states",
                    "/gazebo/get_joint_properties",
                    "/gazebo/apply_joint_effort",
                    "/firefly/gazebo/wind_speed",
                    "/gazebo/set_model_state",
                    "/gazebo/parameter_descriptions",
                    "/gazebo/get_physics_properties",
                    "/gazebo/spawn_urdf_model",
                    "/gazebo/spawn_sdf_model",
                    "/gazebo/get_world_properties",
                    "/gazebo/get_model_state",
                    "/gazebo/delete_model",
                    "/gazebo/set_parameters",
                    "/gazebo/spawn_gazebo_model",
                    "/gazebo/set_physics_properties",
                    "/firefly/gazebo/command/motor_speed",
                    "/gazebo/unpause_physics",
                    "/gazebo/parameter_updates",
                    "/gazebo/pause_physics",
                    "/gazebo/set_joint_properties",
                    "/gazebo/set_link_state",
                    "/gazebo/get_link_properties",
                    "/gazebo/reset_simulation",
                    "/gazebo/apply_body_wrench",
                    "/gazebo/get_model_properties"
                ]
            }
        },
        "sensors": {
            "camera_nofake": {
                "param": "or",
                "hit": true,
                "children": [
                    {
                        "param": "camera_!fake",
                        "hit": true,
                        "count": 25,
                        "matches": [
                            "/firefly/vi_sensor/camera_depth/depth/camera_info",
                            "/firefly/vi_sensor/camera_depth/parameter_updates",
                            "/firefly/vi_sensor/camera_depth/camera/image_raw/compressedDepth/set_parameters",
                            "/firefly/vi_sensor/camera_depth/depth/points",
                            "/firefly/vi_sensor/camera_depth/camera/image_raw/compressedDepth",
                            "/firefly/vi_sensor/camera_depth/camera/image_raw/compressed/parameter_updates",
                            "/firefly/vi_sensor/camera_depth/camera/image_raw/compressed/set_parameters",
                            "/firefly/vi_sensor/camera_depth/camera/camera_info",
                            "/firefly/vi_sensor/camera_depth/camera/image_raw/theora",
                            "/firefly/vi_sensor/left/set_camera_info",
                            "/firefly/vi_sensor/camera_depth/camera/image_raw/compressed/parameter_descriptions",
                            "/firefly/vi_sensor/left/camera_info",
                            "/firefly/vi_sensor/camera_depth/camera/image_raw/compressed",
                            "/firefly/vi_sensor/right/set_camera_info",
                            "/firefly/vi_sensor/camera_depth/camera/image_raw/theora/set_parameters",
                            "/firefly/vi_sensor/camera_depth/depth/disparity",
                            "/firefly/vi_sensor/camera_depth/camera/image_raw/theora/parameter_updates",
                            "/firefly/vi_sensor/camera_depth/set_parameters",
                            "/firefly/vi_sensor/camera_depth/camera/image_raw/compressedDepth/parameter_updates",
                            "/firefly/vi_sensor/camera_depth/parameter_descriptions",
                            "/firefly/vi_sensor/camera_depth/camera/image_raw/theora/parameter_descriptions",
                            "/firefly/vi_sensor/camera_depth/set_camera_info",
                            "/firefly/vi_sensor/right/camera_info",
                            "/firefly/vi_sensor/camera_depth/camera/image_raw",
                            "/firefly/vi_sensor/camera_depth/camera/image_raw/compressedDepth/parameter_descriptions"
                        ]
                    },
                    {
                        "param": "image_!fake",
                        "hit": true,
                        "count": 39,
                        "matches": [
                            "/firefly/vi_sensor/right/image_raw",
                            "/firefly/vi_sensor/left/image_raw",
                            "/firefly/vi_sensor/camera_depth/camera/image_raw/compressedDepth/set_parameters",
                            "/firefly/vi_sensor/left/image_raw/compressedDepth",
                            "/firefly/vi_sensor/left/image_raw/theora",
                            "/firefly/vi_sensor/right/image_raw/compressed/set_parameters",
                            "/firefly/vi_sensor/camera_depth/camera/image_raw/compressedDepth",
                            "/firefly/vi_sensor/camera_depth/camera/image_raw/compressed/parameter_updates",
                            "/firefly/vi_sensor/right/image_raw/compressedDepth/parameter_updates",
                            "/firefly/vi_sensor/right/image_raw/theora/set_parameters",
                            "/firefly/vi_sensor/left/image_raw/compressed",
                            "/firefly/vi_sensor/camera_depth/camera/image_raw/compressed/set_parameters",
                            "/firefly/vi_sensor/camera_depth/camera/image_raw/theora",
                            "/firefly/vi_sensor/camera_depth/camera/image_raw/compressed/parameter_descriptions",
                            "/firefly/vi_sensor/left/image_raw/compressed/parameter_descriptions",
                            "/firefly/vi_sensor/left/image_raw/compressedDepth/parameter_descriptions",
                            "/firefly/vi_sensor/right/image_raw/compressed",
                            "/firefly/vi_sensor/camera_depth/camera/image_raw/compressed",
                            "/firefly/vi_sensor/left/image_raw/compressed/parameter_updates",
                            "/firefly/vi_sensor/camera_depth/camera/image_raw/theora/set_parameters",
                            "/firefly/vi_sensor/right/image_raw/compressedDepth/set_parameters",
                            "/firefly/vi_sensor/right/image_raw/compressedDepth/parameter_descriptions",
                            "/firefly/vi_sensor/camera_depth/camera/image_raw/theora/parameter_updates",
                            "/firefly/vi_sensor/right/image_raw/theora",
                            "/firefly/vi_sensor/right/image_raw/compressed/parameter_descriptions",
                            "/firefly/vi_sensor/left/image_raw/theora/parameter_descriptions",
                            "/firefly/vi_sensor/right/image_raw/compressed/parameter_updates",
                            "/firefly/vi_sensor/camera_depth/camera/image_raw/compressedDepth/parameter_updates",
                            "/firefly/vi_sensor/left/image_raw/theora/parameter_updates",
                            "/firefly/vi_sensor/left/image_raw/compressedDepth/set_parameters",
                            "/firefly/vi_sensor/left/image_raw/theora/set_parameters",
                            "/firefly/vi_sensor/camera_depth/camera/image_raw/theora/parameter_descriptions",
                            "/firefly/vi_sensor/left/image_raw/compressedDepth/parameter_updates",
                            "/firefly/vi_sensor/right/image_raw/theora/parameter_updates",
                            "/firefly/vi_sensor/left/image_raw/compressed/set_parameters",
                            "/firefly/vi_sensor/camera_depth/camera/image_raw",
                            "/firefly/vi_sensor/right/image_raw/compressedDepth",
                            "/firefly/vi_sensor/right/image_raw/theora/parameter_descriptions",
                            "/firefly/vi_sensor/camera_depth/camera/image_raw/compressedDepth/parameter_descriptions"
                        ]
                    },
                    {
                        "param": "pointgrey_!fake",
                        "hit": false,
                        "count": 0,
                        "matches": []
                    },
                    {
                        "param": "usb_cam_!fake",
                        "hit": false,
                        "count": 0,
                        "matches": []
                    }
                ]
            },
            "camera_depth": {
                "param": "or",
                "hit": true,
                "children": [
                    {
                        "param": "camera_depth_!fake",
                        "hit": true,
                        "count": 21,
                        "matches": [
                            "/firefly/vi_sensor/camera_depth/depth/camera_info",
                            "/firefly/vi_sensor/camera_depth/parameter_updates",
                            "/firefly/vi_sensor/camera_depth/camera/image_raw/compressedDepth/set_parameters",
                            "/firefly/vi_sensor/camera_depth/depth/points",
                            "/firefly/vi_sensor/camera_depth/camera/image_raw/compressedDepth",
                            "/firefly/vi_sensor/camera_depth/camera/image_raw/compressed/parameter_updates",
                            "/firefly/vi_sensor/camera_depth/camera/image_raw/compressed/set_parameters",
                            "/firefly/vi_sensor/camera_depth/camera/camera_info",
                            "/firefly/vi_sensor/camera_depth/camera/image_raw/theora",
                            "/firefly/vi_sensor/camera_depth/camera/image_raw/compressed/parameter_descriptions",
                            "/firefly/vi_sensor/camera_depth/camera/image_raw/compressed",
                            "/firefly/vi_sensor/camera_depth/camera/image_raw/theora/set_parameters",
                            "/firefly/vi_sensor/camera_depth/depth/disparity",
                            "/firefly/vi_sensor/camera_depth/camera/image_raw/theora/parameter_updates",
                            "/firefly/vi_sensor/camera_depth/set_parameters",
                            "/firefly/vi_sensor/camera_depth/camera/image_raw/compressedDepth/parameter_updates",
                            "/firefly/vi_sensor/camera_depth/parameter_descriptions",
                            "/firefly/vi_sensor/camera_depth/camera/image_raw/theora/parameter_descriptions",
                            "/firefly/vi_sensor/camera_depth/set_camera_info",
                            "/firefly/vi_sensor/camera_depth/camera/image_raw",
                            "/firefly/vi_sensor/camera_depth/camera/image_raw/compressedDepth/parameter_descriptions"
                        ]
                    },
                    {
                        "param": "compressedDepth",
                        "hit": true,
                        "count": 12,
                        "matches": [
                            "/firefly/vi_sensor/camera_depth/camera/image_raw/compressedDepth/set_parameters",
                            "/firefly/vi_sensor/left/image_raw/compressedDepth",
                            "/firefly/vi_sensor/camera_depth/camera/image_raw/compressedDepth",
                            "/firefly/vi_sensor/right/image_raw/compressedDepth/parameter_updates",
                            "/firefly/vi_sensor/left/image_raw/compressedDepth/parameter_descriptions",
                            "/firefly/vi_sensor/right/image_raw/compressedDepth/set_parameters",
                            "/firefly/vi_sensor/right/image_raw/compressedDepth/parameter_descriptions",
                            "/firefly/vi_sensor/camera_depth/camera/image_raw/compressedDepth/parameter_updates",
                            "/firefly/vi_sensor/left/image_raw/compressedDepth/set_parameters",
                            "/firefly/vi_sensor/left/image_raw/compressedDepth/parameter_updates",
                            "/firefly/vi_sensor/right/image_raw/compressedDepth",
                            "/firefly/vi_sensor/camera_depth/camera/image_raw/compressedDepth/parameter_descriptions"
                        ]
                    },
                    {
                        "param": "registered_points",
                        "hit": false,
                        "count": 0,
                        "matches": []
                    }
                ]
            },
            "imu": {
                "param": "imu",
                "hit": true,
                "count": 3,
                "matches": [
                    "/firefly/vi_sensor/imu",
                    "/firefly/ground_truth/imu",
                    "/firefly/imu"
                ]
            },
            "point_cloud": {
                "param": "or",
                "hit": true,
                "children": [
                    {
                        "param": "point_cloud",
                        "hit": true,
                        "count": 1,
                        "matches": [
                            "/firefly/nbvPlanner/save_point_cloud"
                        ]
                    },
                    {
                        "param": "depth_map",
                        "hit": false,
                        "count": 0,
                        "matches": []
                    }
                ]
            }
        },
        "actuators": {},
        "other": {
            "rviz": {
                "param": "rviz",
                "hit": true,
                "count": 4,
                "matches": [
                    "/rviz_1512029212059436226",
                    "/rviz_1512029212059436226/set_logger_level",
                    "/rviz_1512029212059436226/reload_shaders",
                    "/rviz_1512029212059436226/get_loggers"
                ]
            },
            "transform": {
                "param": "or",
                "hit": true,
                "children": [
                    {
                        "param": "tf",
                        "hit": true,
                        "count": 17,
                        "matches": [
                            "/tf_53/set_logger_level",
                            "/tf_3/get_loggers",
                            "/tf_2",
                            "/tf_1",
                            "/tf_53",
                            "/tf",
                            "/tf_4/get_loggers",
                            "/tf_2/set_logger_level",
                            "/tf_3/set_logger_level",
                            "/tf_4/set_logger_level",
                            "/tf_53/get_loggers",
                            "/tf_4",
                            "/tf_static",
                            "/tf_3",
                            "/tf_1/set_logger_level",
                            "/tf_1/get_loggers",
                            "/tf_2/get_loggers"
                        ]
                    },
                    {
                        "param": "tf_static",
                        "hit": true,
                        "count": 1,
                        "matches": [
                            "/tf_static"
                        ]
                    }
                ]
            }
        },
        "robot_types": {},
        "targets": {
            "map": {
                "param": "map",
                "hit": true,
                "count": 4,
                "matches": [
                    "/firefly/nbvPlanner/get_map",
                    "/firefly/nbvPlanner/reset_map",
                    "/firefly/nbvPlanner/save_map",
                    "/firefly/nbvPlanner/load_map"
                ]
            }
        }
    },
    "inferred_results": {
        "identified_robot": false,
        "only_sim": true,
        "likely_empty": false,
        "only_sensors": false,
        "only_actuators": false,
        "only_services": false,
        "needs_more_info": false,
        "confirmed_ros": true,
        "total_hosts": false,
        "is_unconnectable": false,
        "search_hit_sim": true,
        "has_sensor": true,
        "has_actuator": false,
        "has_hostname": true,
        "missing_term_data": false,
        "has_description": false,
        "has_descr_name": false,
        "has_search_hits": true,
        "manually_tagged": false,
        "search_hit_gazebo": true,
        "likely_non_robot": true
    }
}
