{
    "ip": "130.79.48.19",
    "dns.hostname": "rosnet.u-strasbg.fr",
    "dns.authority": "ns1.u-strasbg.fr. hostmaster.u-strasbg.fr. 2018012622 3600 3600 1209600 3600",
    "geoip.country": "France",
    "geoip.country_code": "FR",
    "geoip.specific_name": "Bas-Rhin",
    "geoip.specific_name_code": "67",
    "geoip.latitude": 48.6004,
    "geoip.longitude": 7.7874,
    "geoip.as_number": 2259,
    "geoip.as_organization": "Renater",
    "shodan.ports": "",
    "shodan.tags": "",
    "rosversion": {
        "port": "9090",
        "type": "rosbridge",
        "method": "rosversion",
        "arg": "/rosversion",
        "status": "socket_error",
        "error": {
            "code": -1,
            "errno": 111,
            "msg": "Connection refused"
        }
    },
    "rosrbtopics": "",
    "rospublishers": {
        "port": "9090",
        "type": "rosbridge",
        "method": "publishers",
        "arg": "/rosapi/publishers",
        "status": "socket_error",
        "error": {
            "code": -1,
            "errno": 111,
            "msg": "Connection refused"
        }
    },
    "rossubscribers": {
        "port": "9090",
        "type": "rosbridge",
        "method": "subscribers",
        "arg": "/rosapi/subscribers",
        "status": "socket_error",
        "error": {
            "code": -1,
            "errno": 111,
            "msg": "Connection refused"
        }
    },
    "rosservices": {
        "port": "9090",
        "type": "rosbridge",
        "method": "services",
        "arg": "/rosapi/services",
        "status": "socket_error",
        "error": {
            "code": -1,
            "errno": 111,
            "msg": "Connection refused"
        }
    },
    "rosparamnames": {
        "port": "9090",
        "type": "rosbridge",
        "method": "paramnames",
        "arg": "/rosapi/get_param_names",
        "status": "socket_error",
        "error": {
            "code": -1,
            "errno": 111,
            "msg": "Connection refused"
        }
    },
    "rosdescription": {
        "port": "9090",
        "type": "rosbridge",
        "method": "robot_description",
        "arg": "/robot_description",
        "status": "socket_error",
        "error": {
            "code": -1,
            "errno": 111,
            "msg": "Connection refused"
        }
    },
    "query_stats": {
        "param_count": 0,
        "publisher_count": 0,
        "subscriber_count": 0,
        "service_count": 0,
        "term_count": 0,
        "alphaterm_count": 0,
        "topic_count": 0,
        "has_description": false,
        "is_ros": false,
        "missing_term_data": true,
        "has_hostname": false,
        "roslaunch_machine_hostnames": []
    },
    "search_info": "",
    "search_stats": "",
    "inferred_results": {
        "identified_robot": false,
        "only_sim": false,
        "likely_empty": false,
        "only_sensors": false,
        "only_actuators": false,
        "only_services": false,
        "needs_more_info": false,
        "confirmed_ros": false,
        "total_hosts": false,
        "is_unconnectable": true,
        "search_hit_sim": false,
        "has_sensor": false,
        "has_actuator": false,
        "has_hostname": false,
        "missing_term_data": true,
        "has_description": false,
        "has_descr_name": false,
        "has_search_hits": false,
        "manually_tagged": false,
        "search_hit_gazebo": false,
        "likely_non_robot": false
    }
}
