{
    "ip": "92.169.222.141",
    "dns.hostname": "LFbn-1-4235-141.w92-169.abo.wanadoo.fr",
    "dns.authority": "ns.wanadoo.fr. postmaster.wanadoo.fr. 2015111202 86400 7200 604800 172800",
    "geoip.country": "France",
    "geoip.country_code": "FR",
    "geoip.specific_name": "Essonne",
    "geoip.specific_name_code": "91",
    "geoip.latitude": 48.7269,
    "geoip.longitude": 2.283,
    "geoip.as_number": 3215,
    "geoip.as_organization": "Orange",
    "shodan.ports": [
        1883,
        8080,
        5432,
        80,
        22
    ],
    "shodan.tags": [
        "database"
    ],
    "rosversion": {
        "port": "9090",
        "type": "rosbridge",
        "method": "rosversion",
        "arg": "/rosversion",
        "status": "socket_error",
        "error": {
            "code": -1,
            "errno": 111,
            "msg": "Connection refused"
        }
    },
    "rosrbtopics": "",
    "rospublishers": {
        "port": "9090",
        "type": "rosbridge",
        "method": "publishers",
        "arg": "/rosapi/publishers",
        "status": "socket_error",
        "error": {
            "code": -1,
            "errno": 111,
            "msg": "Connection refused"
        }
    },
    "rossubscribers": {
        "port": "9090",
        "type": "rosbridge",
        "method": "subscribers",
        "arg": "/rosapi/subscribers",
        "status": "socket_error",
        "error": {
            "code": -1,
            "errno": 111,
            "msg": "Connection refused"
        }
    },
    "rosservices": {
        "port": "9090",
        "type": "rosbridge",
        "method": "services",
        "arg": "/rosapi/services",
        "status": "socket_error",
        "error": {
            "code": -1,
            "errno": 111,
            "msg": "Connection refused"
        }
    },
    "rosparamnames": {
        "port": "9090",
        "type": "rosbridge",
        "method": "paramnames",
        "arg": "/rosapi/get_param_names",
        "status": "socket_error",
        "error": {
            "code": -1,
            "errno": 111,
            "msg": "Connection refused"
        }
    },
    "rosdescription": {
        "port": "9090",
        "type": "rosbridge",
        "method": "robot_description",
        "arg": "/robot_description",
        "status": "socket_error",
        "error": {
            "code": -1,
            "errno": 111,
            "msg": "Connection refused"
        }
    },
    "query_stats": {
        "param_count": 0,
        "publisher_count": 0,
        "subscriber_count": 0,
        "service_count": 0,
        "term_count": 0,
        "alphaterm_count": 0,
        "topic_count": 0,
        "has_description": false,
        "is_ros": false,
        "missing_term_data": true,
        "has_hostname": false,
        "roslaunch_machine_hostnames": []
    },
    "search_info": "",
    "search_stats": "",
    "inferred_results": {
        "identified_robot": false,
        "only_sim": false,
        "likely_empty": false,
        "only_sensors": false,
        "only_actuators": false,
        "only_services": false,
        "needs_more_info": false,
        "confirmed_ros": false,
        "total_hosts": false,
        "is_unconnectable": true,
        "search_hit_sim": false,
        "has_sensor": false,
        "has_actuator": false,
        "has_hostname": false,
        "missing_term_data": true,
        "has_description": false,
        "has_descr_name": false,
        "has_search_hits": false,
        "manually_tagged": false,
        "search_hit_gazebo": false,
        "likely_non_robot": false
    }
}
