{
    "ip": "52.59.111.141",
    "dns.hostname": "ec2-52-59-111-141.eu-central-1.compute.amazonaws.com",
    "dns.authority": "dns-external-master.amazon.com. root.amazon.com. 1436 3600 900 604800 900",
    "geoip.country": "Germany",
    "geoip.country_code": "DE",
    "geoip.specific_name": "Hesse",
    "geoip.specific_name_code": "HE",
    "geoip.latitude": 50.1167,
    "geoip.longitude": 8.6833,
    "geoip.as_number": 16509,
    "geoip.as_organization": "Amazon.com, Inc.",
    "shodan.ports": [
        22,
        8000,
        8080
    ],
    "shodan.tags": [
        "cloud"
    ],
    "rosversion": {
        "port": "9090",
        "type": "rosbridge",
        "method": "rosversion",
        "arg": "/rosversion",
        "status": "ok",
        "response": {
            "values": {
                "value": "\"1.11.21\\n\""
            },
            "result": true,
            "service": "/rosapi/get_param",
            "op": "service_response"
        }
    },
    "rosrbtopics": "",
    "rospublishers": {
        "port": "9090",
        "type": "rosbridge",
        "method": "publishers",
        "arg": "/rosapi/publishers",
        "status": "ok",
        "response": {
            "values": {
                "publishers": []
            },
            "result": true,
            "service": "/rosapi/publishers",
            "op": "service_response"
        }
    },
    "rossubscribers": {
        "port": "9090",
        "type": "rosbridge",
        "method": "subscribers",
        "arg": "/rosapi/subscribers",
        "status": "ok",
        "response": {
            "values": {
                "subscribers": []
            },
            "result": true,
            "service": "/rosapi/subscribers",
            "op": "service_response"
        }
    },
    "rosservices": {
        "port": "9090",
        "type": "rosbridge",
        "method": "services",
        "arg": "/rosapi/services",
        "status": "ok",
        "response": {
            "values": {
                "services": [
                    "/rosbag_record_manager/set_logger_level",
                    "/rosapi/services",
                    "/path_energy_estimator/get_loggers",
                    "/pause_mission",
                    "/rosapi/get_loggers",
                    "/rosapi/has_param",
                    "/coverage_planner/get_loggers",
                    "/rosapi/delete_param",
                    "/executor/get_loggers",
                    "/execute_goto",
                    "/rosapi/search_param",
                    "/cloud_adapter/set_logger_level",
                    "/estimate_battery",
                    "/cloud_executor/set_logger_level",
                    "/rosapi/topic_type",
                    "/coverage_planner/set_logger_level",
                    "/mission_player/set_logger_level",
                    "/rosapi/get_param",
                    "/obs_avoid_planner/set_logger_level",
                    "/executor/set_logger_level",
                    "/obs_avoid_planner/get_loggers",
                    "/rosapi/set_logger_level",
                    "/rosapi/service_response_details",
                    "/rosout/set_logger_level",
                    "/connect_backend_ros/get_loggers",
                    "/rosbridge_websocket/get_loggers",
                    "/rosapi/publishers",
                    "/connect_backend_ros/set_logger_level",
                    "/rosapi/topics",
                    "/rosapi/get_param_names",
                    "/warning_status/get_loggers",
                    "/rosapi/get_time",
                    "/rosbridge_websocket_dji/get_loggers",
                    "/rosapi/service_host",
                    "/rosbridge_websocket/set_logger_level",
                    "/rosapi/message_details",
                    "/rosbridge_websocket_dji/set_logger_level",
                    "/rosbag_record_manager/get_loggers",
                    "/rosapi/service_node",
                    "/rosapi/services_for_type",
                    "/cloud_executor/get_loggers",
                    "/cloud_adapter/get_loggers",
                    "/resume_mission",
                    "/rosapi/nodes",
                    "/rosapi/node_details",
                    "/path_energy_estimator/set_logger_level",
                    "/rosapi/service_providers",
                    "/rosout/get_loggers",
                    "/mission_player/get_loggers",
                    "/rosapi/topics_for_type",
                    "/rosapi/set_param",
                    "/controller_requests",
                    "/rosapi/service_request_details",
                    "/rosapi/subscribers",
                    "/warning_status/set_logger_level",
                    "/rosapi/service_type"
                ]
            },
            "result": true,
            "service": "/rosapi/services",
            "op": "service_response"
        }
    },
    "rosparamnames": {
        "port": "9090",
        "type": "rosbridge",
        "method": "paramnames",
        "arg": "/rosapi/get_param_names",
        "status": "ok",
        "response": {
            "values": {
                "names": [
                    "/roslaunch/uris/host_c1fdec5cf6f9__43869",
                    "/roslaunch/uris/host_dd5a7ccc70ac__49700",
                    "/rosbridge_websocket/fragment_timeout",
                    "/rosbridge_websocket/authenticate",
                    "/rosbridge_websocket/retry_startup_delay",
                    "/rosbridge_websocket/max_message_size",
                    "/rosbridge_websocket/address",
                    "/rosbridge_websocket/delay_between_messages",
                    "/rosbridge_websocket/port",
                    "/path_energy_estimator/thread_num",
                    "/rosversion",
                    "/cloud_executor/sim",
                    "/cloud_executor/drone_name",
                    "/cloud_executor/installation_id",
                    "/run_id",
                    "/connect_backend_ros/installation_id",
                    "/coverage_planner/thread_num",
                    "/rosbridge_websocket_dji/fragment_timeout",
                    "/rosbridge_websocket_dji/authenticate",
                    "/rosbridge_websocket_dji/retry_startup_delay",
                    "/rosbridge_websocket_dji/max_message_size",
                    "/rosbridge_websocket_dji/address",
                    "/rosbridge_websocket_dji/delay_between_messages",
                    "/rosbridge_websocket_dji/port",
                    "/warning_status/installation_id",
                    "/rosdistro",
                    "/obs_avoid_planner/thread_num"
                ]
            },
            "result": true,
            "service": "/rosapi/get_param_names",
            "op": "service_response"
        }
    },
    "rosdescription": {
        "port": "9090",
        "type": "rosbridge",
        "method": "robot_description",
        "arg": "/robot_description",
        "status": "ok",
        "response": {
            "values": {
                "value": "null"
            },
            "result": true,
            "service": "/rosapi/get_param",
            "op": "service_response"
        }
    },
    "query_stats": {
        "param_count": 27,
        "publisher_count": 0,
        "subscriber_count": 0,
        "service_count": 56,
        "term_count": 123,
        "alphaterm_count": 123,
        "topic_count": 96,
        "has_description": false,
        "is_ros": true,
        "roscore_version": "1.11",
        "ros_version_name": "indigo",
        "missing_term_data": true,
        "roslaunch_machine_hostnames": [
            "c1fdec5cf6f9",
            "dd5a7ccc70ac"
        ],
        "has_hostname": false
    },
    "search_info": {
        "count_control": 0,
        "count_simulators": 0,
        "count_sensors": 1,
        "count_actuators": 0,
        "count_other": 1,
        "count_robot_types": 0,
        "count_targets": 1,
        "total_query_hits": 3
    },
    "search_stats": {
        "control": {},
        "simulators": {},
        "sensors": {
            "battery": {
                "param": "or",
                "hit": true,
                "children": [
                    {
                        "param": "battery",
                        "hit": true,
                        "count": 2,
                        "matches": [
                            "/estimate_battery",
                            "/battery_status"
                        ]
                    },
                    {
                        "param": "voltage",
                        "hit": false,
                        "count": 0,
                        "matches": []
                    }
                ]
            }
        },
        "actuators": {},
        "other": {
            "rosbridge": {
                "param": "rosbridge",
                "hit": true,
                "count": 4,
                "matches": [
                    "/rosbridge_websocket_dji/get_loggers",
                    "/rosbridge_websocket/set_logger_level",
                    "/rosbridge_websocket/get_loggers",
                    "/rosbridge_websocket_dji/set_logger_level"
                ]
            }
        },
        "robot_types": {},
        "targets": {
            "drone": {
                "param": "drone",
                "hit": true,
                "count": 3,
                "matches": [
                    "/telem_drone_ss_bms",
                    "/telem_drone_nav_est",
                    "/telem_drone_status"
                ]
            }
        }
    },
    "inferred_results": {
        "identified_robot": false,
        "only_sim": false,
        "likely_empty": false,
        "only_sensors": true,
        "only_actuators": false,
        "only_services": false,
        "needs_more_info": false,
        "confirmed_ros": true,
        "total_hosts": false,
        "is_unconnectable": false,
        "search_hit_sim": false,
        "has_sensor": true,
        "has_actuator": false,
        "has_hostname": false,
        "missing_term_data": true,
        "has_description": false,
        "has_descr_name": false,
        "has_search_hits": true,
        "manually_tagged": false,
        "search_hit_gazebo": false,
        "likely_non_robot": false
    }
}
