126.9743 37.5111
-122.2536 37.8668
-97.822 37.751
-122.0214 37.3697
23.7167 37.9667
126.97409999999999 37.5112
-88.6471 47.1544
127.4197 36.3214
-119.8371 34.4329
22.9439 40.6403
-73.9653 40.8006
-71.1028 42.3646
-117.7143 34.1223
-71.3977 41.8267
126.9743 37.5111
126.9743 37.5111
6.551 53.2166
-86.777 36.1473
18.056 59.3247
-118.2987 33.7866
8.6833 50.1167
-1.9167 52.4667
4.3782 52.0186
6.551 53.2166
151.1982 -33.8612
22.9439 40.6403
-117.2359 32.8807
-3.6837999999999997 40.4167
-86.6456 34.7339
-122.2872 47.6854
127.4197 36.3214
-117.2359 32.8807
-122.2919 47.6606
22.9439 40.6403
-83.7113 42.3241
-72.5185 42.3672
114.15 22.2833
-122.2536 37.8668
-3.6837999999999997 40.4167
127.4197 36.3214
114.15 22.2833
115.9333 28.55
127.4197 36.3214
4.65 51.1667
-71.1028 42.3646
126.9743 37.5111
-75.1968 39.9597
121.3187 24.9896
-71.3977 41.8267
22.15 65.5833
127.4197 36.3214
-118.2987 33.7866
23.7167 37.9667
-97.822 37.751
-71.1028 42.3646
127.4197 36.3214
-71.1028 42.3646
-75.1968 39.9597
8.05 52.2667
7.6 50.35
-83.7409 42.2776
-73.9653 40.8006
16.6333 49.2
-121.8914 37.3388
126.9743 37.5111
-122.2536 37.8668
-71.0878 42.3424
-97.822 37.751
-122.0214 37.3697
4.35 50.85
116.3883 39.9289
22.15 65.5833
14.4667 50.0833
-117.7143 34.1223
-71.3977 41.8267
126.9743 37.5111
6.551 53.2166
-86.777 36.1473
-118.2987 33.7866
8.6833 50.1167
4.45 51.1333
-122.2872 47.6854
-8.419599999999999 40.2056
-118.2987 33.7866
121.4966 25.0418
-71.1028 42.3646
151.1982 -33.8612
-70.9627 43.1271
22.9439 40.6403
6.551 53.2166
-3.6837999999999997 40.4167
127.4197 36.3214
-3.6837999999999997 40.4167
-117.2359 32.8807
22.9439 40.6403
0.1 50.9667
-83.7113 42.3241
-72.5185 42.3672
22.9439 40.6403
-77.6376 43.0899
-122.2536 37.8668
-86.777 36.1473
-71.1028 42.3646
120.1614 30.2936
22.15 65.5833
127.4197 36.3214
23.7167 37.9667
-118.2987 33.7866
37.5153 55.9372
-97.822 37.751
-71.1028 42.3646
-71.1028 42.3646
116.3883 39.9289
8.05 52.2667
126.9743 37.5111
-83.7409 42.2776
8.8 53.0833
-121.8914 37.3388
126.9743 37.5111
-71.0878 42.3424
-97.822 37.751
-122.0214 37.3697
-122.2919 47.6606
114.15 22.2833
-75.1968 39.9597
22.15 65.5833
14.4667 50.0833
-6.2595 53.3389
-117.7143 34.1223
-71.3977 41.8267
126.9743 37.5111
-122.2536 37.8668
8.6833 50.1167
4.45 51.1333
-122.2872 47.6854
-8.419599999999999 40.2056
-71.1028 42.3646
114.15 22.2833
-122.2919 47.6606
22.9439 40.6403
-3.6837999999999997 40.4167
127.4197 36.3214
103.8565 1.2854999999999999
-6.2595 53.3389
-72.5185 42.3672
22.9439 40.6403
-122.2536 37.8668
120.1614 30.2936
-75.1968 39.9597
22.15 65.5833
114.15 22.2833
-97.822 37.751
127.4197 36.3214
6.551 53.2166
127.4197 36.3214
8.05 52.2667
126.9743 37.5111
8.8 53.0833
-121.8914 37.3388
128.5911 35.8703
-6.2595 53.3389
-6.2595 53.3389
-121.8914 37.3388
121.0 23.5
-122.2872 47.6854
-6.2595 53.3389
